mr	naturalness_human_rating	naturalness_human_rating_raw	naturalness_rank_loss	naturalness_rank_ok	naturalness_system_rating	naturalness_system_rating_raw	orig_ref	quality_human_rating	quality_human_rating_raw	quality_rank_loss	quality_rank_ok	quality_system_rating	quality_system_rating_raw	system_output	system_output2
inform(name=X-name,type=hotel)	4.0	4.0	0.0	1	4.5	4.4294352531433105		5.0	5.0	0.0	1	4.0	4.201148986816406	the name is X-name and it is a nice hotel .	
inform(name=X-name,kids_allowed=yes,good_for_meal=dinner,area=X-area)	5.0	5.0	0.0	1	4.5	4.469349384307861		5.0	5.0	0.0	1	4.5	4.30330228805542	X-name is a nice restaurant in the X-area areas , allows kids , and is good for dinner .	
inform(name=X-name,kids_allowed=no)	2.0	2.0	0.0	1	5.0	5.143205642700195		4.0	4.0	0.0	1	5.0	5.049112796783447	X-name is a nice restaurant that does not allow children .	
inform(name=X-name,area=X-area,dogs_allowed=no)	6.0	6.0	0.0	1	4.5	4.580413818359375		6.0	6.0	0.0	1	4.5	4.471893310546875	X-name is in X-area and does not allow dogs .	
inform(name=X-name,type=placetoeat,area=X-area,near=X-near,near=X-near,eattype=restaurant)	2.0	2.0	0.0	1	5.0	5.105802059173584		3.0	3.0	0.0	1	5.0	4.977022647857666	X-name is a restaurant in X-area on and to X-near .	
inform(name=X-name,accepts_credit_cards=yes)	5.0	5.0	0.0	1	5.0	5.14865779876709		5.0	5.0	0.0	1	5.0	5.036911487579346	X-name accepts credit cards .	
inform(name=X-name,accepts_credit_cards=yes)	5.0	5.0	0.0	1	5.0	5.14865779876709		5.0	5.0	0.0	1	5.0	5.036911487579346	X-name accepts credit cards .	
inform(name=X-name,area=X-area,dogs_allowed=yes)	3.0	3.0	0.0	1	4.5	4.649383068084717		2.0	2.0	0.0	1	4.5	4.492942810058594	the X-name is near X-area and allows dogs .	
inform(type=restaurant,count=X-count,kids_allowed=dont_care,good_for_meal=dont_care)	1.0	1.0	0.0	1	4.5	4.3477606773376465		1.0	1.0	0.0	1	4.5	4.472411155700684	there are X-count restaurant if you do not care the price meal and various the food do not care whether the kids are allowed .	
inform(name=X-name,address=X-address,postcode=X-postcode)	5.0	5.0	0.0	1	5.5	5.2869720458984375		4.0	4.0	0.0	1	5.0	5.07891845703125	the address of the X-name is X-address , X-postcode .	
inform_no_match(area=X-area)	6.0	6.0	0.0	1	5.0	4.972257614135742		5.0	5.0	0.0	1	4.5	4.702182769775391	there are no restaurants in the X-area area .	
inform(name=X-name,postcode=X-postcode)	4.0	4.0	0.0	1	5.5	5.311925411224365		4.0	4.0	0.0	1	5.0	5.16076135635376	the postcode for X-name is X-postcode .	
inform(name=X-name,type=placetoeat,eattype=restaurant,pricerange=cheap,area=X-area,food=Fastfood)	6.0	6.0	0.0	1	5.0	4.835623741149902		6.0	6.0	0.0	1	4.5	4.747458457946777	X-name is a cheap fast food restaurant near the river .	
inform(name=X-name,price=X-price,phone=X-phone)	4.0	4.0	0.0	1	5.0	5.001309394836426		4.0	4.0	0.0	1	4.5	4.723729133605957	the name of the restaurant is X-name . the price is X-price . their phone number is X-phone .	
inform(name=X-name,type=hotel)	3.0	3.0	0.0	1	5.0	4.870175838470459		2.0	2.0	0.0	1	4.5	4.621313571929932	the X-name is a nice hotel .	
inform(name=X-name,food=lounge,good_for_meal=dinner)	1.0	1.0	0.0	1	4.0	4.156360626220703		1.0	1.0	0.0	1	4.0	4.052535533905029	X-name serves lounge and is good for dinner .	
inform(name=X-name,food=chinese,near=X-near,good_for_meal=dinner,kids_allowed=yes)	4.0	4.0	0.42006898	0	4.0	3.793916940689087		5.0	5.0	0.5433295	0	3.5	3.6694672107696533	X-name , is near X-near , it serves chinese food for dinner , and allows kids .	
inform(name=X-name,area=X-area,food=Chinese,eattype=restaurant)	3.0	3.0	0.0	1	5.0	4.906376361846924		3.0	3.0	0.0	1	5.0	4.825054168701172	X-name is a chinese restaurant near the river and i serve food .	
inform(name=none,area=X-area,near=X-near)	3.0	3.0	0.0	1	5.0	5.047131538391113		3.0	3.0	0.0	1	5.0	4.87516450881958	i 'm X-name venues in the X-area area near X-near .	
inform(name=X-name,price_range=expensive,food=vietnamese)	4.0	4.0	0.0	1	5.0	4.867715358734131		4.0	4.0	0.0	1	4.5	4.7367753982543945	X-name is a nice restaurant that serves vietnamese food in the expensive price range .	
inform(name=X-name,area=X-area,phone=X-phone)	5.0	5.0	0.0	1	5.0	4.945623874664307		4.0	4.0	0.0	1	4.5	4.59088134765625	the phone number for X-name is X-phone and it is located in the X-area heights area .	
inform(name=X-name,type=placetoeat,near=X-near,area=X-area,eattype=restaurant)	5.0	5.0	0.0	1	5.0	4.976839065551758		5.0	5.0	0.0	1	5.0	4.882359981536865	X-name is a high - end restaurant located in riverside near X-near .	
inform(name=X-name,type=placetoeat,eattype=restaurant,near=X-near,area=X-area,food=Italian)	5.0	5.0	0.0	1	5.0	5.058572769165039		5.0	5.0	0.0	1	5.0	4.878885269165039	X-name is an italian restaurant in the riverside area near X-near .	
inform(name=X-name,address=X-address,phone=X-phone)	5.0	5.0	0.0	1	5.0	5.23229455947876		4.0	4.0	0.0	1	5.0	4.915549278259277	the address of X-name is X-address and the phone number is X-phone .	
inform(name=X-name,price_range=moderate,food='gluten free')	4.0	4.0	0.0	1	4.5	4.669281959533691		4.0	4.0	0.0	1	4.5	4.599309921264648	X-name is a moderate gluten free restaurant .	
inform_no_match(area=X-area)	6.0	6.0	0.0	1	5.0	4.946512222290039		5.0	5.0	0.0	1	4.5	4.5529890060424805	there are no hotels near X-area .	
inform(name=X-name,type=placetoeat,eattype=restaurant,area=X-area,near=X-near,near=X-near)	6.0	6.0	0.0	1	5.0	4.957030773162842		6.0	6.0	0.0	1	5.0	4.99967098236084	X-name is a restaurant in the city centre near X-near and X-near .	
request(food)	6.0	6.0	0.0	1	5.0	5.201519966125488		6.0	6.0	0.0	1	5.0	4.994555473327637	what type of food are you looking for ?	
inform(name=X-name,accepts_credit_cards=yes,area=X-area)	5.0	5.0	0.0	1	4.0	4.125823497772217		5.0	5.0	0.0	1	4.0	4.040233612060547	well there is a hotel in the area of X-area called X-name and they accept credit cards .	
inform(name=X-name,kids_allowed=no,good_for_meal=breakfast)	4.0	4.0	0.0	1	5.0	5.020763874053955		5.0	5.0	0.0	1	5.0	4.947755336761475	X-name does not allow kids and is good for breakfast .	
inform(name=X-name,area=X-area)	3.0	3.0	0.0	1	4.0	4.211612224578857		4.0	4.0	0.0	1	4.0	4.1060404777526855	there is a hotel called in the X-name and in the area of X-area .	
inform(name=X-name,address=X-address)	5.0	5.0	0.0	1	5.5	5.333777904510498		5.0	5.0	0.0	1	5.0	5.148472309112549	the address for X-name is X-address .	
inform(name=X-name,type=placetoeat,eattype=restaurant,food=Chinese)	3.0	3.0	0.0	1	5.0	4.861999988555908		3.0	3.0	0.0	1	5.0	4.836932182312012	me i suggest X-name , chinese restaurant .	
inform_only_match(name=X-name,area=X-area)	4.0	4.0	0.0	1	4.5	4.550315856933594		4.0	4.0	0.0	1	4.5	4.313930034637451	the only match i have for you is the X-name in the X-area area .	
inform_no_match(area=X-area)	5.0	5.0	0.0	1	5.5	5.25691556930542		5.0	5.0	0.0	1	5.0	4.949118614196777	i am sorry but there are no hotels in the X-area area .	
inform(name=X-name,price_range=moderate)	6.0	6.0	0.0	1	4.5	4.4915595054626465		4.0	4.0	0.0	1	4.0	4.161806583404541	X-name is in the moderate price range .	
inform(name=X-name,area=X-area)	4.0	4.0	0.0009741783	0	4.0	4.183534145355225		4.0	4.0	0.07308149	0	4.0	3.9638843536376953	X-name is located in the X-area area .	
inform(name=X-name,type=placetoeat,eattype=restaurant,pricerange=expensive,area=X-area,near=X-near)	6.0	6.0	0.0	1	5.0	5.023892402648926		6.0	6.0	0.0	1	5.0	4.862977981567383	X-name is an expensive restaurant in the X-area area near X-near .	
inform(name=X-name,area=X-area,phone=X-phone)	6.0	6.0	0.0	1	5.0	4.844282627105713		6.0	6.0	0.0	1	4.5	4.66324520111084	X-name is in the area of X-area hill , its phone number is X-phone .	
inform(name=X-name,address=X-address,phone=X-phone)	6.0	6.0	0.0	1	5.0	5.09503173828125		3.0	3.0	0.0	1	5.0	4.827782154083252	X-name is located at X-address and the phone number is X-phone .	
inform(name=X-name,food=arabian,good_for_meal=dinner)	4.0	4.0	0.0	1	4.0	4.205537796020508		4.0	4.0	0.0	1	4.0	4.122010707855225	X-name , is a good restaurant that serves arabian food , especially for dinner .	
inform(name=X-name,phone=X-phone)	5.0	5.0	0.0	1	5.5	5.372304439544678		6.0	6.0	0.0	1	5.0	5.097933292388916	the phone number for X-name is X-phone .	
inform_no_match(dogs_allowed=yes,area=X-area)	6.0	6.0	0.0	1	5.0	5.112491130828857		4.0	4.0	0.0	1	5.0	4.912886619567871	i am sorry but there are no hotels near X-area that allow dogs .	
inform(name=X-name,area=X-area,price_range=moderate)	3.0	3.0	0.0	1	4.5	4.547809600830078		4.0	4.0	0.0	1	4.5	4.355834484100342	X-name has a moderate price range in the area of X-area .	
inform(name=X-name,area=X-area)	3.0	3.0	0.0	1	4.5	4.680918216705322		4.0	4.0	0.0	1	4.5	4.460200309753418	the X-name is in the X-area area .	
inform(name=X-name,near=X-near,price_range=moderate)	4.0	4.0	0.0	1	4.5	4.54373836517334		5.0	5.0	0.0	1	4.5	4.281235694885254	X-name is a moderate restaurant near X-near .	
inform(name=X-name,area=X-area,address=X-address,phone=X-phone)	6.0	6.0	0.0	1	5.0	4.985592842102051		5.0	5.0	0.0	1	5.0	4.832983016967773	X-name has 2 locations in X-area , the address is X-address , and the phone number is X-phone .	
inform_no_match(area=X-area)	3.0	3.0	0.0	1	5.5	5.25691556930542		4.0	4.0	0.0	1	5.0	4.949118614196777	i am sorry but there are no hotels in the X-area area .	
inform(name=X-name,area=X-area,kids_allowed=no)	5.0	5.0	0.0	1	4.5	4.562499523162842		3.0	3.0	0.0	1	4.5	4.387811660766602	X-name is in the area of X-area and it does not allow children .	
inform(name=X-name,type=placetoeat,eattype=restaurant,area=X-area,near=X-near,food=Chinese)	6.0	6.0	0.0	1	5.0	4.920271396636963		6.0	6.0	0.0	1	5.0	4.873745918273926	X-name is a restaurant in X-area near X-near and x .	
inform_only_match(name=X-name,near=X-near)	3.0	3.0	0.0	1	4.5	4.285526752471924		4.0	4.0	0.0	1	4.0	4.229365348815918	just X-name near X-near .	
inform(name=X-name,type=placetoeat,eattype=restaurant,area=X-area,pricerange=cheap,near=X-near,near=X-near)	5.0	5.0	0.0	1	5.0	5.102048397064209		6.0	6.0	0.0	1	5.0	5.188283920288086	X-name is a restaurant in the centre of town near X-near .	
inform(name=X-name,area=X-area,address=X-address,phone=X-phone)	4.0	4.0	0.0	1	5.0	4.972307205200195		3.0	3.0	0.0	1	5.0	4.830227851867676	X-name is in X-area south at the address is X-address , and the phone number is X-phone .	
inform_no_match(area=X-area,dogs_allowed=yes)	6.0	6.0	0.0	1	5.0	5.174515724182129		4.0	4.0	0.0	1	5.0	4.950468063354492	i am sorry but there are no hotels near X-area that allow dogs .	
inform(name=X-name,area=X-area,address=X-address)	5.0	5.0	0.0	1	4.5	4.691423416137695		5.0	5.0	0.0	1	4.5	4.512481212615967	X-name is in the X-area hill area and the address is X-address .	
inform(name=X-name,area=X-area)	3.0	3.0	0.0	1	4.0	4.211612224578857		2.0	2.0	0.0	1	4.0	4.1060404777526855	there is a hotel called in the X-name and in the area of X-area .	
inform(name=X-name,type=placetoeat,eattype=restaurant,pricerange=moderate,area=X-area,food=Indian,food='Indian takeaway')	5.0	5.0	0.0	1	4.5	4.521119594573975		5.0	5.0	0.0	1	4.5	4.390218734741211	X-name is an indian restaurant in the moderate price range that offers indian takeaway and riverside .	
inform(type=hotel,count=X-count,area=dont_care)	6.0	6.0	0.0	1	5.0	4.935724258422852		6.0	6.0	0.0	1	5.0	4.789560794830322	there are X-count hotels available if its locations does not matter .	
inform(name=X-name,has_internet=yes,accepts_credit_cards=yes)	6.0	6.0	0.0	1	5.0	4.962131500244141		5.0	5.0	0.0	1	5.0	4.7723307609558105	X-name has internet and accepts credit cards .	
inform(name=X-name,price_range=moderate,kids_allowed=no,food=tapas)	4.0	4.0	0.0	1	4.5	4.725783824920654		4.0	4.0	0.0	1	4.5	4.573669910430908	the restaurant i recommend is X-name , it serves tapas moderately priced and does not allow children .	
confirm(area=dont_care)	4.0	4.0	0.078469515	0	4.0	3.9663827419281006		6.0	6.0	0.0	1	4.0	3.915947914123535	you do not care about the area ?	
inform_no_match(near=X-near,dogs_allowed=yes)	4.0	4.0	0.0	1	5.0	4.923661231994629		5.0	5.0	0.0	1	5.0	4.825852870941162	i am sorry there is no match near X-near that allows dogs .	
inform(name=X-name,near=X-near,kids_allowed=yes,price_range=moderate,food='new american')	5.0	5.0	0.0	1	4.5	4.5462727546691895		5.0	5.0	0.0	1	4.5	4.39461088180542	X-name is a moderate new american near X-near and allows children .	
inform(name=X-name,price_range=cheap,food=vegetarian)	5.0	5.0	0.0	1	5.0	4.751754283905029		2.0	2.0	0.0	1	4.5	4.6043806076049805	X-name is a cheap vegetarian restaurant .	
inform(name=X-name,good_for_meal=dinner,near=X-near,price_range=cheap)	2.0	2.0	0.16998243	0	3.5	3.7025182247161865		1.0	1.0	0.22463465	0	3.5	3.4860122203826904	X-name , is near X-near , the is good for dinner , and it is in the cheap price range .	
inform(name=X-name,type=placetoeat,near=X-near,pricerange=expensive,eattype=restaurant)	6.0	6.0	0.0	1	5.0	5.06689453125		6.0	6.0	0.0	1	5.0	4.919252872467041	X-name is an expensive restaurant near X-near .	
inform(name=X-name,price_range=expensive)	6.0	6.0	0.0	1	4.5	4.650417327880859		6.0	6.0	0.0	1	4.5	4.4885454177856445	X-name is in the expensive price range .	
inform(name=X-name,type=placetoeat,eattype=restaurant,area=X-area,near=X-near,food=Contemporary,food=English)	6.0	6.0	0.0	1	5.0	5.03499174118042		5.0	5.0	0.0	1	5.0	4.826902389526367	X-name is an english restaurant in X-area .	
inform(name=X-name,phone=X-phone)	6.0	6.0	0.0	1	5.5	5.372304439544678		5.0	5.0	0.0	1	5.0	5.097933292388916	the phone number for X-name is X-phone .	
inform(name=X-name,kids_allowed=yes)	5.0	5.0	0.0	1	5.5	5.262807846069336		6.0	6.0	0.0	1	5.0	5.136602878570557	X-name allows children .	
inform(name=X-name,area=X-area,phone=X-phone)	3.0	3.0	0.0	1	5.0	4.844282627105713		3.0	3.0	0.0	1	4.5	4.66324520111084	X-name is in the area of X-area hill , its phone number is X-phone .	
inform(name=X-name,kids_allowed=yes,good_for_meal=dinner)	5.0	5.0	0.0	1	4.0	4.158824920654297		4.0	4.0	0.0	1	4.0	4.0423455238342285	X-name allows kids , and is good for dinner .	
inform(name=X-name,type=placetoeat,eattype=restaurant,pricerange=moderate,area=X-area,food=Indian)	6.0	6.0	0.0	1	4.5	4.699062824249268		6.0	6.0	0.0	1	4.5	4.584938049316406	X-name is a moderately priced indian restaurant located in the X-area area .	
inform(name=X-name,has_internet=yes)	6.0	6.0	0.0	1	5.0	4.991920471191406		5.0	5.0	0.0	1	4.5	4.733714580535889	X-name has internet .	
inform(name=X-name,type=restaurant)	6.0	6.0	0.0	1	5.0	5.247287273406982		6.0	6.0	0.0	1	5.0	5.041327953338623	X-name is a nice restaurant .	
inform(name=none,area=X-area,near=X-near)	5.0	5.0	0.0	1	5.0	5.067534446716309		6.0	6.0	0.0	1	5.0	4.908214569091797	i am sorry but there is X-name information about a venue in X-area near X-near .	
inform(name=X-name,price_range=moderate)	4.0	4.0	0.0	1	4.5	4.495932102203369		5.0	5.0	0.0	1	4.0	4.162496566772461	the X-name is a moderate hotel .	
inform(name=X-name,type=placetoeat,eattype=restaurant,near=X-near,area=X-area,food=Indian)	4.0	4.0	0.0	1	5.0	4.824768543243408		3.0	3.0	0.0	1	4.5	4.678719520568848	X-name is an indian restaurant in the riverside near X-near .	
inform(name=X-name,type=placetoeat,eattype=restaurant,pricerange=expensive,near=X-near,near=X-near)	3.0	3.0	0.0	1	5.5	5.287303447723389		4.0	4.0	0.0	1	5.0	5.165687084197998	X-name is an expensive restaurant in the expensive price range .	
inform_no_match(area=X-area)	5.0	5.0	0.0	1	5.0	5.144363880157471		6.0	6.0	0.0	1	5.0	5.025184154510498	i am sorry i am not finding any hotels in the X-area area .	
inform(type=hotel,count=X-count,price_range=dont_care)	5.0	5.0	0.0	1	5.0	4.768996715545654		4.0	4.0	0.0	1	4.5	4.69804048538208	there are X-count hotels if you do not care the price range .	
confirm(area=X-area)	4.0	4.0	0.04688835	0	4.0	4.2399983406066895		4.0	4.0	0.0	1	4.5	4.304559230804443	you would like to search X-area ?	
inform_no_match(area=X-area,dogs_allowed=yes)	5.0	5.0	0.0	1	5.0	5.0208659172058105		5.0	5.0	0.0	1	5.0	4.819706916809082	i am sorry but there are no hotels in the X-area area that match those requirements allows dogs .	
inform(name=X-name,area=X-area,address=X-address)	5.0	5.0	0.0	1	4.0	4.091069221496582		6.0	6.0	0.1319232	0	4.0	3.916773796081543	X-name , is located in X-area its address is 925 cortland ave .	
inform(name=X-name,food=indian)	6.0	6.0	0.0	1	5.0	4.973081588745117		6.0	6.0	0.0	1	5.0	4.789827823638916	X-name serves indian food .	
inform(name=X-name,price_range=moderate,phone=X-phone)	4.0	4.0	0.0	1	5.0	4.893352508544922		5.0	5.0	0.0	1	4.5	4.673964023590088	X-name is in the moderate price range and the phone number is X-phone .	
inform(name=X-name,type=placetoeat,area=X-area,eattype=restaurant,pricerange=moderate)	6.0	6.0	0.0	1	5.0	4.947876930236816		5.0	5.0	0.0	1	5.0	4.801415920257568	X-name is a moderately priced indian restaurant in X-area .	
inform_no_match(good_for_meal=lunch,food=afghan)	4.0	4.0	0.0	1	4.5	4.60174036026001		5.0	5.0	0.0	1	4.5	4.410092830657959	unfortunately 0 restaurants serve afghan for lunch .	
confirm(near=X-near)	4.0	4.0	0.0	1	4.5	4.734018802642822		2.0	2.0	0.0	1	4.5	4.495188236236572	can i confirm you want X-near with internet connection ?	
inform_only_match(name=X-name,near=X-near,kids_allowed=yes,price_range=moderate)	5.0	5.0	0.0	1	4.0	3.7637462615966797		5.0	5.0	0.0	1	3.5	3.491112470626831	just X-name near X-near that allow kids , and are moderately priced .	
inform(name=X-name,dogs_allowed=yes)	6.0	6.0	0.0	1	5.5	5.265174865722656		5.0	5.0	0.0	1	5.0	5.15147590637207	the X-name allows dogs .	
inform(name=X-name,food=asian)	6.0	6.0	0.0	1	5.0	4.939677715301514		5.0	5.0	0.0	1	4.5	4.742209434509277	X-name serves asian food .	
inform(name=X-name,type=placetoeat,eattype=restaurant,near=X-near,area=X-area,area=X-area)	4.0	4.0	0.0	1	4.5	4.393260955810547		4.0	4.0	0.0	1	4.5	4.3335652351379395	X-name is a restaurant in the centre of town and riverside area near X-near .	
inform(name=X-name,address=X-address,phone=X-phone)	3.0	3.0	0.0	1	5.0	5.23229455947876		3.0	3.0	0.0	1	5.0	4.915549278259277	the address of X-name is X-address and the phone number is X-phone .	
inform(name=X-name,food=persian,good_for_meal=dinner)	6.0	6.0	0.0	1	4.0	4.084127902984619		5.0	5.0	0.0	1	4.0	3.981522798538208	X-name , is a good restaurant that serves persian food , especially for dinner .	
inform(name=X-name,price_range=moderate)	3.0	3.0	0.0	1	4.5	4.4915595054626465		3.0	3.0	0.0	1	4.0	4.161806583404541	X-name is in the moderate price range .	
inform(name=X-name,kids_allowed=yes)	3.0	3.0	0.0	1	5.5	5.262807846069336		4.0	4.0	0.0	1	5.0	5.136602878570557	X-name allows children .	
inform(name=X-name,area=X-area)	5.0	5.0	0.0	1	4.5	4.680918216705322		4.0	4.0	0.0	1	4.5	4.460200309753418	the X-name is in the X-area area .	
inform(name=X-name,type=restaurant)	6.0	6.0	0.0	1	5.0	5.247287273406982		4.0	4.0	0.0	1	5.0	5.041327953338623	X-name is a nice restaurant .	
inform_only_match(name=X-name,near=X-near)	4.0	4.0	0.0	1	4.5	4.661794185638428		5.0	5.0	0.0	1	4.5	4.454807281494141	X-name is the only restaurant listed near X-near .	
inform(name=X-name,area=X-area)	3.0	3.0	0.0	1	4.5	4.302413463592529		4.0	4.0	0.0	1	4.0	4.174413204193115	there is a hotel called in X-name and in the area of X-area .	
inform(name=X-name,type=placetoeat,eattype=restaurant,pricerange=expensive,area=X-area)	6.0	6.0	0.0	1	4.5	4.729009628295898		6.0	6.0	0.0	1	4.5	4.551717281341553	X-name is an expensive restaurant in the X-area area .	
inform(type=hotel,count=X-count,near=X-near)	6.0	6.0	0.0	1	5.5	5.496906757354736		5.0	5.0	0.0	1	5.5	5.327520370483398	there are X-count hotels near X-near .	
inform(name=X-name,type=restaurant)	5.0	5.0	0.0	1	5.0	5.247287273406982		5.0	5.0	0.0	1	5.0	5.041327953338623	X-name is a nice restaurant .	
inform_no_match(area=X-area)	5.0	5.0	0.0	1	5.5	5.25691556930542		4.0	4.0	0.0	1	5.0	4.949118614196777	i am sorry but there are no hotels in the X-area area .	
inform_no_match(area=X-area)	5.0	5.0	0.0	1	5.0	5.144363880157471		5.0	5.0	0.0	1	5.0	5.025184154510498	i am sorry i am not finding any hotels in the X-area area .	
inform_no_match(area=X-area,near=X-near)	6.0	6.0	0.028487682	0	4.5	4.272827625274658		6.0	6.0	0.0	1	4.0	4.151035308837891	there is no match for a hotel in the X-area area near the X-near .	
inform_no_match(area=X-area)	5.0	5.0	0.0	1	5.0	5.144363880157471		5.0	5.0	0.0	1	5.0	5.025184154510498	i am sorry i am not finding any hotels in the X-area area .	
inform(name=X-name,type=restaurant)	6.0	6.0	0.0	1	5.0	5.247287273406982		6.0	6.0	0.0	1	5.0	5.041327953338623	X-name is a nice restaurant .	
inform(name=X-name,type=placetoeat,pricerange=expensive,area=X-area,eattype=restaurant)	5.0	5.0	0.0	1	5.0	4.97067403793335		5.0	5.0	0.0	1	5.0	4.778160572052002	X-name is an expensive restaurant , in the riverside area .	
inform(name=X-name,price_range=cheap,near=X-near)	6.0	6.0	0.0	1	5.0	4.815145015716553		5.0	5.0	0.0	1	4.5	4.6365532875061035	X-name near X-near offers cheap food .	
inform(name=X-name,area=X-area)	2.0	2.0	0.13785744	0	4.0	4.0466508865356445		1.0	1.0	0.2764485	0	4.0	3.7605173587799072	X-name , is in the are of X-area .	
inform(name=X-name,area=X-area,kids_allowed=no,good_for_meal=dinner)	5.0	5.0	0.0	1	4.0	3.971458911895752		5.0	5.0	0.0	1	4.0	3.8451449871063232	X-name , is a nice restaurant in the X-area area that allows children , and is good for dinner .	
inform(name=X-name,kids_allowed=yes,price_range=cheap,good_for_meal=breakfast)	2.0	2.0	0.0	1	5.0	4.8431172370910645		2.0	2.0	0.0	1	4.5	4.729356288909912	X-name has a cheap allows kids , and is good for breakfast .	
inform(name=X-name,price_range=moderate)	4.0	4.0	0.2803321	0	3.5	3.324655294418335		3.0	3.0	0.27276802	0	3.0	3.044574737548828	X-name , is moderate .	
inform(name=X-name,type=placetoeat,eattype=restaurant,area=X-area,food=Fastfood)	6.0	6.0	0.0	1	5.0	5.030041217803955		6.0	6.0	0.0	1	5.0	4.884378910064697	X-name is a fast food restaurant in the riverside area .	
inform(name=X-name,area=X-area,dogs_allowed=yes,has_internet=yes)	4.0	4.0	0.0	1	4.0	4.241771221160889		5.0	5.0	0.0	1	4.0	4.1171650886535645	X-name has internet , is in the X-area area and does allow dogs .	
inform_no_match(price_range=pricey,near=X-near)	4.0	4.0	0.0	1	4.0	4.147580146789551		5.0	5.0	0.0	1	4.0	4.195674896240234	okay well there are no hotels that are in the pricey range in the X-near area .	
inform(name=X-name,type=placetoeat,area=X-area,near=X-near,eattype=restaurant)	5.0	5.0	0.0	1	5.0	5.122975826263428		5.0	5.0	0.0	1	5.0	4.998718738555908	X-name is a restaurant in X-area , near to X-near .	
inform(name=X-name,food=malaysian)	5.0	5.0	0.0	1	5.0	4.918399333953857		3.0	3.0	0.0	1	5.0	4.812164783477783	X-name serves malaysian food .	
inform(name=X-name,good_for_meal=dinner,food=basque)	6.0	6.0	0.0	1	4.5	4.424727439880371		5.0	5.0	0.0	1	4.5	4.304028034210205	X-name , is a good restaurant that serves basque food , especially for dinner .	
inform(name=X-name,area=X-area)	6.0	6.0	0.0	1	4.5	4.482095241546631		5.0	5.0	0.0	1	4.5	4.266526699066162	X-name is in the area of X-area .	
inform_no_match(price_range=expensive,food=cambodian)	1.0	1.0	0.0	1	4.5	4.423588752746582		2.0	2.0	0.0	1	4.5	4.324513912200928	unfortunately 0 restaurants serve cambodian are expensive .	
inform(name=X-name,address=X-address)	5.0	5.0	0.0	1	5.0	5.183603763580322		5.0	5.0	0.0	1	5.0	5.137587547302246	X-name 's address is X-address .	
inform(name=X-name,accepts_credit_cards=yes,dogs_allowed=no,near=X-near)	2.0	2.0	0.0	1	5.5	5.275162220001221		2.0	2.0	0.0	1	5.0	5.13299036026001	the X-name accepts credit cards in X-near does not allow dogs .	
inform_no_match(area=X-area,price_range='ultra high end')	6.0	6.0	0.0	1	5.0	4.854450225830078		6.0	6.0	0.0	1	4.5	4.595767974853516	there are no ultra high end hotels in X-area .	
inform_only_match(name=X-name,price_range=cheap,good_for_meal=brunch)	3.0	3.0	0.0	1	4.5	4.401542663574219		4.0	4.0	0.0	1	4.0	4.069674491882324	there is no place other than X-name that is cheap and a good for brunch .	
inform(name=X-name,area=X-area,address=X-address)	5.0	5.0	0.0	1	4.5	4.2978363037109375		5.0	5.0	0.0	1	4.0	4.070418357849121	X-name , is in the X-area area and it is address is X-address .	
inform(name=X-name,near=X-near,good_for_meal=dinner)	5.0	5.0	0.0	1	4.0	4.096289157867432		6.0	6.0	0.0	1	4.0	3.9741897583007812	X-name , is a nice restaurant near X-near , and is good for dinner .	
inform(name=X-name,address=X-address,phone=X-phone)	5.0	5.0	0.0	1	5.0	5.094955921173096		5.0	5.0	0.0	1	5.0	4.830570697784424	X-name is located at X-address , and their phone number is X-phone .	
inform(name=X-name,type=placetoeat,eattype=restaurant,area=X-area,near=X-near,food=Chinese)	5.0	5.0	0.0	1	4.0	4.086803436279297		5.0	5.0	0.0	1	4.0	4.192620754241943	X-name is a chinese food restaurant and is located in the centre of town area city .	
inform_no_match(area=X-area,good_for_meal=brunch)	6.0	6.0	0.0	1	5.0	4.914632320404053		5.0	5.0	0.0	1	5.0	4.776981830596924	there are no restaurants in X-area that are good for brunch .	
inform(name=X-name,address=X-address,phone=X-phone)	4.0	4.0	0.0	1	5.5	5.332857608795166		4.0	4.0	0.0	1	5.0	4.990848541259766	the address for X-name is X-address . the phone number is X-phone .	
inform(name=X-name,type=restaurant)	6.0	6.0	0.0	1	5.0	5.247287273406982		6.0	6.0	0.0	1	5.0	5.041327953338623	X-name is a nice restaurant .	
inform_no_match(area=X-area)	5.0	5.0	0.0	1	5.0	5.144363880157471		4.0	4.0	0.0	1	5.0	5.025184154510498	i am sorry i am not finding any hotels in the X-area area .	
inform(name=X-name,price_range=cheap,food=taiwanese,good_for_meal=lunch)	5.0	5.0	0.0	1	5.0	4.989503860473633		5.0	5.0	0.0	1	5.0	4.778188228607178	the X-name provides taiwanese lunch for a cheap price range .	
inform(name=X-name,kids_allowed=no,near=X-near)	6.0	6.0	0.0	1	5.0	5.049370288848877		6.0	6.0	0.0	1	5.0	4.871640682220459	X-name is a nice restaurant near X-near that does not allow children .	
inform(name=X-name,address=X-address,phone=X-phone)	6.0	6.0	0.0	1	5.0	5.094955921173096		6.0	6.0	0.0	1	5.0	4.830570697784424	X-name is located at X-address , and their phone number is X-phone .	
inform(name=X-name,address=X-address)	5.0	5.0	0.0	1	5.5	5.333777904510498		4.0	4.0	0.0	1	5.0	5.148472309112549	the address for X-name is X-address .	
inform(name=X-name,type=placetoeat,area=X-area,pricerange=moderate,eattype=restaurant)	6.0	6.0	0.0	1	5.0	5.214346408843994		5.0	5.0	0.0	1	5.0	5.0589799880981445	X-name is a restaurant in the X-area area .	
inform(name=X-name,type=placetoeat,eattype=restaurant,near=X-near,area=X-area,area=X-area)	3.0	3.0	0.0	1	4.5	4.407301425933838		3.0	3.0	0.0	1	4.5	4.3131279945373535	X-name is a restaurant in X-near on the river near to X-area .	
inform(name=X-name,type=placetoeat,eattype=restaurant,pricerange=moderate,area=X-area,food=Indian,food='Indian takeaway')	4.0	4.0	0.0	1	4.0	4.073273658752441		4.0	4.0	0.2029028	0	4.0	4.017806529998779	X-name is a moderately priced indian restaurant in the riverside area which serves indian food in the moderate price range in the riverside area .	
inform(name=X-name,near=X-near,price_range=cheap)	4.0	4.0	0.0	1	4.5	4.677354335784912		3.0	3.0	0.0	1	4.5	4.482754230499268	X-name is a cheap restaurant near X-near .	
inform(name=X-name,area=X-area,accepts_credit_cards=yes)	6.0	6.0	0.0	1	4.5	4.628843784332275		6.0	6.0	0.0	1	4.5	4.5026164054870605	X-name is in the area of X-area and accepts credit cards .	
inform(name=X-name,type=placetoeat,eattype=restaurant,area=X-area)	6.0	6.0	0.0	1	5.0	4.807941436767578		6.0	6.0	0.0	1	4.5	4.697354316711426	X-name is a restaurant in the city centre .	
inform(name=X-name,type=placetoeat,eattype=restaurant,area=X-area)	6.0	6.0	0.0	1	5.0	4.807941436767578		6.0	6.0	0.0	1	4.5	4.697354316711426	X-name is a restaurant in the city centre .	
inform(name=X-name,eattype=restaurant,addr=X-addr)	6.0	6.0	0.0	1	5.0	5.144739627838135		5.0	5.0	0.0	1	5.0	4.998730659484863	X-name is a restaurant located at X-addr .	
inform(name=X-name,price_range=moderate,kids_allowed=yes,food='new american')	6.0	6.0	0.0	1	5.0	4.857921123504639		5.0	5.0	0.0	1	5.0	4.785445690155029	X-name is a moderately priced new american restaurant that allows children .	
select(food='new american or thai')	6.0	6.0	0.0	1	5.0	4.893214225769043		6.0	6.0	0.0	1	5.0	4.794137477874756	would you prefer new american or thai food ?	
inform(name=X-name,food=thai,near=X-near)	4.0	4.0	0.0	1	5.0	4.873350143432617		5.0	5.0	0.0	1	4.5	4.728028774261475	X-name near X-near serves thai .	
inform(name=X-name,kids_allowed=no,price_range=moderate)	5.0	5.0	0.0	1	4.5	4.353384494781494		5.0	5.0	0.0	1	4.0	4.139578819274902	X-name is an moderate restaurant that does not allow children .	
inform(name=X-name,type=placetoeat,area=X-area,pricerange=expensive,eattype=restaurant)	5.0	5.0	0.0	1	5.0	5.027234077453613		6.0	6.0	0.0	1	5.0	4.932989597320557	X-name is a restaurant in X-area if you are seeking something expensive .	
inform(name=X-name,address=X-address,postcode=X-postcode)	4.0	4.0	0.0	1	5.5	5.353785514831543		4.0	4.0	0.0	1	5.0	5.146856784820557	the address for X-name is X-address , X-postcode .	
inform(name=X-name,type=placetoeat,eattype=restaurant,near=X-near,pricerange=expensive)	4.0	4.0	0.0	1	5.0	4.947342395782471		5.0	5.0	0.0	1	5.0	4.865853309631348	X-name is a restaurant near X-near in the expensive price range .	
inform(name=X-name,has_internet=yes,dogs_allowed=no)	6.0	6.0	0.0	1	5.0	4.86150598526001		6.0	6.0	0.0	1	4.5	4.73304557800293	X-name does not allow dogs , has internet access .	
inform(name=X-name,food='comfort food')	2.0	2.0	0.0	1	5.0	4.912963390350342		3.0	3.0	0.0	1	5.0	4.754598140716553	X-name serves comfort food .	
inform(name=X-name,price_range=cheap,kids_allowed=yes)	5.0	5.0	0.0	1	4.5	4.369580268859863		5.0	5.0	0.0	1	4.0	4.208728313446045	X-name , is cheaply priced and allows kids .	
inform(name=X-name,kids_allowed=no,price_range=expensive)	6.0	6.0	0.0	1	4.5	4.589990615844727		5.0	5.0	0.0	1	4.5	4.432023048400879	X-name is an expensive restaurant that does not allow children .	
inform(name=X-name,price_range=cheap)	6.0	6.0	0.013481617	0	4.0	4.021152019500732		4.0	4.0	0.08241129	0	3.5	3.6553401947021484	X-name , is cheap .	
inform(name=X-name,price_range=moderate,address=X-address,phone=X-phone)	6.0	6.0	0.0	1	5.0	4.854573726654053		6.0	6.0	0.0	1	4.5	4.559298992156982	X-name is located at X-address , and the phone number is X-phone . it is moderately priced .	
inform(name=X-name,type=restaurant)	5.0	5.0	0.0	1	5.0	5.115957736968994		5.0	5.0	0.0	1	5.0	4.837579250335693	the name of the restaurant is X-name .	
inform(name=X-name,address=X-address,postcode=X-postcode)	4.0	4.0	0.0	1	5.0	5.144896030426025		4.0	4.0	0.0	1	5.0	4.937651634216309	the address of the X-name is X-address and the postcode is X-postcode .	
inform_no_match(area=X-area)	6.0	6.0	0.0	1	5.0	5.237609386444092		5.0	5.0	0.0	1	5.0	4.9035234451293945	i am sorry but there are no hotels in the area of X-area .	
inform(name=X-name,type=placetoeat,eattype=restaurant,area=X-area,pricerange=moderate,food=Indian)	5.0	5.0	0.0	1	5.0	4.984508991241455		5.0	5.0	0.0	1	5.0	4.879555702209473	X-name is a moderately priced indian restaurant in X-area .	
inform(name=X-name,kids_allowed=yes)	6.0	6.0	0.0	1	5.5	5.299959659576416		4.0	4.0	0.0	1	5.0	5.217324256896973	X-name is a nice restaurant that allows children .	
inform(name=X-name,dogs_allowed=none,accepts_credit_cards=yes)	5.0	5.0	0.0	1	5.0	5.231372833251953		5.0	5.0	0.0	1	5.0	5.065634727478027	the X-name allows dogs and accepts credit cards .	
inform(name=X-name,dogs_allowed=none,accepts_credit_cards=yes)	6.0	6.0	0.0	1	5.0	5.231372833251953		6.0	6.0	0.0	1	5.0	5.065634727478027	the X-name allows dogs and accepts credit cards .	
inform(name=X-name,type=placetoeat,eattype=restaurant,pricerange=expensive,near=X-near)	4.0	4.0	0.0	1	5.0	5.237922191619873		4.0	4.0	0.0	1	5.0	5.064330101013184	X-name is an expensive restaurant in the expensive price range .	
inform_no_match(area=X-area)	5.0	5.0	0.0	1	5.0	5.144363880157471		5.0	5.0	0.0	1	5.0	5.025184154510498	i am sorry i am not finding any hotels in the X-area area .	
inform(name=X-name,type=placetoeat,eattype=restaurant,area=X-area,near=X-near,near=X-near,food=French)	6.0	6.0	0.0	1	4.5	4.653751373291016		4.0	4.0	0.0	1	4.5	4.438727378845215	X-name is a french restaurant in the riverside area near X-near , and X-near .	
inform(name=X-name,near=X-near)	5.0	5.0	0.0	1	4.5	4.588727951049805		3.0	3.0	0.0	1	4.5	4.435306549072266	X-name is near X-near .	
inform(name=X-name,type=placetoeat,eattype=restaurant,near=X-near,pricerange=cheap)	2.0	2.0	0.0	1	5.0	4.9309282302856445		1.0	1.0	0.0	1	5.0	4.850003242492676	X-name is a restaurant near X-near which offers cheap price range .	
inform(name=X-name,type=placetoeat,eattype=restaurant,pricerange=expensive,area=X-area,area=X-area,food=Italian)	6.0	6.0	0.0	1	5.0	4.98117208480835		5.0	5.0	0.0	1	5.0	4.768812656402588	X-name is an italian restaurant near X-area .	
inform_no_match(area=X-area)	5.0	5.0	0.0	1	5.5	5.25691556930542		5.0	5.0	0.0	1	5.0	4.949118614196777	i am sorry but there are no hotels in the X-area area .	
inform_no_match(price_range=pricey,near=X-near)	5.0	5.0	0.0	1	4.5	4.375932216644287		3.0	3.0	0.0	1	4.5	4.250471591949463	there is no pricey hotel near the X-near .	
inform(name=X-name,kids_allowed=no,near=X-near,good_for_meal=dinner)	3.0	3.0	0.0	1	4.0	4.083159923553467		2.0	2.0	0.0	1	4.0	3.9260778427124023	X-name is near X-near and does not allow kids for dinner .	
inform(name=X-name,type=placetoeat,pricerange=expensive,near=X-near,near=X-near,eattype=restaurant)	4.0	4.0	0.0	1	5.0	5.129181385040283		5.0	5.0	0.0	1	5.0	4.968165397644043	X-name is a restaurant near X-near in the expensive price range .	
inform(name=X-name,address=X-address,phone=X-phone)	6.0	6.0	0.0	1	5.0	5.094955921173096		6.0	6.0	0.0	1	5.0	4.830570697784424	X-name is located at X-address , and their phone number is X-phone .	
inform(name=X-name,near=X-near)	5.0	5.0	0.0	1	5.0	4.776365756988525		5.0	5.0	0.0	1	4.5	4.6026930809021	the X-name is near X-near .	
inform(name=X-name,price_range=inexpensive)	5.0	5.0	0.0	1	5.0	4.799717903137207		5.0	5.0	0.0	1	4.5	4.521738529205322	the X-name is a inexpensive hotel .	
inform(name=X-name,price_range=moderate,kids_allowed=no)	4.0	4.0	0.0	1	4.0	4.09511661529541		4.0	4.0	0.0	1	4.0	3.8952925205230713	X-name , is moderately prices and does not allow children .	
inform(name=X-name,type=hotel)	6.0	6.0	0.0	1	5.0	4.870175838470459		4.0	4.0	0.0	1	4.5	4.621313571929932	the X-name is a nice hotel .	
inform(name=X-name,type=placetoeat,eattype=restaurant,near=X-near,pricerange=moderate,food=Indian,food='Indian takeaway')	6.0	6.0	0.0	1	5.0	4.823948860168457		6.0	6.0	0.0	1	4.5	4.648097991943359	X-name is an indian restaurant near X-near .	
inform(name=X-name,area=X-area,food='new american')	2.0	2.0	0.0	1	4.5	4.389854431152344		2.0	2.0	0.0	1	4.0	4.166094779968262	X-name , is in X-area serves new american food .	
inform(name=X-name,type=placetoeat,eattype=restaurant,pricerange=moderate,area=X-area,food=Italian)	5.0	5.0	0.0	1	5.0	4.781459808349609		5.0	5.0	0.0	1	4.5	4.620511054992676	X-name is an italian restaurant in the moderate price range located in the X-area area .	
inform(name=X-name,address=X-address,phone=X-phone)	6.0	6.0	0.0	1	5.0	5.225982666015625		6.0	6.0	0.0	1	5.0	5.003942489624023	X-name 's address is X-address , and its phone number is X-phone .	
inform(name=X-name,near=X-near)	2.0	2.0	0.70397687	0	4.0	3.8700568675994873		2.0	2.0	0.6706183	0	3.5	3.745399236679077	he X-name is located near X-near .	
confirm(area=X-area)	6.0	6.0	0.017715454	0	4.5	4.269171237945557		4.0	4.0	0.0	1	4.0	4.156464576721191	to confirm , you are looking for a hotel in the X-area area ?	
inform(name=X-name,kids_allowed=no,good_for_meal=brunch)	6.0	6.0	0.0	1	5.0	5.003868579864502		5.0	5.0	0.0	1	5.0	4.896785259246826	X-name does not allow kids and is good for brunch .	
inform(name=X-name,area=X-area)	4.0	4.0	0.0	1	4.5	4.680918216705322		4.0	4.0	0.0	1	4.5	4.460200309753418	the X-name is in the X-area area .	
inform(name=X-name,type=placetoeat,area=X-area,near=X-near,near=X-near,eattype=restaurant)	4.0	4.0	0.0	1	4.5	4.737977504730225		4.0	4.0	0.0	1	4.5	4.739648342132568	X-name is a restaurant in the centre of town located near X-near and X-near .	
inform(name=X-name,address=X-address,postcode=X-postcode)	6.0	6.0	0.0	1	5.5	5.353785514831543		5.0	5.0	0.0	1	5.0	5.146856784820557	the address for X-name is X-address , X-postcode .	
inform(name=X-name,price_range=cheap)	5.0	5.0	0.0	1	4.5	4.668354511260986		6.0	6.0	0.0	1	4.5	4.456907749176025	X-name is in the cheap price range .	
inform(name=X-name,food=basque,kids_allowed=no)	5.0	5.0	0.0	1	4.5	4.655014514923096		5.0	5.0	0.0	1	4.5	4.546374320983887	X-name , is a nice restaurant that serves basque food and does not allow children .	
inform(name=X-name,dogs_allowed=no,near=X-near)	6.0	6.0	0.0	1	5.0	4.871802806854248		6.0	6.0	0.0	1	4.5	4.749373435974121	X-name near X-near does not allow dogs .	
inform(name=X-name,phone=X-phone)	6.0	6.0	0.0	1	5.5	5.372304439544678		6.0	6.0	0.0	1	5.0	5.097933292388916	the phone number for X-name is X-phone .	
inform(name=X-name,phone=X-phone)	6.0	6.0	0.0	1	5.5	5.372304439544678		5.0	5.0	0.0	1	5.0	5.097933292388916	the phone number for X-name is X-phone .	
inform(name=X-name,dogs_allowed=yes)	6.0	6.0	0.0	1	5.5	5.265174865722656		5.0	5.0	0.0	1	5.0	5.15147590637207	the X-name allows dogs .	
inform(name=X-name,type=placetoeat,eattype=restaurant,pricerange=expensive,near=X-near,food=Italian)	6.0	6.0	0.0	1	5.0	5.136669158935547		4.0	4.0	0.0	1	5.0	4.924229621887207	X-name is an expensive restaurant near X-near .	
confirm(area=X-area)	6.0	6.0	0.0	1	4.5	4.734182357788086		5.0	5.0	0.0	1	4.5	4.541892051696777	are you looking for a restaurant in the area of X-area ?	
inform(name=X-name,phone=X-phone)	4.0	4.0	0.0	1	5.5	5.372304439544678		4.0	4.0	0.0	1	5.0	5.097933292388916	the phone number for X-name is X-phone .	
inform(name=X-name,area=X-area,address=X-address)	5.0	5.0	0.0	1	4.5	4.691423416137695		5.0	5.0	0.0	1	4.5	4.512481212615967	X-name is in the X-area hill area and the address is X-address .	
inform(name=X-name,type=placetoeat,eattype=restaurant,pricerange=expensive,area=X-area)	4.0	4.0	0.0	1	5.0	4.758591651916504		4.0	4.0	0.0	1	4.5	4.663245677947998	X-name is a restaurant in the expensive price range in the X-area area .	
inform_no_match(price_range=expensive,food=cambodian)	4.0	4.0	0.0	1	4.5	4.705583095550537		3.0	3.0	0.0	1	4.5	4.684840202331543	i am sorry , i can not find any restaurants that serve cambodian food and are expensive .	
inform(name=X-name,type=placetoeat,eattype=restaurant,near=X-near,food=Chinese)	6.0	6.0	0.0	1	5.0	4.8588080406188965		6.0	6.0	0.0	1	5.0	4.846292972564697	X-name is a chinese restaurant near X-near .	
inform(name=X-name,type=placetoeat,eattype=restaurant,pricerange=expensive,near=X-near,near=X-near)	4.0	4.0	0.0	1	5.0	5.087959289550781		5.0	5.0	0.0	1	5.0	5.0830512046813965	X-name is a restaurant in the expensive price range near X-near and X-near .	
inform(name=X-name,type=placetoeat,eattype=restaurant,pricerange=moderate)	6.0	6.0	0.0	1	5.0	5.087693691253662		6.0	6.0	0.0	1	5.0	4.935626029968262	X-name is a restaurant in the moderate price range .	
inform(name=X-name,type=placetoeat,eattype=restaurant,pricerange=moderate)	6.0	6.0	0.0	1	5.0	5.087693691253662		5.0	5.0	0.0	1	5.0	4.935626029968262	X-name is a restaurant in the moderate price range .	
inform(name=X-name,kids_allowed=no)	5.0	5.0	0.0	1	5.0	5.100891590118408		5.0	5.0	0.0	1	5.0	5.003576755523682	there are no children allowed at X-name .	
inform(name=X-name,price_range=expensive)	5.0	5.0	0.0	1	4.0	4.1454973220825195		4.0	4.0	0.0	1	4.0	3.8733718395233154	X-name , is expensive .	
inform(name=X-name,price_range=expensive,near=X-near)	5.0	5.0	0.0	1	5.0	4.867390155792236		5.0	5.0	0.0	1	4.5	4.693371295928955	X-name is a expensive restaurant near X-near .	
inform(name=X-name,type=placetoeat,near=X-near,pricerange=moderate,eattype=restaurant)	6.0	6.0	0.0	1	5.0	5.048070430755615		2.0	2.0	0.0	1	5.0	4.883852005004883	X-name is a moderately priced indian restaurant near X-near .	
inform(name=X-name,price_range=moderate)	5.0	5.0	0.0	1	4.5	4.4915595054626465		5.0	5.0	0.0	1	4.0	4.161806583404541	X-name is in the moderate price range .	
inform(name=X-name,type=restaurant)	6.0	6.0	0.0	1	5.0	5.115957736968994		5.0	5.0	0.0	1	5.0	4.837579250335693	the name of the restaurant is X-name .	
inform(name=X-name,dogs_allowed=yes)	3.0	3.0	0.0	1	5.0	4.910104274749756		4.0	4.0	0.0	1	4.5	4.714629173278809	thank you the X-name allows dogs .	
inform(name=X-name,near=X-near)	6.0	6.0	0.0	1	4.5	4.588727951049805		5.0	5.0	0.0	1	4.5	4.435306549072266	X-name is near X-near .	
inform(name=X-name,address=X-address,phone=X-phone,postcode=X-postcode)	6.0	6.0	0.0	1	5.0	4.946444988250732		6.0	6.0	0.0	1	5.0	4.780224800109863	you may find the X-name at X-address , X-postcode , and the phone number is X-phone .	
inform(name=X-name,good_for_meal='lunch or dinner')	5.0	5.0	0.0	1	5.0	4.982606410980225		5.0	5.0	0.0	1	5.0	4.775200366973877	X-name is a good restaurant for lunch or dinner .	
inform(name=X-name,phone=X-phone)	6.0	6.0	0.0	1	5.5	5.372304439544678		5.0	5.0	0.0	1	5.0	5.097933292388916	the phone number for X-name is X-phone .	
inform(name=X-name,type=placetoeat,eattype=restaurant,area=X-area,near=X-near,food='Chinese takeaway',food=Japanese)	4.0	4.0	0.0	1	4.5	4.476766109466553		2.0	2.0	0.0	1	4.5	4.443245887756348	X-name is a japanese food and chinese takeaway restaurant in the city centre area near X-near .	
confirm(price_range=dont_care)	5.0	5.0	0.28159046	0	3.5	3.526413679122925		2.0	2.0	0.03619051	0	3.5	3.4086828231811523	do you mean that you do not care which price range ?	
inform(name=X-name,type=placetoeat,eattype=restaurant,pricerange=cheap,area=X-area,near=X-near)	6.0	6.0	0.0	1	5.0	5.078954219818115		4.0	4.0	0.0	1	5.0	5.024433612823486	X-name is a cheap restaurant in the riverside near X-near .	
confirm(area=X-area)	3.0	3.0	0.0	1	4.5	4.603132724761963		4.0	4.0	0.0	1	4.5	4.519975662231445	you want a hotel in the X-area ?	
inform(name=X-name,address=X-address)	5.0	5.0	0.0	1	5.5	5.333777904510498		3.0	3.0	0.0	1	5.0	5.148472309112549	the address for X-name is X-address .	
inform(name=X-name,good_for_meal=breakfast,food=mexican,kids_allowed=yes)	6.0	6.0	0.0	1	5.0	5.117369651794434		5.0	5.0	0.0	1	5.0	4.977633953094482	X-name serves mexican food for breakfast and allows kids .	
inform(name=X-name,area=X-area)	3.0	3.0	0.13785744	0	4.0	4.0466508865356445		3.0	3.0	0.2764485	0	4.0	3.7605173587799072	X-name , is in the are of X-area .	
inform(name=X-name,address=X-address,phone=X-phone,postcode=X-postcode)	3.0	3.0	0.0	1	5.0	4.965122699737549		4.0	4.0	0.0	1	5.0	4.796393394470215	X-name is located at X-address . the postcode is X-postcode . the phone number is X-phone .	
inform(name=X-name,near=X-near)	6.0	6.0	0.0	1	4.5	4.588727951049805		3.0	3.0	0.0	1	4.5	4.435306549072266	X-name is near X-near .	
inform(name=X-name,kids_allowed=no,good_for_meal=breakfast)	4.0	4.0	0.0	1	4.5	4.593277454376221		4.0	4.0	0.0	1	4.5	4.3632683753967285	X-name , is good for breakfast , and no children are allowed .	
inform(name=X-name,area=X-area)	4.0	4.0	0.0	1	4.0	4.211612224578857		3.0	3.0	0.0	1	4.0	4.1060404777526855	there is a hotel called in the X-name and in the area of X-area .	
inform(name=X-name,phone=X-phone)	4.0	4.0	0.0	1	5.0	5.216745853424072		4.0	4.0	0.0	1	5.0	4.986227989196777	you may reach the X-name at X-phone .	
inform(type=restaurant,count=X-count,good_for_meal=dont_care,kids_allowed=yes,price_range=expensive)	3.0	3.0	0.0	1	5.0	4.799221992492676		6.0	6.0	0.0	1	5.0	4.757073402404785	there are X-count restaurants that are expensive and allow children good for any meal .	
inform(name=X-name,food=basque,kids_allowed=no)	4.0	4.0	0.0	1	5.0	4.966739177703857		2.0	2.0	0.0	1	5.0	4.877023696899414	X-name is a nice restaurant that serves basque food and does not allow children .	
inform(name=X-name,price_range=moderate)	3.0	3.0	0.0	1	4.5	4.653650283813477		4.0	4.0	0.0	1	4.5	4.383549690246582	the X-name is in the moderate price range .	
inform(name=X-name,kids_allowed=no)	6.0	6.0	0.0	1	5.0	5.143205642700195		6.0	6.0	0.0	1	5.0	5.049112796783447	X-name is a nice restaurant that does not allow children .	
inform(name=X-name,food=brasseries)	6.0	6.0	0.0	1	5.0	4.832187175750732		4.0	4.0	0.0	1	4.5	4.689421653747559	X-name serves brasseries food .	
inform(type=restaurant,count=X-count,kids_allowed=no,area=X-area)	4.0	4.0	0.0	1	5.0	4.920904636383057		1.0	1.0	0.0	1	5.0	4.796650409698486	there are X-count restaurants that does not allow the s in the X-area area .	
inform(name=X-name,near=X-near)	4.0	4.0	0.2615962	0	4.5	4.312437534332275		1.0	1.0	0.2947402	0	4.0	4.121277332305908	X-name , is near the X-near .	
inform(name=X-name,type=placetoeat,eattype=restaurant,area=X-area,food='Chinese takeaway',food=Takeaway)	5.0	5.0	0.0	1	4.5	4.744919776916504		4.0	4.0	0.0	1	4.5	4.64164924621582	X-name is a chinese food takeaway restaurant with restaurant on the riverside .	
inform(name=X-name,area=X-area)	5.0	5.0	0.0	1	4.5	4.482095241546631		2.0	2.0	0.0	1	4.5	4.266526699066162	X-name is in the area of X-area .	
inform_no_match(near=X-near,good_for_meal=lunch,kids_allowed=no)	6.0	6.0	0.0	1	4.5	4.521445274353027		6.0	6.0	0.0	1	4.5	4.413646221160889	i am sorry i did not find any restaurants that does not allow children near the X-near good for lunch .	
inform(name=X-name,food=burgers,price_range=expensive,good_for_meal=dinner)	4.0	4.0	0.0	1	4.5	4.302369594573975		4.0	4.0	0.0	1	4.0	4.174134731292725	the X-name provides burgers dinner for a expensive price range .	
inform(name=X-name,price_range=moderate,address=X-address,phone=X-phone)	5.0	5.0	0.0	1	5.0	5.016056537628174		5.0	5.0	0.0	1	5.0	4.791837215423584	X-name is in the moderate price range . they are located at X-address and their phone number is X-phone .	
inform(name=X-name,type=hotel)	3.0	3.0	0.0	1	4.5	4.4294352531433105		3.0	3.0	0.0	1	4.0	4.201148986816406	the name is X-name and it is a nice hotel .	
inform(name=X-name,address=X-address,phone=X-phone)	4.0	4.0	0.0	1	5.5	5.252654552459717		5.0	5.0	0.0	1	5.0	4.927796840667725	the address of X-name is X-address . the phone number is X-phone .	
inform_no_match(near=X-near,area=X-area)	4.0	4.0	0.0	1	4.0	4.167806625366211		4.0	4.0	0.0	1	4.0	4.049801826477051	there is no hotel near the X-near and in the X-area area .	
inform(name=X-name,type=placetoeat,eattype=restaurant,area=X-area,food=Indian)	5.0	5.0	0.0	1	4.5	4.529697895050049		5.0	5.0	0.0	1	4.5	4.426007270812988	X-name is an indian restaurant in the riverside area serves both indian food indian takeaway .	
inform(name=X-name,eattype=coffeeshop,eattype=restaurant)	5.0	5.0	0.0	1	5.0	5.2222580909729		5.0	5.0	0.0	1	5.0	5.103331565856934	X-name is a restaurant .	
inform(type=restaurant,count=X-count,food=japanese,price_range=cheap)	4.0	4.0	0.0	1	5.0	5.0368332862854		3.0	3.0	0.0	1	5.0	4.847219467163086	there are X-count cheaply priced japanese restaurants .	
inform(name=X-name,address=X-address)	5.0	5.0	0.0	1	5.5	5.333777904510498		3.0	3.0	0.0	1	5.0	5.148472309112549	the address for X-name is X-address .	
inform(name=X-name,address=X-address,phone=X-phone,postcode=X-postcode)	5.0	5.0	0.0	1	5.0	4.997567653656006		5.0	5.0	0.0	1	5.0	4.904664516448975	X-name , is at X-address , phone number is X-phone , and the postcode is X-postcode .	
inform(name=X-name,address=X-address,postcode=X-postcode)	5.0	5.0	0.0	1	5.0	5.144896030426025		5.0	5.0	0.0	1	5.0	4.937651634216309	the address of the X-name is X-address and the postcode is X-postcode .	
inform(name=X-name,type=placetoeat,area=X-area,pricerange=moderate,eattype=restaurant)	5.0	5.0	0.0	1	5.0	5.135087966918945		5.0	5.0	0.0	1	5.0	4.9752116203308105	X-name is a restaurant in X-area with a moderately priced menu .	
inform_no_match(area=X-area)	5.0	5.0	0.0	1	5.5	5.25691556930542		5.0	5.0	0.0	1	5.0	4.949118614196777	i am sorry but there are no hotels in the X-area area .	
inform(name=X-name,type=placetoeat,pricerange=expensive,near=X-near,near=X-near,eattype=restaurant)	5.0	5.0	0.0	1	5.0	5.083977222442627		5.0	5.0	0.0	1	5.0	4.901414394378662	X-name is an expensive restaurant near X-near and X-near .	
inform(name=X-name,phone=X-phone)	5.0	5.0	0.0	1	5.0	5.139817714691162		4.0	4.0	0.0	1	5.0	4.9364094734191895	you may reach X-name at X-phone .	
inform(type=restaurant,count=X-count,food=french)	6.0	6.0	0.0	1	5.0	5.2484354972839355		5.0	5.0	0.0	1	5.0	5.098374843597412	there are X-count restaurants that serve french food .	
inform(name=X-name,type=placetoeat,pricerange=moderate,eattype=restaurant)	6.0	6.0	0.0	1	5.5	5.2780303955078125		5.0	5.0	0.0	1	5.0	5.081898212432861	X-name is a restaurant in the moderate price range .	
inform(name=X-name,accepts_credit_cards=yes)	5.0	5.0	0.0	1	5.0	5.14865779876709		6.0	6.0	0.0	1	5.0	5.036911487579346	X-name accepts credit cards .	
inform(name=X-name,accepts_credit_cards=yes)	5.0	5.0	0.0	1	5.0	5.14865779876709		3.0	3.0	0.0	1	5.0	5.036911487579346	X-name accepts credit cards .	
inform(name=X-name,near=X-near,address=X-address,phone=X-phone)	5.0	5.0	0.0	1	4.5	4.390748977661133		3.0	3.0	0.0	1	4.0	4.047539234161377	X-name , is near the X-near , it is address is X-address , and the phone number is X-phone .	
inform(name=X-name,area=X-area,dogs_allowed=yes)	5.0	5.0	0.0	1	4.5	4.434157371520996		5.0	5.0	0.0	1	4.5	4.28494930267334	X-name is near X-area and allows dogs .	
inform(type=restaurant,count=X-count,good_for_meal=dinner,price_range=expensive)	6.0	6.0	0.0	1	5.0	4.959170818328857		6.0	6.0	0.0	1	5.0	4.881557464599609	there are X-count restaurants in the expensive price range that are good for dinner .	
inform(name=X-name,address=X-address,phone=X-phone)	6.0	6.0	0.0	1	5.0	5.225982666015625		6.0	6.0	0.0	1	5.0	5.003942489624023	X-name 's address is X-address , and its phone number is X-phone .	
inform(name=X-name,has_internet=no)	5.0	5.0	0.0	1	5.0	5.155947685241699		5.0	5.0	0.0	1	5.0	4.9156365394592285	we 're sorry the X-name does not have internet .	
inform(name=X-name,area=X-area)	3.0	3.0	0.0	1	4.0	4.211612224578857		4.0	4.0	0.0	1	4.0	4.1060404777526855	there is a hotel called in the X-name and in the area of X-area .	
inform(type=restaurant,count=X-count,kids_allowed=yes,price_range=expensive)	5.0	5.0	0.0	1	5.0	5.084701061248779		6.0	6.0	0.0	1	5.0	4.994189262390137	there are X-count restaurants that allow children and are expensive .	
inform(name=X-name,accepts_credit_cards=yes,near=X-near,price_range=inexpensive)	5.0	5.0	0.0	1	4.5	4.4813551902771		4.0	4.0	0.0	1	4.5	4.4155120849609375	i found a X-name near the X-near area that and inexpensive hotel and it accepts credit cards .	
inform(name=X-name,area=X-area)	1.0	1.0	0.13785744	0	4.0	4.0466508865356445		1.0	1.0	0.2764485	0	4.0	3.7605173587799072	X-name , is in the are of X-area .	
inform(name=X-name,near=X-near,kids_allowed=yes,price_range=moderate)	3.0	3.0	0.12598157	0	3.5	3.453150987625122		2.0	2.0	0.16777015	0	3.5	3.260246515274048	X-name , is near X-near , is moderate range and allows children .	
inform(name=X-name,address=X-address,phone=X-phone)	6.0	6.0	0.0	1	5.0	5.213013172149658		4.0	4.0	0.0	1	5.0	4.8926262855529785	the X-name is located at X-address . the phone number is X-phone .	
inform(name=X-name,area=X-area,price_range=moderate)	4.0	4.0	0.0	1	4.0	4.131454944610596		4.0	4.0	0.0	1	4.0	3.8857462406158447	X-name is in the X-area area and it is moderate .	
inform(name=X-name,has_internet=yes)	5.0	5.0	0.0	1	5.0	4.991920471191406		3.0	3.0	0.0	1	4.5	4.733714580535889	X-name has internet .	
inform(name=X-name,has_internet=yes)	5.0	5.0	0.0	1	5.0	4.991920471191406		2.0	2.0	0.0	1	4.5	4.733714580535889	X-name has internet .	
inform_no_match(good_for_meal=breakfast,food=shanghainese)	5.0	5.0	0.0	1	4.5	4.65283727645874		3.0	3.0	0.0	1	4.5	4.438323497772217	unfortunately 0 restaurants serve shanghainese for breakfast .	
inform(name=X-name,address=X-address,postcode=X-postcode)	5.0	5.0	0.0	1	5.5	5.353785514831543		5.0	5.0	0.0	1	5.0	5.146856784820557	the address for X-name is X-address , X-postcode .	
inform(name=X-name,phone=X-phone)	5.0	5.0	0.0	1	5.5	5.372304439544678		5.0	5.0	0.0	1	5.0	5.097933292388916	the phone number for X-name is X-phone .	
inform(name=X-name,eattype=restaurant,addr=X-addr,phone=X-phone)	5.0	5.0	0.0	1	5.0	5.022496700286865		5.0	5.0	0.0	1	5.0	4.8901686668396	i suggest X-name restaurant .	
inform(name=X-name,type=placetoeat,eattype=restaurant,near=X-near,near=X-near,food=Chinese)	3.0	3.0	0.0	1	5.0	4.833946704864502		4.0	4.0	0.0	1	5.0	4.856659412384033	X-name is a chinese food restaurant near X-near and X-near .	
inform(name=X-name,near=X-near)	1.0	1.0	0.70397687	0	4.0	3.8700568675994873		1.0	1.0	0.6706183	0	3.5	3.745399236679077	he X-name is located near X-near .	
inform(name=X-name,type=placetoeat,near=X-near,area=X-area,area=X-area,eattype=restaurant)	6.0	6.0	0.0	1	5.0	4.994089126586914		6.0	6.0	0.0	1	5.0	4.903709888458252	X-name is a restaurant in X-near near X-area and X-area .	
inform(type=hotel,count=X-count,dogs_allowed=yes)	6.0	6.0	0.0	1	5.5	5.364561557769775		6.0	6.0	0.0	1	5.0	5.231344699859619	there are X-count hotels that allow dogs .	
inform(type=hotel,count=X-count,dogs_allowed=yes)	6.0	6.0	0.0	1	5.5	5.364561557769775		6.0	6.0	0.0	1	5.0	5.231344699859619	there are X-count hotels that allow dogs .	
inform_no_match(area=X-area)	6.0	6.0	0.0	1	5.0	5.144363880157471		5.0	5.0	0.0	1	5.0	5.025184154510498	i am sorry i am not finding any hotels in the X-area area .	
inform(name=X-name,address=X-address,phone=X-phone)	6.0	6.0	0.0	1	5.5	5.332857608795166		5.0	5.0	0.0	1	5.0	4.990848541259766	the address for X-name is X-address . the phone number is X-phone .	
inform_no_match(area=X-area)	5.0	5.0	0.0	1	5.0	5.144363880157471		5.0	5.0	0.0	1	5.0	5.025184154510498	i am sorry i am not finding any hotels in the X-area area .	
inform(name=X-name,address=X-address,phone=X-phone)	5.0	5.0	0.0	1	5.0	5.225982666015625		5.0	5.0	0.0	1	5.0	5.003942489624023	X-name 's address is X-address , and its phone number is X-phone .	
inform(name=X-name,type=placetoeat,eattype=restaurant,area=X-area,near=X-near,near=X-near,food=Italian)	5.0	5.0	0.0	1	5.0	4.956466197967529		4.0	4.0	0.0	1	5.0	4.758358478546143	X-name is an italian restaurant in the riverside area near X-near and X-near .	
inform(name=X-name,kids_allowed=yes)	5.0	5.0	0.0	1	5.5	5.299959659576416		5.0	5.0	0.0	1	5.0	5.217324256896973	X-name is a nice restaurant that allows children .	
inform(name=X-name,area=X-area,food=korean)	5.0	5.0	0.0	1	4.0	4.221189022064209		5.0	5.0	0.0	1	4.0	4.100676536560059	X-name , is in X-area serves korean food .	
inform_no_match(near=X-near,area=X-area)	5.0	5.0	0.031155586	0	4.0	4.088247299194336		6.0	6.0	0.0	1	4.0	3.9759552478790283	there is no match for a hotel in the X-area area near the X-near .	
inform(name=X-name,area=X-area,price_range=moderate)	2.0	2.0	0.0	1	4.5	4.269827365875244		4.0	4.0	0.0	1	4.0	4.071240425109863	the X-name is in the X-area area and it is moderate .	
inform(name=X-name,good_for_meal=dinner)	5.0	5.0	0.0	1	4.5	4.465489864349365		2.0	2.0	0.0	1	4.5	4.285676002502441	X-name is a good restaurant for dinner .	
confirm(price_range=pricey)	5.0	5.0	0.0	1	4.0	4.163072109222412		4.0	4.0	0.0	1	4.0	4.158956050872803	do you want a hotel in the pricey price range ?	
inform(name=X-name,phone=X-phone)	6.0	6.0	0.0	1	5.5	5.372304439544678		5.0	5.0	0.0	1	5.0	5.097933292388916	the phone number for X-name is X-phone .	
inform(name=X-name,phone=X-phone)	6.0	6.0	0.0	1	5.5	5.372304439544678		5.0	5.0	0.0	1	5.0	5.097933292388916	the phone number for X-name is X-phone .	
inform(name=X-name,address=X-address)	5.0	5.0	0.0	1	5.0	5.183603763580322		5.0	5.0	0.0	1	5.0	5.137587547302246	X-name 's address is X-address .	
inform(name=X-name,has_internet=yes,near=X-near)	6.0	6.0	0.0	1	4.5	4.5639472007751465		4.0	4.0	0.0	1	4.5	4.402366638183594	X-name is near X-near and has internet .	
inform(name=X-name,food=french,good_for_meal=lunch)	6.0	6.0	0.0	1	5.0	4.855142593383789		5.0	5.0	0.0	1	4.5	4.668918609619141	X-name serves french and is good for lunch .	
inform(name=X-name,kids_allowed=yes)	6.0	6.0	0.0	1	5.5	5.299959659576416		5.0	5.0	0.0	1	5.0	5.217324256896973	X-name is a nice restaurant that allows children .	
inform(name=X-name,food=spanish)	6.0	6.0	0.0	1	5.0	5.095851421356201		6.0	6.0	0.0	1	5.0	4.942652702331543	X-name serves spanish food .	
inform(name=X-name,price_range=cheap,good_for_meal=dinner)	2.0	2.0	0.0	1	4.5	4.254635334014893		2.0	2.0	0.0	1	4.0	4.115729331970215	X-name is a cheap restaurant that is good for dinner .	
inform_no_match(area=X-area)	5.0	5.0	0.0	1	5.0	5.020599842071533		4.0	4.0	0.0	1	4.5	4.711853504180908	there are no hotels in the X-area area .	
inform(name=X-name,area=X-area)	4.0	4.0	0.0	1	4.0	4.211612224578857		5.0	5.0	0.0	1	4.0	4.1060404777526855	there is a hotel called in the X-name and in the area of X-area .	
inform(name=X-name,address=X-address)	5.0	5.0	0.0	1	5.5	5.333777904510498		2.0	2.0	0.0	1	5.0	5.148472309112549	the address for X-name is X-address .	
inform_no_match(area=X-area)	5.0	5.0	0.0	1	5.0	5.237609386444092		5.0	5.0	0.0	1	5.0	4.9035234451293945	i am sorry but there are no hotels in the area of X-area .	
inform(name=X-name,type=placetoeat,eattype=restaurant,pricerange=cheap,area=X-area,near=X-near)	6.0	6.0	0.0	1	5.0	4.973284721374512		6.0	6.0	0.0	1	5.0	4.947809219360352	X-name is a cheap restaurant in the city centre near X-near .	
inform(name=X-name,area=X-area,dogs_allowed=yes)	6.0	6.0	0.0	1	4.5	4.575415134429932		6.0	6.0	0.0	1	4.5	4.512508869171143	yes there is the X-name and in the X-area area that allows dogs .	
inform(name=X-name,price_range=cheap)	5.0	5.0	0.013481617	0	4.0	4.021152019500732		4.0	4.0	0.08241129	0	3.5	3.6553401947021484	X-name , is cheap .	
inform(name=X-name,near=X-near)	3.0	3.0	0.70397687	0	4.0	3.8700568675994873		3.0	3.0	0.6706183	0	3.5	3.745399236679077	he X-name is located near X-near .	
inform(name=X-name,type=restaurant)	6.0	6.0	0.0	1	5.0	5.247287273406982		5.0	5.0	0.0	1	5.0	5.041327953338623	X-name is a nice restaurant .	
inform(name=X-name,near=X-near)	4.0	4.0	0.0	1	5.0	4.776365756988525		4.0	4.0	0.0	1	4.5	4.6026930809021	the X-name is near X-near .	
inform(name=X-name,type=placetoeat,eattype=restaurant,area=X-area,near=X-near,food='Cafe food',food=English)	3.0	3.0	0.0	1	4.5	4.456971168518066		2.0	2.0	0.0	1	4.5	4.262887954711914	X-name is an english cafe food restaurant in the city centre area and .	
inform(name=X-name,postcode=X-postcode)	5.0	5.0	0.0	1	5.5	5.35647439956665		5.0	5.0	0.0	1	5.0	5.167449951171875	the postcode for the X-name is X-postcode .	
inform(name=X-name,area=X-area)	6.0	6.0	0.0	1	4.5	4.680918216705322		6.0	6.0	0.0	1	4.5	4.460200309753418	the X-name is in the X-area area .	
inform(name=X-name,accepts_credit_cards=yes,near=X-near)	5.0	5.0	0.37619734	0	4.0	4.060283660888672		5.0	5.0	0.5432756	0	4.0	3.9820101261138916	X-name is located near X-near and they accept credit cards .	
inform(name=X-name,type=placetoeat,pricerange=moderate,area=X-area,eattype=restaurant)	6.0	6.0	0.0	1	5.0	5.153459072113037		5.0	5.0	0.0	1	5.0	5.012514114379883	X-name is a moderately priced restaurant in the X-area area .	
inform(name=X-name,price_range=moderate)	4.0	4.0	0.2803321	0	3.5	3.324655294418335		4.0	4.0	0.27276802	0	3.0	3.044574737548828	X-name , is moderate .	
inform(name=X-name,dogs_allowed=none,has_internet=yes,near=X-near,accepts_credit_cards=yes)	5.0	5.0	0.0	1	4.5	4.497804164886475		4.0	4.0	0.0	1	4.5	4.33197021484375	the X-name allows dogs and near X-near , has internet and accepts credit cards .	
inform(name=X-name,area=X-area,price_range=moderate)	5.0	5.0	0.0	1	4.5	4.547809600830078		5.0	5.0	0.0	1	4.5	4.355834484100342	X-name has a moderate price range in the area of X-area .	
inform_no_match(kids_allowed=yes,food=moroccan)	5.0	5.0	0.0	1	5.0	4.949046611785889		5.0	5.0	0.0	1	5.0	4.899564266204834	i am sorry , i did not find any restaurants that allows kids and serve moroccan .	
inform(name=X-name,has_internet=yes,phone=X-phone)	5.0	5.0	0.0	1	5.0	5.226108074188232		4.0	4.0	0.0	1	5.0	4.874459743499756	the X-name does have internet service , and the phone number is X-phone .	
inform_no_match(area=X-area)	4.0	4.0	0.0	1	5.0	5.020599842071533		4.0	4.0	0.0	1	4.5	4.711853504180908	there are no hotels in the X-area area .	
inform_no_match(area=X-area,kids_allowed=yes,price_range=expensive)	6.0	6.0	0.0	1	4.5	4.393199443817139		6.0	6.0	0.0	1	4.5	4.364681720733643	there are no expensively priced restaurants in the X-area area which allow children .	
inform(name=X-name,area=X-area)	3.0	3.0	0.0	1	4.5	4.302413463592529		3.0	3.0	0.0	1	4.0	4.174413204193115	there is a hotel called in X-name and in the area of X-area .	
inform(name=X-name,type=placetoeat,eattype=restaurant,near=X-near,area=X-area)	5.0	5.0	0.0	1	4.5	4.694342136383057		6.0	6.0	0.0	1	4.5	4.62650203704834	X-name is a restaurant in the city centre near X-near .	
inform(name=X-name,area=X-area,food=indian,good_for_meal=dinner)	2.0	2.0	0.0	1	4.0	3.8735880851745605		3.0	3.0	0.13235092	0	3.5	3.6073951721191406	X-name , is good for dinner that serves indian food in the X-area area .	
inform(name=X-name,food=vegetarian)	6.0	6.0	0.0	1	5.0	4.873931884765625		6.0	6.0	0.0	1	4.5	4.615281105041504	X-name serves vegetarian food .	
inform(name=X-name,address=X-address,phone=X-phone)	5.0	5.0	0.0	1	5.5	5.252654552459717		4.0	4.0	0.0	1	5.0	4.927796840667725	the address of X-name is X-address . the phone number is X-phone .	
inform(name=X-name,price_range=cheap,kids_allowed=yes)	5.0	5.0	0.0	1	5.0	4.7654128074646		4.0	4.0	0.0	1	4.5	4.637366771697998	X-name is cheap and allows children .	
inform(name=X-name,price_range=expensive,near=X-near)	4.0	4.0	0.0	1	5.0	4.786395072937012		5.0	5.0	0.0	1	4.5	4.594793319702148	X-name near X-near offers expensive food .	
inform(name=X-name,address=X-address)	5.0	5.0	0.0	1	5.5	5.333777904510498		3.0	3.0	0.0	1	5.0	5.148472309112549	the address for X-name is X-address .	
inform(name=X-name,dogs_allowed=none,phone=X-phone)	6.0	6.0	0.0	1	5.5	5.305027961730957		6.0	6.0	0.0	1	5.0	4.9644083976745605	the phone number for X-name is X-phone no dogs are allowed there .	
inform(type=restaurant,count=X-count,area=X-area)	6.0	6.0	0.0	1	5.0	4.999967098236084		6.0	6.0	0.0	1	5.0	4.906548500061035	we have X-count restaurants listed in the X-area area .	
inform(name=X-name,kids_allowed=no,good_for_meal=brunch,near=X-near)	5.0	5.0	0.0	1	5.0	4.8504862785339355		4.0	4.0	0.0	1	4.5	4.644284725189209	X-name is near X-near and does not allow kids for brunch .	
inform(name=X-name,food=mexican,kids_allowed=yes)	5.0	5.0	0.0	1	5.0	4.841152191162109		5.0	5.0	0.0	1	4.5	4.719343185424805	X-name allows kids , and serves mexican food .	
inform(name=X-name,price_range=moderate)	5.0	5.0	0.0	1	4.5	4.4915595054626465		5.0	5.0	0.0	1	4.0	4.161806583404541	X-name is in the moderate price range .	
inform(name=X-name,address=X-address,price=X-price)	2.0	2.0	0.0	1	4.5	4.593076229095459		2.0	2.0	0.0	1	4.5	4.351123809814453	it is located at X-address it is price X-name is X-price .	
inform(name=X-name,food=lounge,price_range=expensive)	4.0	4.0	0.0	1	5.0	4.821575164794922		4.0	4.0	0.0	1	4.5	4.670713424682617	X-name serves lounge food at a expensive price range .	
inform(name=X-name,address=X-address)	6.0	6.0	0.0	1	5.5	5.333777904510498		5.0	5.0	0.0	1	5.0	5.148472309112549	the address for X-name is X-address .	
inform(name=X-name,area=X-area)	5.0	5.0	0.0	1	4.5	4.482095241546631		4.0	4.0	0.0	1	4.5	4.266526699066162	X-name is in the area of X-area .	
inform(name=X-name,area=X-area,price_range=cheap)	5.0	5.0	0.0	1	4.0	4.035319805145264		4.0	4.0	0.0	1	4.0	3.809082269668579	X-name , is in the X-area area with a cheap price range .	
inform(name=X-name,price_range=expensive)	5.0	5.0	0.0	1	4.5	4.650417327880859		5.0	5.0	0.0	1	4.5	4.4885454177856445	X-name is in the expensive price range .	
confirm(near=X-near)	4.0	4.0	0.4569807	0	4.0	4.180579662322998		4.0	4.0	0.17269468	0	4.0	4.090753555297852	do you want it near X-near ?	
confirm(price_range=pricey)	6.0	6.0	0.0	1	4.0	4.210630416870117		3.0	3.0	0.0	1	4.0	4.16168737411499	please confirm you are looking for the pricey range ?	
inform(name=X-name,type=restaurant)	6.0	6.0	0.0	1	5.0	5.115957736968994		5.0	5.0	0.0	1	5.0	4.837579250335693	the name of the restaurant is X-name .	
inform(name=X-name,accepts_credit_cards=yes,near=X-near)	4.0	4.0	0.0	1	4.5	4.6397385597229		2.0	2.0	0.0075616837	0	4.5	4.51772403717041	X-name is near X-near and accepts credit cards .	
inform(name=X-name,type=restaurant)	6.0	6.0	0.0	1	5.0	5.247287273406982		5.0	5.0	0.0	1	5.0	5.041327953338623	X-name is a nice restaurant .	
inform(name=X-name,accepts_credit_cards=yes,dogs_allowed=no,near=X-near)	3.0	3.0	0.0	1	5.0	5.080141544342041		3.0	3.0	0.0	1	5.0	4.966839790344238	the X-name accepts credit cards in the X-near area does not allow dogs .	
inform(name=X-name,type=placetoeat,eattype=restaurant,area=X-area,food='Chinese takeaway',food=Japanese)	5.0	5.0	0.0	1	5.0	4.939342498779297		5.0	5.0	0.0	1	4.5	4.730595588684082	X-name is a japanese restaurant in the city centre .	
inform(type=hotel,count=X-count,has_internet=yes,near=X-near)	6.0	6.0	0.0	1	5.5	5.584824085235596		6.0	6.0	0.0	1	5.5	5.3493804931640625	there are X-count hotels with internet near the X-near .	
inform(name=X-name,area=X-area)	6.0	6.0	0.0	1	4.5	4.486315727233887		4.0	4.0	0.0	1	4.5	4.273092269897461	X-name is in the X-area hill area .	
select(accepts_credit_cards='yes or no')	4.0	4.0	0.0	1	5.0	5.048380374908447		5.0	5.0	0.0	1	5.0	5.027319431304932	would you like a hotel that accepts credit cards or is that not an issue ?	
inform(name=X-name,price_range=moderate)	4.0	4.0	0.0	1	4.5	4.495932102203369		4.0	4.0	0.0	1	4.0	4.162496566772461	the X-name is a moderate hotel .	
inform(name=X-name,kids_allowed=no,near=X-near)	6.0	6.0	0.0	1	4.5	4.706608295440674		6.0	6.0	0.0	1	4.5	4.519221305847168	X-name , is a nice restaurant near X-near that does not allow children .	
inform(name=X-name,type=placetoeat,eattype=restaurant,near=X-near,area=X-area,area=X-area)	3.0	3.0	0.0	1	4.5	4.5607194900512695		2.0	2.0	0.0	1	4.5	4.449972152709961	X-name is a restaurant in X-near near X-area and .	
inform(name=X-name,address=X-address)	4.0	4.0	0.0	1	5.5	5.333777904510498		5.0	5.0	0.0	1	5.0	5.148472309112549	the address for X-name is X-address .	
inform(name=X-name,type=placetoeat,eattype=restaurant,near=X-near,area=X-area,food=Indian)	5.0	5.0	0.0	1	4.5	4.7413458824157715		5.0	5.0	0.0	1	4.5	4.592996597290039	X-name is an indian restaurant in the X-near area near X-area .	
inform(name=X-name,has_internet=yes)	6.0	6.0	0.0	1	5.0	4.991920471191406		6.0	6.0	0.0	1	4.5	4.733714580535889	X-name has internet .	
inform(name=X-name,has_internet=yes)	6.0	6.0	0.0	1	5.0	4.991920471191406		4.0	4.0	0.0	1	4.5	4.733714580535889	X-name has internet .	
inform(name=X-name,type=placetoeat,eattype=restaurant,pricerange=expensive,near=X-near)	5.0	5.0	0.0	1	5.0	5.048264980316162		5.0	5.0	0.0	1	5.0	4.87423849105835	X-name is an expensive restaurant near X-near .	
inform(name=X-name,area=X-area,dogs_allowed=none)	2.0	2.0	0.0	1	4.5	4.728480339050293		3.0	3.0	0.0	1	4.5	4.664330005645752	there is not any information if the X-name in the X-area area allows dogs .	
inform(name=X-name,near=X-near,price_range=moderate)	2.0	2.0	0.0	1	4.5	4.54373836517334		2.0	2.0	0.0	1	4.5	4.281235694885254	X-name is a moderate restaurant near X-near .	
select(kids_allowed='yes or no')	5.0	5.0	0.0	1	5.0	5.150134086608887		5.0	5.0	0.0	1	5.0	5.137044906616211	are you looking for a restaurant that allows kids , or does not allow kids ?	
inform(name=X-name,area=X-area,kids_allowed=no,price_range=expensive)	2.0	2.0	0.0	1	4.5	4.2696003913879395		3.0	3.0	0.0	1	4.0	4.20142936706543	X-name is expensively priced in the X-area area and does not allow kids .	
inform(name=X-name,good_for_meal=lunch,kids_allowed=no,price_range=cheap)	4.0	4.0	0.0	1	4.5	4.484510898590088		4.0	4.0	0.0	1	4.5	4.376548767089844	X-name is in the cheap price range , does not allow children and is good for lunch .	
inform(name=X-name,area=X-area,address=X-address)	6.0	6.0	0.0	1	4.5	4.736961841583252		6.0	6.0	0.0	1	4.5	4.530242443084717	X-name is in the X-area area and the address is X-address .	
inform(name=X-name,address=X-address,phone=X-phone,postcode=X-postcode)	5.0	5.0	0.0	1	5.0	4.997567653656006		5.0	5.0	0.0	1	5.0	4.904664516448975	X-name , is at X-address , phone number is X-phone , and the postcode is X-postcode .	
inform(name=X-name,near=X-near,price_range=inexpensive)	3.0	3.0	0.0	1	4.5	4.3009161949157715		1.0	1.0	0.0	1	4.5	4.267480373382568	okay well the X-name , near the X-near in your price inexpensive range .	
inform(type=restaurant,count=X-count,good_for_meal=brunch)	6.0	6.0	0.0	1	5.5	5.496168613433838		6.0	6.0	0.0	1	5.5	5.305261135101318	there are X-count restaurants that are good for brunch .	
inform(name=X-name,accepts_credit_cards=yes,dogs_allowed=no,near=X-near)	4.0	4.0	0.0	1	4.5	4.523415565490723		4.0	4.0	0.0	1	4.5	4.359572887420654	X-name is near X-near and accepts credit cards but does not allow dogs .	
inform(name=X-name,type=placetoeat,eattype=restaurant,area=X-area,near=X-near,food=Chinese)	6.0	6.0	0.0	1	5.0	4.923281192779541		6.0	6.0	0.0	1	5.0	4.860861301422119	X-name is a chinese restaurant in the riverside area near X-near .	
inform(name=X-name,area=X-area,dogs_allowed=yes)	4.0	4.0	0.0	1	4.5	4.575415134429932		3.0	3.0	0.0	1	4.5	4.512508869171143	yes there is the X-name and in the X-area area that allows dogs .	
inform(name=X-name,food=Chinese,eattype=restaurant,area=X-area)	2.0	2.0	0.0	1	5.0	4.789334297180176		6.0	6.0	0.0	1	4.5	4.651743412017822	X-name is a chinese restaurant in the riverside area .	
inform(name=X-name,accepts_credit_cards=yes)	6.0	6.0	0.0	1	5.0	5.14865779876709		6.0	6.0	0.0	1	5.0	5.036911487579346	X-name accepts credit cards .	
inform(name=X-name,accepts_credit_cards=yes)	3.0	3.0	0.0	1	5.0	5.14865779876709		3.0	3.0	0.0	1	5.0	5.036911487579346	X-name accepts credit cards .	
inform(name=X-name,area=X-area,phone=X-phone)	3.0	3.0	0.0	1	5.0	4.903292179107666		6.0	6.0	0.0	1	4.5	4.736505031585693	X-name is in the area of X-area and the number is X-phone .	
inform(name=X-name,type=restaurant)	5.0	5.0	0.0	1	5.0	5.247287273406982		4.0	4.0	0.0	1	5.0	5.041327953338623	X-name is a nice restaurant .	
inform(name=X-name,near=X-near,kids_allowed=no,good_for_meal=dinner)	5.0	5.0	0.0	1	4.0	4.045741558074951		4.0	4.0	0.0	1	4.0	3.9082870483398438	X-name is near X-near and does not allow kids for dinner .	
inform(type=restaurant,count=X-count,food=basque,kids_allowed=no,price_range=moderate)	6.0	6.0	0.0	1	5.0	4.852968215942383		6.0	6.0	0.0	1	4.5	4.699105262756348	there are X-count basque restaurants that are moderately priced and do not allow kids .	
inform(name=X-name,food='ethnic food or russian')	6.0	6.0	0.0	1	5.0	5.054229736328125		5.0	5.0	0.0	1	5.0	4.8230719566345215	X-name serves ethnic food or russian food .	
inform(name=X-name,area=X-area,address=X-address)	3.0	3.0	0.0	1	4.5	4.2978363037109375		2.0	2.0	0.0	1	4.0	4.070418357849121	X-name , is in the X-area area and it is address is X-address .	
inform(name=X-name,type=placetoeat,eattype=restaurant,pricerange=expensive,area=X-area,near=X-near)	6.0	6.0	0.0	1	5.0	4.824632167816162		6.0	6.0	0.0	1	4.5	4.658995628356934	X-name is an expensive restaurant , in the riverside area near X-near .	
inform(type=restaurant,count=X-count,good_for_meal=dinner,kids_allowed=yes)	6.0	6.0	0.0	1	5.0	5.0246710777282715		5.0	5.0	0.0	1	5.0	4.993203163146973	there are X-count result for a place with a good dinner that allows kids .	
inform(name=X-name,kids_allowed=no)	6.0	6.0	0.0	1	5.0	5.143205642700195		6.0	6.0	0.0	1	5.0	5.049112796783447	X-name is a nice restaurant that does not allow children .	
inform(name=X-name,type=hotel)	6.0	6.0	0.0	1	5.0	4.870175838470459		5.0	5.0	0.0	1	4.5	4.621313571929932	the X-name is a nice hotel .	
inform_no_match(area=X-area)	6.0	6.0	0.0	1	5.0	5.237609386444092		6.0	6.0	0.0	1	5.0	4.9035234451293945	i am sorry but there are no hotels in the area of X-area .	
inform(name=X-name,postcode=X-postcode)	6.0	6.0	0.0	1	5.0	5.168873310089111		5.0	5.0	0.0	1	5.0	5.053942680358887	the postcode of X-name is X-postcode .	
inform(name=X-name,type=placetoeat,eattype=restaurant,near=X-near,area=X-area)	3.0	3.0	0.0	1	4.5	4.508485317230225		2.0	2.0	0.0	1	4.5	4.454814910888672	X-name is a restaurant in the centre of town located near X-near .	
inform(type=restaurant,count=X-count,good_for_meal=dinner,near=X-near)	2.0	2.0	0.0	1	5.5	5.273171901702881		1.0	1.0	0.0	1	5.0	5.1391825675964355	there are X-count restaurants a nice food near X-near which to good for dinner .	
inform(name=X-name,area=X-area)	6.0	6.0	0.0	1	5.0	4.766438007354736		6.0	6.0	0.0	1	4.5	4.580021381378174	X-name is a nice restaurant in the area of X-area .	
inform(name=X-name,phone=X-phone)	5.0	5.0	0.0	1	5.5	5.372304439544678		5.0	5.0	0.0	1	5.0	5.097933292388916	the phone number for X-name is X-phone .	
inform(name=X-name,phone=X-phone)	5.0	5.0	0.0	1	5.5	5.372304439544678		5.0	5.0	0.0	1	5.0	5.097933292388916	the phone number for X-name is X-phone .	
inform(name=X-name,has_internet=yes)	6.0	6.0	0.0	1	5.0	4.991920471191406		5.0	5.0	0.0	1	4.5	4.733714580535889	X-name has internet .	
inform(name=X-name,has_internet=yes)	5.0	5.0	0.0	1	5.0	4.991920471191406		1.0	1.0	0.0	1	4.5	4.733714580535889	X-name has internet .	
confirm(price_range=dont_care)	4.0	4.0	0.0	1	4.5	4.306240558624268		4.0	4.0	0.0	1	4.0	4.141573905944824	can i confirm that you do not care about the price range ?	
confirm(price_range=dont_care)	4.0	4.0	0.0	1	4.5	4.306240558624268		4.0	4.0	0.0	1	4.0	4.141573905944824	can i confirm that you do not care about the price range ?	
inform(name=X-name,type=restaurant)	6.0	6.0	0.0	1	5.0	5.115957736968994		6.0	6.0	0.0	1	5.0	4.837579250335693	the name of the restaurant is X-name .	
inform(name=X-name,food=vegetarian)	6.0	6.0	0.0	1	5.0	4.867584228515625		6.0	6.0	0.0	1	4.5	4.745416164398193	there is a vegetarian restaurant called X-name .	
inform(name=X-name,near=X-near)	4.0	4.0	0.70397687	0	4.0	3.8700568675994873		3.0	3.0	0.6706183	0	3.5	3.745399236679077	he X-name is located near X-near .	
inform(type=hotel,count=X-count,accepts_credit_cards=yes,price_range=pricey,area=X-area)	5.0	5.0	0.0	1	5.0	4.898972988128662		5.0	5.0	0.0	1	5.0	4.8204827308654785	there are X-count hotels in the area of X-area , they are priceyly priced and accepts credit cards .	
inform(name=X-name,type=placetoeat,eattype=restaurant,area=X-area,food=Indian,food='Indian takeaway')	5.0	5.0	0.0	1	4.5	4.661862373352051		2.0	2.0	0.0	1	4.5	4.523044109344482	X-name is an indian restaurant that provides indian takeaway riverside .	
inform(name=X-name,phone=X-phone)	6.0	6.0	0.0	1	5.5	5.372304439544678		5.0	5.0	0.0	1	5.0	5.097933292388916	the phone number for X-name is X-phone .	
inform(name=X-name,price_range=moderate)	3.0	3.0	0.2803321	0	3.5	3.324655294418335		3.0	3.0	0.27276802	0	3.0	3.044574737548828	X-name , is moderate .	
inform(name=X-name,type=placetoeat,eattype=restaurant,area=X-area,area=X-area,food=Indian)	5.0	5.0	0.0	1	4.5	4.699625492095947		5.0	5.0	0.0	1	4.5	4.5462260246276855	X-name is an indian restaurant in X-area and X-area .	
inform_no_match(area=X-area)	5.0	5.0	0.0	1	5.0	5.237609386444092		6.0	6.0	0.0	1	5.0	4.9035234451293945	i am sorry but there are no hotels in the area of X-area .	
inform(name=X-name,good_for_meal=dinner)	5.0	5.0	0.043589592	0	4.0	4.030086040496826		4.0	4.0	0.07696724	0	4.0	3.7571868896484375	X-name , is good for dinner .	
inform(name=X-name,type=placetoeat,pricerange=expensive,near=X-near,near=X-near,area=X-area,eattype=restaurant)	3.0	3.0	0.0	1	5.0	5.045385837554932		3.0	3.0	0.0	1	5.0	4.885584831237793	X-name is an expensive restaurant in X-near near X-near and X-area .	
inform(name=X-name,kids_allowed=yes,food=pizza)	4.0	4.0	0.0	1	4.5	4.727254390716553		2.0	2.0	0.0	1	4.5	4.571107864379883	X-name allows kids , and serves pizza food .	
inform(type=restaurant,count=X-count,price_range=cheap,area=X-area)	5.0	5.0	0.0	1	5.0	5.061262607574463		5.0	5.0	0.0	1	5.0	4.856590747833252	there are X-count cheap restaurants in X-area .	
inform(name=X-name,area=X-area,address=X-address)	6.0	6.0	0.0	1	4.5	4.691423416137695		4.0	4.0	0.0	1	4.5	4.512481212615967	X-name is in the X-area hill area and the address is X-address .	
inform(type=hotel,count=X-count,area=X-area)	6.0	6.0	0.0	1	5.0	5.184081077575684		5.0	5.0	0.0	1	5.0	5.011354923248291	there are X-count hotels in the X-area area .	
inform(name=X-name,phone=X-phone)	5.0	5.0	0.0	1	5.0	5.216745853424072		5.0	5.0	0.0	1	5.0	4.986227989196777	you may reach the X-name at X-phone .	
inform(name=X-name,address=X-address,phone=X-phone)	5.0	5.0	0.0	1	5.0	5.225982666015625		5.0	5.0	0.0	1	5.0	5.003942489624023	X-name 's address is X-address , and its phone number is X-phone .	
inform(name=X-name,postcode=X-postcode)	1.0	1.0	0.0	1	5.5	5.311925411224365		2.0	2.0	0.0	1	5.0	5.16076135635376	the postcode for X-name is X-postcode .	
inform(name=X-name,near=X-near)	6.0	6.0	0.70397687	0	4.0	3.8700568675994873		2.0	2.0	0.6706183	0	3.5	3.745399236679077	he X-name is located near X-near .	
inform(name=X-name,food='raw food')	6.0	6.0	0.0	1	5.0	5.161251068115234		6.0	6.0	0.0	1	5.0	5.096098899841309	there is a raw food restaurant called X-name .	
inform(name=X-name,area=X-area)	6.0	6.0	0.0	1	4.5	4.680918216705322		6.0	6.0	0.0	1	4.5	4.460200309753418	the X-name is in the X-area area .	
inform(name=X-name,kids_allowed=yes,food=pizza)	4.0	4.0	0.0	1	5.0	4.890329360961914		4.0	4.0	0.0	1	4.5	4.737339019775391	X-name allows kids and serves pizza food .	
inform(name=X-name,type=placetoeat,eattype=restaurant,area=X-area,food=Italian,food='Takeaway pizza')	6.0	6.0	0.0	1	4.5	4.415433406829834		6.0	6.0	0.0	1	4.5	4.364241123199463	X-name is an italian restaurant that provides takeaway pizza in the centre of town .	
inform(name=X-name,good_for_meal=dinner,area=X-area)	5.0	5.0	0.17039895	0	4.0	3.8614137172698975		5.0	5.0	0.30074787	0	3.5	3.5714619159698486	X-name , is good for dinner , and is in the X-area area .	
inform(name=X-name,food=pizza)	5.0	5.0	0.0	1	5.0	4.834954738616943		6.0	6.0	0.0	1	4.5	4.716145992279053	there is a pizza restaurant called X-name .	
inform(name=X-name,type=placetoeat,eattype=restaurant)	6.0	6.0	0.0	1	5.0	5.172453880310059		6.0	6.0	0.0	1	5.0	5.056611061096191	X-name is a restaurant .	
inform(name=X-name,type=placetoeat,eattype=restaurant)	6.0	6.0	0.0	1	5.0	5.172453880310059		6.0	6.0	0.0	1	5.0	5.056611061096191	X-name is a restaurant .	
inform(name=X-name,area=X-area)	3.0	3.0	0.0	1	4.5	4.302413463592529		3.0	3.0	0.0	1	4.0	4.174413204193115	there is a hotel called in X-name and in the area of X-area .	
inform(name=X-name,address=X-address,phone=X-phone)	5.0	5.0	0.0	1	5.0	5.09503173828125		1.0	1.0	0.0	1	5.0	4.827782154083252	X-name is located at X-address and the phone number is X-phone .	
inform_no_match(area=X-area)	5.0	5.0	0.0	1	5.5	5.25691556930542		4.0	4.0	0.0	1	5.0	4.949118614196777	i am sorry but there are no hotels in the X-area area .	
inform(name=X-name,food=lebanese)	5.0	5.0	0.0	1	5.0	4.990502834320068		5.0	5.0	0.0	1	5.0	4.961704730987549	there is a lebanese restaurant called X-name .	
inform_only_match(name=X-name,near=X-near)	4.0	4.0	0.0	1	4.5	4.532702922821045		3.0	3.0	0.0	1	4.5	4.3404951095581055	X-name is the only hotel near X-near .	
inform(name=X-name,address=X-address,phone=X-phone)	4.0	4.0	0.0	1	5.0	5.23229455947876		4.0	4.0	0.0	1	5.0	4.915549278259277	the address of X-name is X-address and the phone number is X-phone .	
inform_no_match(food=steak,price_range=cheap)	3.0	3.0	0.0	1	4.5	4.656702041625977		3.0	3.0	0.0	1	4.5	4.581916332244873	i am sorry , i can not find any restaurants that serve steak food and are cheap .	
inform(name=X-name,area=X-area,price_range=cheap)	6.0	6.0	0.0	1	4.5	4.260794639587402		6.0	6.0	0.0	1	4.0	4.129150867462158	X-name is in the area of X-area and it is in the cheap price range .	
inform(name=X-name,type=placetoeat,eattype=restaurant,near=X-near,food=Seafood)	6.0	6.0	0.0	1	5.0	4.8732781410217285		6.0	6.0	0.0	1	5.0	4.7993927001953125	X-name is a seafood restaurant near X-near .	
inform(name=X-name,type=placetoeat,pricerange=expensive,area=X-area,near=X-near,near=X-near,eattype=restaurant)	5.0	5.0	0.0	1	5.0	5.149267196655273		6.0	6.0	0.0	1	5.0	4.97606086730957	X-name is an expensive restaurant in X-area near X-near and X-near .	
request(good_for_meal)	6.0	6.0	0.0	1	5.0	5.09864616394043		5.0	5.0	0.0	1	5.0	4.931921005249023	are you looking for breakfast , brunch , lunch or dinner ?	
inform(name=X-name,address=X-address,postcode=X-postcode)	2.0	2.0	0.0	1	5.0	4.768937587738037		3.0	3.0	0.0	1	4.5	4.6339287757873535	X-name , is located at X-address , X-postcode .	
inform(name=X-name,price_range=pricey,dogs_allowed=yes)	6.0	6.0	0.0	1	5.0	4.769652843475342		5.0	5.0	0.0	1	4.5	4.573521137237549	the X-name allows dogs and is in the pricey price range .	
inform(name=X-name,type=restaurant)	6.0	6.0	0.0	1	5.0	5.115957736968994		5.0	5.0	0.0	1	5.0	4.837579250335693	the name of the restaurant is X-name .	
inform(name=X-name,phone=X-phone)	5.0	5.0	0.0	1	5.0	5.216745853424072		5.0	5.0	0.0	1	5.0	4.986227989196777	you may reach the X-name at X-phone .	
inform(name=X-name,near=X-near)	5.0	5.0	0.2615962	0	4.5	4.312437534332275		4.0	4.0	0.2947402	0	4.0	4.121277332305908	X-name , is near the X-near .	
inform(name=X-name,type=placetoeat,pricerange=moderate,area=X-area,near=X-near,eattype=restaurant)	5.0	5.0	0.0	1	5.0	5.107637882232666		4.0	4.0	0.0	1	5.0	4.972936630249023	X-name is a restaurant in the moderate price range close to X-area in X-near .	
inform(type=restaurant,count=X-count,price_range=dont_care)	5.0	5.0	0.0	1	5.0	5.049961090087891		5.0	5.0	0.0	1	5.0	4.867126941680908	there are X-count restaurants in any price range .	
inform_no_match(area=X-area)	3.0	3.0	0.0	1	5.0	4.972257614135742		4.0	4.0	0.0	1	4.5	4.702182769775391	there are no restaurants in the X-area area .	
inform(name=X-name,accepts_credit_cards=yes)	5.0	5.0	0.0	1	5.0	5.14865779876709		5.0	5.0	0.0	1	5.0	5.036911487579346	X-name accepts credit cards .	
inform(name=X-name,accepts_credit_cards=yes)	4.0	4.0	0.0	1	5.0	5.14865779876709		3.0	3.0	0.0	1	5.0	5.036911487579346	X-name accepts credit cards .	
inform(name=X-name,price_range=moderate)	3.0	3.0	0.0	1	4.5	4.495932102203369		3.0	3.0	0.0	1	4.0	4.162496566772461	the X-name is a moderate hotel .	
inform(name=X-name,type=placetoeat,eattype=restaurant,area=X-area,food=Indian,food='Indian takeaway')	6.0	6.0	0.0	1	5.0	4.8240275382995605		6.0	6.0	0.0	1	4.5	4.6404571533203125	X-name is an indian restaurant in the riverside area .	
inform(name=X-name,price_range='ultra high end',address=X-address)	4.0	4.0	0.0	1	5.0	5.072851657867432		5.0	5.0	0.0	1	5.0	4.8503289222717285	X-name has a ultra high endly priced hotel located at X-address .	
inform(name=X-name,area=X-area)	4.0	4.0	0.0	1	4.5	4.680918216705322		4.0	4.0	0.0	1	4.5	4.460200309753418	the X-name is in the X-area area .	
inform(name=X-name,address=X-address)	6.0	6.0	0.0	1	5.5	5.333777904510498		5.0	5.0	0.0	1	5.0	5.148472309112549	the address for X-name is X-address .	
inform(name=X-name,phone=X-phone,postcode=X-postcode)	3.0	3.0	0.0	1	5.0	4.874431133270264		3.0	3.0	0.0	1	4.5	4.723708152770996	X-name , phone number is X-phone , and the postcode is X-postcode .	
inform(name=X-name,price_range=cheap)	6.0	6.0	0.0	1	4.5	4.668354511260986		4.0	4.0	0.0	1	4.5	4.456907749176025	X-name is in the cheap price range .	
inform(type=restaurant,count=X-count,good_for_meal=dont_care,food=pizza,kids_allowed=yes)	5.0	5.0	0.0	1	5.0	4.994877338409424		2.0	2.0	0.0	1	5.0	4.938920021057129	there are X-count restaurants that allow kids pizza are allowed for any meal .	
inform(name=X-name,good_for_meal=dinner,near=X-near,price_range=moderate)	3.0	3.0	0.0	1	4.0	4.222696304321289		4.0	4.0	0.0	1	4.0	4.056877613067627	X-name is a good , moderate restaurant for dinner located near X-near .	
inform(name=X-name,food='peruvian or tapas')	4.0	4.0	0.0	1	5.0	5.026757717132568		4.0	4.0	0.0	1	5.0	4.802730083465576	X-name serves peruvian or tapas food .	
inform(name=X-name,kids_allowed=yes)	6.0	6.0	0.0	1	5.5	5.299959659576416		4.0	4.0	0.0	1	5.0	5.217324256896973	X-name is a nice restaurant that allows children .	
inform(name=X-name,price_range=moderate,address=X-address)	4.0	4.0	0.0	1	4.5	4.53554630279541		4.0	4.0	0.0	1	4.0	4.228584289550781	the X-name is moderate , and the address is X-address .	
inform(name=X-name,area=X-area)	2.0	2.0	0.0	1	4.0	4.211612224578857		4.0	4.0	0.0	1	4.0	4.1060404777526855	there is a hotel called in the X-name and in the area of X-area .	
inform(name=X-name,price_range=cheap,near=X-near,kids_allowed=no)	5.0	5.0	0.030564785	0	4.0	3.945528745651245		4.0	4.0	0.10106397	0	4.0	3.8093245029449463	X-name , is near X-near , does not allow kids , and is cheap .	
inform(name=X-name,good_for_meal=lunch)	4.0	4.0	0.0	1	4.5	4.650362491607666		4.0	4.0	0.0	1	4.5	4.384983539581299	X-name , is good for lunch .	
inform(name=X-name,type=placetoeat,eattype=restaurant,near=X-near,pricerange=expensive,area=X-area)	5.0	5.0	0.0	1	4.5	4.332089900970459		5.0	5.0	0.0	1	4.0	4.236977577209473	X-name is an expensive restaurant near X-near and in the centre of town .	
inform(name=X-name,type=placetoeat,near=X-near,area=X-area,area=X-area,eattype=restaurant)	2.0	2.0	0.0	1	5.0	4.913573741912842		2.0	2.0	0.0	1	5.0	4.8216166496276855	X-name is a restaurant in X-near on and to X-area .	
inform(name=X-name,price_range=moderate,near=X-near,good_for_meal=dinner)	4.0	4.0	0.14811921	0	3.5	3.464020252227783		4.0	4.0	0.32207203	0	3.0	3.15762996673584	X-name , is near X-near , the is good for dinner , and it is in the moderate price range .	
inform(name=X-name,area=X-area,address=X-address)	5.0	5.0	0.0	1	4.5	4.2978363037109375		5.0	5.0	0.0	1	4.0	4.070418357849121	X-name , is in the X-area area and it is address is X-address .	
inform(name=X-name,area=X-area,accepts_credit_cards=yes)	4.0	4.0	0.0	1	4.5	4.341680526733398		4.0	4.0	0.15053844	0	4.0	4.095473289489746	repeats X-name , accepts credit cards , and in X-area .	
inform(name=X-name,area=X-area,address=X-address)	3.0	3.0	0.0	1	4.5	4.2978363037109375		3.0	3.0	0.0	1	4.0	4.070418357849121	X-name , is in the X-area area and it is address is X-address .	
inform(name=X-name,type=restaurant)	4.0	4.0	0.0	1	5.0	5.115957736968994		5.0	5.0	0.0	1	5.0	4.837579250335693	the name of the restaurant is X-name .	
inform(name=X-name,area=X-area,price_range=expensive,food=japanese)	6.0	6.0	0.0	1	4.5	4.708987712860107		6.0	6.0	0.0	1	4.5	4.612573623657227	X-name is a expensive japanese restaurant in the X-area area .	
inform_no_match(near=X-near,price_range=expensive)	5.0	5.0	0.0	1	4.5	4.703855514526367		5.0	5.0	0.0	1	4.5	4.533686637878418	there are no expensively priced restaurants near X-near .	
inform(name=X-name,price_range=moderate)	5.0	5.0	0.0	1	4.5	4.653650283813477		5.0	5.0	0.0	1	4.5	4.383549690246582	the X-name is in the moderate price range .	
inform(name=X-name,type=restaurant)	4.0	4.0	0.0	1	5.0	5.115957736968994		4.0	4.0	0.0	1	5.0	4.837579250335693	the name of the restaurant is X-name .	
inform(name=X-name,area=X-area,phone=X-phone)	3.0	3.0	0.0	1	4.5	4.512367248535156		3.0	3.0	0.0	1	4.0	4.24581241607666	X-name , is in the X-area call X-phone .	
inform(name=X-name,type=restaurant)	5.0	5.0	0.0	1	5.0	5.247287273406982		5.0	5.0	0.0	1	5.0	5.041327953338623	X-name is a nice restaurant .	
inform(name=X-name,type=restaurant)	6.0	6.0	0.0	1	5.0	5.247287273406982		6.0	6.0	0.0	1	5.0	5.041327953338623	X-name is a nice restaurant .	
inform(name=X-name,food='comfort food',good_for_meal=dinner)	3.0	3.0	0.0	1	4.0	4.11121940612793		3.0	3.0	0.0	1	4.0	3.9320690631866455	X-name , is a good restaurant that serves comfort food food , especially for dinner .	
inform(name=X-name,price_range=pricey,phone=X-phone)	2.0	2.0	0.0	1	5.0	4.981048107147217		4.0	4.0	0.0	1	5.0	4.751685619354248	the X-name is in the pricey price range and the phone number is X-phone .	
inform(name=X-name,near=X-near,has_internet=yes)	4.0	4.0	0.0	1	4.5	4.565787315368652		3.0	3.0	0.0	1	4.5	4.252426624298096	the X-name , near the X-near does offer internet .	
inform_no_match(area=X-area)	5.0	5.0	0.0	1	5.5	5.25691556930542		5.0	5.0	0.0	1	5.0	4.949118614196777	i am sorry but there are no hotels in the X-area area .	
inform(name=X-name,price_range=pricey,area=X-area)	4.0	4.0	0.0	1	4.5	4.250458240509033		4.0	4.0	0.0	1	4.0	4.014043807983398	X-name is in the X-area area and it is pricey .	
inform(name=X-name,address=X-address,phone=X-phone)	5.0	5.0	0.0	1	5.0	5.094955921173096		5.0	5.0	0.0	1	5.0	4.830570697784424	X-name is located at X-address , and their phone number is X-phone .	
inform(name=X-name,type=restaurant)	5.0	5.0	0.0	1	5.0	5.115957736968994		5.0	5.0	0.0	1	5.0	4.837579250335693	the name of the restaurant is X-name .	
inform(name=X-name,near=X-near,has_internet=yes)	4.0	4.0	0.0	1	4.5	4.565787315368652		4.0	4.0	0.0	1	4.5	4.252426624298096	the X-name , near the X-near does offer internet .	
inform(name=X-name,postcode=X-postcode)	6.0	6.0	0.0	1	5.5	5.35647439956665		5.0	5.0	0.0	1	5.0	5.167449951171875	the postcode for the X-name is X-postcode .	
inform(name=X-name,type=placetoeat,eattype=restaurant,area=X-area,area=X-area)	4.0	4.0	0.0	1	4.5	4.500063419342041		4.0	4.0	0.0	1	4.5	4.373410701751709	X-name is a restaurant in X-area and X-area .	
inform(name=X-name,good_for_meal=breakfast,area=X-area,kids_allowed=no)	5.0	5.0	0.0	1	4.5	4.373612880706787		5.0	5.0	0.0	1	4.0	4.238968849182129	X-name , is a nice restaurant in the X-area area that allows children , and is good for breakfast .	
inform(name=X-name,phone=X-phone)	6.0	6.0	0.0	1	5.5	5.372304439544678		6.0	6.0	0.0	1	5.0	5.097933292388916	the phone number for X-name is X-phone .	
inform(name=X-name,phone=X-phone)	6.0	6.0	0.0	1	5.5	5.372304439544678		5.0	5.0	0.0	1	5.0	5.097933292388916	the phone number for X-name is X-phone .	
inform(name=X-name,area=X-area,dogs_allowed=none)	6.0	6.0	0.06860733	0	4.5	4.253117561340332		6.0	6.0	0.2341466	0	4.0	4.091075897216797	X-name is located near X-area and do not allow dogs .	
inform(name=X-name,has_internet=yes,near=X-near)	5.0	5.0	0.0	1	4.5	4.5639472007751465		5.0	5.0	0.0	1	4.5	4.402366638183594	X-name is near X-near and has internet .	
inform(name=X-name,type=placetoeat,eattype=restaurant,near=X-near,area=X-area)	3.0	3.0	0.0	1	4.0	4.1927103996276855		5.0	5.0	0.0	1	4.0	4.170717239379883	X-name is a restaurant located in X-near in the X-area area near x and x .	
inform(type=restaurant,count=X-count,kids_allowed=dont_care,area=X-area)	3.0	3.0	0.0	1	5.0	4.76155424118042		2.0	2.0	0.0	1	4.5	4.733699321746826	there are X-count restaurants in the X-area area do not care whether the kids are allowed .	
inform(name=X-name,food=afghan)	5.0	5.0	0.0	1	5.0	5.073075771331787		4.0	4.0	0.0	1	5.0	4.827811241149902	X-name serves afghan food .	
