mr	naturalness_human_rating	naturalness_human_rating_raw	naturalness_rank_loss	naturalness_rank_ok	naturalness_system_rating	naturalness_system_rating_raw	orig_ref	quality_human_rating	quality_human_rating_raw	quality_rank_loss	quality_rank_ok	quality_system_rating	quality_system_rating_raw	system_output	system_output2
inform(name=X-name,type=placetoeat,eattype=restaurant,area=X-area,area=X-area,near=X-near,food=Indian)	5.0	5.0	0.0	1	5.5	5.261729717254639		5.0	5.0	0.0	1	5.0	5.124171257019043	X-name is an indian restaurant in X-area .	
inform(name=X-name,food=thai)	5.0	5.0	0.0	1	5.5	5.307837009429932		5.5	5.5	0.0	1	5.0	5.10656213760376	there is a thai restaurant called X-name .	
inform(name=X-name,type=placetoeat,eattype=restaurant,near=X-near,pricerange=expensive,area=X-area)	5.0	5.0	0.0	1	5.0	4.828430652618408		5.0	5.0	0.0	1	5.0	5.050897121429443	X-name is a restaurant in the expensive price range in the city centre area near X-near .	
confirm(near=X-near)	5.0	5.0	0.18044949	0	4.5	4.738029479980469		5.0	5.0	0.0	1	4.5	4.729372501373291	do you want it near X-near ?	
inform(name=X-name,type=placetoeat,eattype=restaurant,near=X-near,near=X-near,area=X-area,area=X-area)	4.0	4.0	0.0	1	4.5	4.6415181159973145		4.0	4.0	0.0	1	5.0	4.821628093719482	X-name is a restaurant in the riverside and the X-near area near X-near and X-area .	
inform(name=X-name,type=placetoeat,eattype=restaurant,near=X-near,food=Indian,food='Indian takeaway')	3.0	3.0	0.0	1	5.0	5.245063781738281		2.0	2.0	0.0	1	5.0	5.062881946563721	X-name is an indian restaurant takeaway food near X-near .	
inform(name=X-name,price_range=moderate,address=X-address)	6.0	6.0	0.0	1	5.5	5.336798191070557		5.5	5.5	0.0	1	5.0	5.104763507843018	X-name has a moderately priced hotel located at X-address .	
inform(name=X-name,price=X-price)	5.0	5.0	0.0017352104	0	5.0	5.164498805999756		4.0	4.0	0.0	1	5.0	4.796511173248291	the price of X-name is X-price .	
inform(name=X-name,area=X-area,address=X-address)	5.0	5.0	0.0	1	5.0	5.2235002517700195		5.0	5.0	0.0	1	5.0	4.992316722869873	the address for X-name is X-address , X-area .	
inform(name=X-name,phone=X-phone,postcode=X-postcode)	5.5	5.5	0.0	1	5.5	5.282464504241943		5.5	5.5	0.0	1	5.0	5.080461025238037	the phone number for X-name is X-phone , and the postcode is X-postcode .	
select(kids_allowed='yes or no')	6.0	6.0	0.0	1	6.0	5.940673351287842		6.0	6.0	0.0	1	6.0	6.0	i am sorry , are you looking for a restaurant that allows kids or you do not care ?	
inform(name=X-name,kids_allowed=yes)	5.0	5.0	0.0	1	5.5	5.423034191131592		4.0	4.0	0.0	1	5.0	5.126484394073486	X-name is a nice restaurant that allows children .	
inform(name=X-name,food='middle eastern',kids_allowed=no,price_range=cheap)	4.5	4.5	0.07943916	0	5.0	4.852503776550293		5.5	5.5	0.0	1	5.0	4.811304569244385	the restaurant i recommend is X-name , it serves middle eastern cheaply priced and does not allow children .	
inform_no_match(area=X-area)	6.0	6.0	0.0	1	5.5	5.7307844161987305		5.5	5.5	0.0	1	5.5	5.585428714752197	i am sorry i am not finding any hotels in the X-area area .	
inform(name=X-name,food=burgers,price_range=expensive,good_for_meal=dinner)	4.0	4.0	0.4867034	0	4.5	4.446261882781982		4.0	4.0	0.022371292	0	4.5	4.40866231918335	X-name is in the expensive price range and serves burgers food and is good for dinner .	
inform(name=X-name,area=X-area)	6.0	6.0	0.0	1	5.0	4.791121959686279		5.0	5.0	0.0	1	4.5	4.624117851257324	the X-name is in the X-area area .	
inform(name=X-name,type=placetoeat,near=X-near,area=X-area,eattype=restaurant)	3.0	3.0	0.0	1	5.5	5.397477149963379		5.0	5.0	0.0	1	5.0	5.173052787780762	X-name is a restaurant in X-near near X-area and .	
inform(name=X-name,phone=X-phone)	5.0	5.0	0.0	1	5.5	5.462837219238281		6.0	6.0	0.0	1	5.5	5.333493709564209	you may reach the X-name at X-phone .	
inform(name=X-name,address=X-address,phone=X-phone)	6.0	6.0	0.0	1	5.5	5.383762359619141		4.0	4.0	0.0	1	5.0	5.115283966064453	X-name is located at X-address and the phone number is X-phone .	
inform(name=X-name,food='japanese or sushi',phone=X-phone)	5.0	5.0	0.0	1	5.5	5.323243618011475		5.0	5.0	0.0	1	5.0	5.0355424880981445	X-name serves japanese or sushi food . their phone number is X-phone .	
inform(name=X-name,type=placetoeat,eattype=restaurant,area=X-area,area=X-area,near=X-near,near=X-near)	5.0	5.0	0.0	1	5.0	5.224867343902588		5.0	5.0	0.0	1	5.0	5.218820571899414	X-name is a restaurant on the city centre , riverside area and X-near .	
inform(name=X-name,address=X-address)	5.5	5.5	0.0	1	5.5	5.5588603019714355		5.0	5.0	0.0	1	5.5	5.361140251159668	X-name 's address is X-address .	
inform(name=X-name,type=placetoeat,eattype=restaurant,area=X-area,near=X-near,near=X-near,food=Italian)	6.0	6.0	0.0	1	5.5	5.261719226837158		6.0	6.0	0.0	1	5.0	5.093313217163086	X-name is an italian restaurant in the city centre area near X-near , and X-near .	
inform(name=X-name,food=indian)	6.0	6.0	0.0	1	5.5	5.618259429931641		5.5	5.5	0.0	1	5.5	5.344461441040039	there is a indian restaurant called X-name .	
inform_no_match(area=X-area,dogs_allowed=yes)	6.0	6.0	0.0	1	5.5	5.597177028656006		6.0	6.0	0.0	1	5.5	5.365574359893799	i am sorry but there are no hotels near X-area that allow dogs .	
inform(name=X-name,address=X-address)	5.0	5.0	0.0	1	5.5	5.509738445281982		5.0	5.0	0.0	1	5.5	5.251452922821045	the address for X-name is X-address .	
inform(name=X-name,price_range=moderate)	1.0	1.0	0.04327488	0	4.5	4.5007452964782715		1.0	1.0	0.29613447	0	4.0	4.052144527435303	X-name , is moderate .	
inform(name=X-name,price=X-price,phone=X-phone)	5.0	5.0	0.1308937	0	5.0	5.131369590759277		4.0	4.0	0.0	1	5.0	5.095462322235107	the name of the restaurant is X-name . the price is X-price . their phone number is X-phone .	
inform_no_match(area=X-area)	6.0	6.0	0.0	1	5.5	5.6975202560424805		5.0	5.0	0.0	1	5.5	5.543246746063232	i am sorry but there are no hotels in the X-area area .	
inform(name=X-name,type=placetoeat,eattype=restaurant,near=X-near,area=X-area,area=X-area,food=Chinese)	3.0	3.0	0.0	1	5.0	5.22245979309082		3.0	3.0	0.0	1	5.5	5.328794002532959	X-name is a chinese restaurant in the centre of town and riverside near X-near .	
inform(name=X-name,type=placetoeat,eattype=restaurant,area=X-area,food=Indian)	5.0	5.0	0.0	1	5.5	5.371458530426025		5.0	5.0	0.0	1	5.0	5.1522321701049805	X-name is an indian restaurant in X-area .	
inform(type=restaurant,count=X-count,food=mexican,kids_allowed=yes)	4.5	4.5	0.0	1	5.5	5.51735258102417		4.5	4.5	0.0	1	5.5	5.309013843536377	there are X-count mexican restaurants that allows kids .	
inform(type=restaurant,count=X-count,food=mexican,kids_allowed=yes)	4.0	4.0	0.0	1	5.5	5.51735258102417		4.0	4.0	0.0	1	5.5	5.309013843536377	there are X-count mexican restaurants that allows kids .	
inform(name=X-name,type=placetoeat,eattype=restaurant,near=X-near,area=X-area,food=Chinese)	2.0	2.0	0.0	1	5.5	5.26890754699707		2.0	2.0	0.0	1	5.5	5.293248653411865	X-name is a chinese restaurant in the riverside near X-near .	
inform(name=X-name,type=placetoeat,eattype=restaurant,food=Seafood)	6.0	6.0	0.048321724	0	5.5	5.561062335968018		4.0	4.0	0.0	1	5.0	5.227739334106445	X-name is a chinese restaurant .	
inform(name=X-name,type=placetoeat,eattype=restaurant,near=X-near,area=X-area,food='Cafe food',food=English)	4.0	4.0	0.0	1	5.0	5.19843053817749		4.5	4.5	0.0	1	5.0	5.131603717803955	X-name is an english cafe food restaurant in the city centre , near X-near .	
inform(name=X-name,type=placetoeat,eattype=restaurant,near=X-near,area=X-area,food=Chinese)	5.0	5.0	0.0	1	5.5	5.295826435089111		5.0	5.0	0.0	1	5.5	5.327927589416504	X-name is a chinese restaurant on the riverside , near X-near .	
inform_no_match(near=X-near,price_range=expensive)	3.0	3.0	0.0	1	5.0	5.079676151275635		3.0	3.0	0.0	1	5.0	4.915965557098389	unfortunately there are no restaurnats that are expensive close to X-near where children are not allowed .	
inform(type=restaurant,count=X-count,kids_allowed=yes,price_range=expensive)	6.0	6.0	0.0	1	5.5	5.394332408905029		6.0	6.0	0.0	1	5.5	5.370148658752441	there are X-count expensive restaurants where kids are allowed .	
inform(name=X-name,address=X-address,phone=X-phone)	4.0	4.0	0.0	1	5.5	5.399875640869141		4.0	4.0	0.0	1	5.0	5.1103339195251465	the address of X-name is X-address and the phone number is X-phone .	
inform(name=X-name,phone=X-phone)	6.0	6.0	0.0	1	5.5	5.568246364593506		6.0	6.0	0.0	1	5.0	5.227731227874756	the phone number for X-name is X-phone .	
inform(name=X-name,phone=X-phone)	6.0	6.0	0.0	1	5.5	5.568246364593506		5.0	5.0	0.0	1	5.0	5.227731227874756	the phone number for X-name is X-phone .	
inform(name=X-name,price_range=pricey)	5.0	5.0	0.0	1	5.0	5.125579833984375		5.0	5.0	0.0	1	4.5	4.749328136444092	the X-name is a pricey hotel .	
inform(name=X-name,near=X-near)	6.0	6.0	0.0	1	5.0	5.0343017578125		5.0	5.0	0.0	1	4.5	4.646974563598633	the X-name is near X-near .	
inform(name=X-name,near=X-near)	2.0	2.0	0.7986083	0	4.0	4.118781089782715		2.0	2.0	0.672045	0	4.0	3.7802364826202393	he X-name is located near X-near .	
inform(name=X-name,type=restaurant)	4.0	4.0	0.07745409	0	5.5	5.5847344398498535		5.0	5.0	0.0	1	5.0	5.234645843505859	X-name is a nice restaurant .	
inform(name=none,type=placetoeat,eattype=restaurant,near=X-near,food=English)	4.0	4.0	0.0	1	5.0	5.080606460571289		2.0	2.0	0.0	1	4.5	4.673646450042725	i 'm near X-near .	
inform(name=X-name,phone=X-phone)	6.0	6.0	0.0	1	5.5	5.455642223358154		6.0	6.0	0.0	1	5.5	5.310690879821777	you may reach X-name at X-phone .	
inform_no_match(area=X-area)	5.0	5.0	0.0	1	5.5	5.6833176612854		5.0	5.0	0.0	1	5.5	5.541797161102295	i am sorry but there are no hotels in the area of X-area .	
inform(name=X-name,area=X-area,kids_allowed=no,price_range=expensive)	1.0	1.0	0.1057744	0	4.5	4.62752628326416		1.0	1.0	0.0	1	4.5	4.516387939453125	X-name , is in the X-area area is it do not allow kids expensive .	
inform(name=X-name,area=X-area)	3.0	3.0	1.1631587	0	3.5	3.570044755935669		4.0	4.0	0.49302387	0	4.0	3.800448417663574	there is a hotel called in the X-name and in the area of X-area .	
inform(name=X-name,near=X-near)	5.5	5.5	0.7986083	0	4.0	4.118781089782715		5.5	5.5	0.672045	0	4.0	3.7802364826202393	he X-name is located near X-near .	
inform(name=X-name,has_internet=yes,dogs_allowed=yes,area=X-area)	5.0	5.0	0.0	1	5.0	4.760681629180908		5.0	5.0	0.0	1	4.5	4.651597499847412	X-name in the X-area area does have internet and allows dogs .	
inform(name=X-name,address=X-address)	5.0	5.0	0.0	1	5.5	5.509738445281982		5.0	5.0	0.0	1	5.5	5.251452922821045	the address for X-name is X-address .	
confirm(area=X-area)	6.0	6.0	0.01743412	0	4.5	4.690985202789307		5.0	5.0	0.0	1	4.5	4.588659286499023	to confirm , you are looking for a hotel in the X-area area ?	
inform(name=X-name,type=placetoeat,eattype=restaurant,near=X-near,food=Chinese)	5.0	5.0	0.0	1	5.5	5.325809478759766		5.0	5.0	0.0	1	5.0	5.23976993560791	X-name is a chinese food restaurant near X-near .	
inform_no_match(area=X-area,price_range=pricey)	5.0	5.0	0.0	1	5.0	5.207293510437012		5.0	5.0	0.0	1	5.0	4.898909568786621	there are no pricey hotels in X-area .	
inform(name=X-name,type=placetoeat,eattype=restaurant,area=X-area,near=X-near,food=Contemporary,food=English)	3.0	3.0	0.0	1	5.0	5.178840637207031		4.0	4.0	0.0	1	5.0	5.0395894050598145	X-name is an english restaurant in X-area that serves contemporary food near X-near .	
inform(name=X-name,type=placetoeat,eattype=restaurant,food='Chinese takeaway',food=Fusion)	3.0	3.0	0.03630066	0	5.5	5.543027877807617		4.0	4.0	0.0	1	5.5	5.3937201499938965	X-name is a restaurant that provides chinese fusion takeaway .	
inform(name=X-name,good_for_meal=dinner,price_range=cheap,food=japanese)	5.0	5.0	0.05458021	0	5.0	4.908640384674072		4.0	4.0	0.0	1	4.5	4.564176082611084	X-name serves cheap japanese food and is good for dinner .	
inform(name=X-name,address=X-address)	6.0	6.0	0.0	1	5.5	5.509738445281982		5.0	5.0	0.0	1	5.5	5.251452922821045	the address for X-name is X-address .	
inform(name=X-name,type=placetoeat,eattype=restaurant,near=X-near,food=French)	5.0	5.0	0.0	1	5.0	5.206813812255859		5.0	5.0	0.0	1	5.0	4.901207447052002	X-name is a restaurant that serves french food near X-near .	
inform(name=X-name,type=placetoeat,eattype=restaurant,area=X-area,near=X-near,food=Italian,food='Takeaway pizza')	2.0	2.0	0.11835575	0	5.0	5.115714073181152		3.0	3.0	0.0	1	5.0	5.1173014640808105	X-name is an italian restaurant in the city centre area near X-near , and it take - away take takeaway .	
inform(name=X-name,good_for_meal=lunch,kids_allowed=no,price_range=cheap)	4.0	4.0	0.2670293	0	4.5	4.601533889770508		4.0	4.0	0.0	1	4.5	4.527930736541748	X-name , is good for lunch , it is cheaply priced and does not allow children .	
inform(name=X-name,near=X-near)	3.5	3.5	0.07418394	0	5.0	4.843205451965332		4.5	4.5	0.029006481	0	4.5	4.423274993896484	X-name , is near the X-near .	
inform(name=X-name,area=X-area,has_internet=yes)	4.5	4.5	0.017272472	0	5.0	5.000218868255615		2.5	2.5	0.0	1	4.5	4.740738868713379	X-name is near X-area has internet .	
inform(name=X-name,type=placetoeat,eattype=restaurant,near=X-near,food=Contemporary,food=English)	4.0	4.0	0.0	1	5.5	5.291714191436768		5.0	5.0	0.0	1	5.0	5.017490863800049	X-name is an english cafe food restaurant near X-near .	
inform(name=X-name,food='burgers or creperies',address=X-address)	5.0	5.0	0.16466284	0	5.0	5.1728410720825195		6.0	6.0	0.0	1	5.0	4.972790241241455	the X-name serves burgers or creperies food , and is located at X-address .	
request(near)	1.0	1.0	0.0	1	5.5	5.322096824645996		1.0	1.0	0.0	1	5.5	5.503427505493164	where would you like it to be near to ?	
inform(name=X-name,area=X-area,has_internet=yes)	5.0	5.0	0.0	1	5.0	5.1926774978637695		5.0	5.0	0.0	1	5.0	4.878880977630615	X-name in the X-area area has internet .	
inform(name=X-name,type=placetoeat,eattype=restaurant,area=X-area,near=X-near,near=X-near,food='Chinese takeaway')	4.0	4.0	0.0	1	5.0	5.224050521850586		4.0	4.0	0.0	1	5.0	5.148275852203369	X-name is a chinese restaurant in the city centre near X-near and X-near .	
inform(name=X-name,area=X-area,phone=X-phone)	6.0	6.0	0.0	1	5.0	5.019111633300781		4.0	4.0	0.0	1	5.0	4.819059371948242	X-name is in X-area , the phone number is X-phone .	
inform(name=X-name,address=X-address)	6.0	6.0	0.0	1	5.5	5.509738445281982		5.0	5.0	0.0	1	5.5	5.251452922821045	the address for X-name is X-address .	
inform(name=X-name,price_range=pricey)	4.0	4.0	0.0	1	5.0	4.968649387359619		4.0	4.0	0.0	1	4.5	4.706167697906494	the X-name is in the pricey price range .	
inform(name=X-name,food=peruvian,good_for_meal=dinner)	4.5	4.5	0.10418749	0	5.0	4.94771146774292		4.0	4.0	0.0	1	5.0	4.832958221435547	X-name , is a good restaurant that serves peruvian food , especially for dinner .	
inform(name=X-name,type=placetoeat,near=X-near,pricerange=expensive,area=X-area,eattype=restaurant)	5.0	5.0	0.0	1	5.5	5.264594554901123		4.0	4.0	0.0	1	5.0	5.203089714050293	X-name is an expensive restaurant , in the riverside area near X-near .	
inform(name=X-name,address=X-address)	5.0	5.0	0.0	1	5.5	5.5588603019714355		5.0	5.0	0.0	1	5.5	5.361140251159668	X-name 's address is X-address .	
inform(type=restaurant,count=X-count,area=dont_care)	4.0	4.0	0.0	1	5.0	5.161021709442139		3.0	3.0	0.0	1	5.0	4.984207630157471	there are X-count restaurants if the area does not matter .	
inform(name=X-name,price_range=moderate,good_for_meal=dinner)	3.0	3.0	0.092423916	0	4.5	4.719491004943848		3.0	3.0	0.0	1	4.5	4.482515811920166	X-name , is a good dinner meal and is moderate .	
inform(name=none,near=X-near,area=X-area)	5.0	5.0	0.0	1	5.0	4.784029006958008		6.0	6.0	0.0	1	5.0	4.825736045837402	i 'm sorry there is X-name information about a venue in the X-near area near X-area i 'm .	
inform(name=X-name,price_range=moderate,food=persian)	6.0	6.0	0.0	1	5.5	5.256941318511963		6.0	6.0	0.0	1	5.0	4.96560001373291	X-name serves persian food at a moderate price range .	
inform(name=X-name,type=placetoeat,pricerange=expensive,eattype=restaurant)	2.0	2.0	0.15441036	0	5.5	5.441868782043457		4.0	4.0	0.0	1	5.5	5.338063716888428	X-name is a restaurant in the expensive price range .	
inform(name=X-name,type=placetoeat,pricerange=expensive,eattype=restaurant)	6.0	6.0	0.15441036	0	5.5	5.441868782043457		6.0	6.0	0.0	1	5.5	5.338063716888428	X-name is a restaurant in the expensive price range .	
inform(name=X-name,price_range=expensive)	6.0	6.0	0.0	1	5.0	5.231579303741455		6.0	6.0	0.0	1	5.0	5.046560287475586	X-name is a nice restaurant in the expensive price range .	
inform(name=X-name,price_range=pricey,phone=X-phone)	4.0	4.0	0.0	1	5.5	5.253907203674316		4.0	4.0	0.0	1	5.0	4.972181797027588	the X-name is priceyly priced and their phone number is X-phone .	
inform(name=X-name,price=X-price,phone=X-phone)	6.0	6.0	0.1308937	0	5.0	5.131369590759277		6.0	6.0	0.0	1	5.0	5.095462322235107	the name of the restaurant is X-name . the price is X-price . their phone number is X-phone .	
inform(name=X-name,kids_allowed=yes,food=thai)	6.0	6.0	0.12307119	0	5.0	5.11326789855957		6.0	6.0	0.0	1	4.5	4.731760501861572	X-name allows kids , and serves thai food .	
inform(name=X-name,postcode=X-postcode)	3.5	3.5	0.0	1	5.5	5.443207263946533		3.5	3.5	0.0	1	5.0	5.103273868560791	the postcode of X-name is X-postcode .	
inform(name=X-name,type=placetoeat,eattype=restaurant,area=X-area,pricerange=moderate,near=X-near,near=X-near)	4.0	4.0	0.0	1	5.0	5.0046916007995605		5.0	5.0	0.0	1	5.0	5.092919826507568	X-name is a restaurant in X-area , near to X-near and X-near in the moderate price range .	
select(dogs_allowed='yes or no')	4.0	4.0	0.0	1	5.5	5.544357776641846		6.0	6.0	0.0	1	5.5	5.702363967895508	can i confirm that you do not care if the hotel allows dogs ?	
confirm(near=X-near)	6.0	6.0	0.0	1	5.0	5.101635932922363		6.0	6.0	0.0	1	5.0	5.209133148193359	can i confirm that you are looking for a restaurant near X-near ?	
confirm(near=X-near)	6.0	6.0	0.0	1	5.0	5.101635932922363		4.0	4.0	0.0	1	5.0	5.209133148193359	can i confirm that you are looking for a restaurant near X-near ?	
inform(name=X-name,phone=X-phone)	6.0	6.0	0.0	1	5.5	5.568246364593506		5.5	5.5	0.0	1	5.0	5.227731227874756	the phone number for X-name is X-phone .	
inform(name=X-name,phone=X-phone)	6.0	6.0	0.0	1	5.5	5.568246364593506		4.0	4.0	0.0	1	5.0	5.227731227874756	the phone number for X-name is X-phone .	
inform(name=X-name,near=X-near,kids_allowed=yes,price_range=moderate)	1.0	1.0	0.0	1	4.5	4.553321361541748		1.0	1.0	0.0	1	4.5	4.30260705947876	X-name , is near X-near , is moderate range and allows children .	
inform(name=X-name,good_for_meal=dinner,area=X-area,price_range=cheap)	6.0	6.0	0.0	1	4.5	4.726659297943115		5.0	5.0	0.0	1	4.5	4.5624098777771	X-name is an cheap restaurant in the X-area area that serves dinner .	
inform(name=X-name,kids_allowed=no,price_range=moderate)	4.5	4.5	0.0	1	5.0	4.777137279510498		3.5	3.5	0.0	1	4.5	4.564298629760742	X-name , is moderately prices and does not allow children .	
inform(name=X-name,type=placetoeat,eattype=restaurant,area=X-area,food='Chinese takeaway',food=Fusion)	6.0	6.0	0.0051374435	0	5.5	5.416863918304443		6.0	6.0	0.0	1	5.5	5.339950084686279	X-name is a chinese fusion takeaway restaurant in X-area .	
inform(name=X-name,kids_allowed=no)	6.0	6.0	0.15675402	0	5.5	5.288259983062744		6.0	6.0	0.0	1	5.0	5.195459842681885	X-name is a nice restaurant that does not allow children .	
inform(name=X-name,address=X-address)	5.0	5.0	0.0	1	5.5	5.5588603019714355		5.5	5.5	0.0	1	5.5	5.361140251159668	X-name 's address is X-address .	
inform(name=X-name,price_range=cheap,phone=X-phone)	5.0	5.0	0.0	1	5.0	5.116086959838867		5.0	5.0	0.0	1	5.0	4.941793441772461	X-name is in the very cheap price range . the phone number is X-phone .	
inform(name=X-name,good_for_meal=dinner)	5.0	5.0	0.0	1	5.0	5.131732940673828		4.0	4.0	0.0	1	5.0	4.809016227722168	X-name is a good restaurant for dinner .	
inform(name=X-name,area=X-area)	6.0	6.0	0.0	1	5.0	4.791121959686279		4.0	4.0	0.0	1	4.5	4.624117851257324	the X-name is in the X-area area .	
inform(name=X-name,price=X-price)	5.0	5.0	0.0	1	5.0	5.2016448974609375		5.0	5.0	0.0	1	5.0	4.79474401473999	the price is X-price at X-name .	
inform(name=X-name,address=X-address)	5.5	5.5	0.0	1	5.5	5.5588603019714355		6.0	6.0	0.0	1	5.5	5.361140251159668	X-name 's address is X-address .	
inform_no_match(food=afghan,good_for_meal=lunch)	4.5	4.5	0.0	1	5.0	5.054492473602295		4.5	4.5	0.0	1	5.0	4.881698131561279	unfortunately 0 restaurants serve afghan for lunch .	
inform(type=hotel,count=X-count,has_internet=yes,dogs_allowed=dont_care)	5.0	5.0	0.06561899	0	5.0	5.040478706359863		5.0	5.0	0.0	1	5.0	4.962714195251465	there are X-count hotels that have internet if you do not care whether dogs are allowed .	
inform(name=X-name,near=X-near,kids_allowed=no)	6.0	6.0	0.0	1	5.0	5.121561050415039		6.0	6.0	0.0	1	5.0	4.971217632293701	X-name is a nice restaurant near X-near that does not allow children .	
inform(name=X-name,phone=X-phone)	5.5	5.5	0.0	1	5.5	5.568246364593506		6.0	6.0	0.0	1	5.0	5.227731227874756	the phone number for X-name is X-phone .	
inform(name=X-name,phone=X-phone)	6.0	6.0	0.0	1	5.5	5.568246364593506		5.0	5.0	0.0	1	5.0	5.227731227874756	the phone number for X-name is X-phone .	
inform_no_match(area=X-area)	5.0	5.0	0.0	1	5.5	5.7307844161987305		5.5	5.5	0.0	1	5.5	5.585428714752197	i am sorry i am not finding any hotels in the X-area area .	
inform(name=X-name,type=placetoeat,eattype=restaurant,near=X-near,near=X-near,food=Chinese)	5.0	5.0	0.0	1	5.0	5.2295756340026855		5.0	5.0	0.0	1	5.0	5.14951753616333	X-name is a chinese restaurant near X-near .	
inform(name=X-name,food=chinese)	5.5	5.5	0.004090309	0	5.5	5.329220771789551		5.5	5.5	0.0	1	5.0	5.017736434936523	there is a chinese restaurant called X-name .	
inform(name=X-name,area=X-area,has_internet=yes)	6.0	6.0	0.0	1	5.0	5.214657783508301		5.0	5.0	0.0	1	5.0	4.886019706726074	X-name in X-area area has internet .	
inform(name=X-name,near=X-near,price_range=moderate)	4.0	4.0	0.0	1	5.0	5.016747951507568		3.0	3.0	0.0	1	4.5	4.6626296043396	X-name is a moderate restaurant near X-near .	
inform(name=X-name,price_range=moderate)	6.0	6.0	0.0	1	5.0	4.96025276184082		6.0	6.0	0.0	1	4.5	4.730724811553955	the X-name is in the moderate price range .	
confirm(kids_allowed=yes)	5.0	5.0	0.0	1	5.5	5.368232727050781		6.0	6.0	0.0	1	5.0	5.080936908721924	please confirm , you want a restaurant that allows children ?	
inform(type=hotel,count=X-count,accepts_credit_cards=dont_care)	5.0	5.0	0.0	1	5.0	5.039697170257568		5.0	5.0	0.0	1	5.0	4.928861141204834	there are X-count hotels if you do not care whether or not they take credit cards .	
inform(name=X-name,area=X-area,address=X-address,phone=X-phone)	6.0	6.0	0.0	1	5.0	5.190079212188721		6.0	6.0	0.0	1	5.0	5.1508708000183105	X-name is in the X-area park area . its address is X-address and its phone number is X-phone .	
inform(name=X-name,address=X-address,phone=X-phone)	4.0	4.0	0.0	1	5.5	5.374213218688965		4.5	4.5	0.0	1	5.0	5.085994720458984	X-name is located at X-address , and their phone number is X-phone .	
inform(name=X-name,type=hotel)	4.0	4.0	0.0	1	5.0	5.164252758026123		3.0	3.0	0.0	1	5.0	4.847318172454834	the X-name is a nice hotel .	
inform(name=X-name,kids_allowed=no,near=X-near)	5.0	5.0	0.0	1	5.0	5.189761161804199		3.0	3.0	0.0	1	5.0	5.036011695861816	X-name is a nice restaurant near X-near that does not allow children .	
inform(type=hotel,count=X-count,dogs_allowed=dont_care)	5.0	5.0	0.0	1	5.0	5.035848617553711		5.0	5.0	0.0	1	5.0	4.906926155090332	there are X-count hotels if you do not care whether or not they allow dogs .	
inform_no_match(food=asian,good_for_meal=lunch)	4.0	4.0	0.0	1	5.0	5.211963653564453		1.0	1.0	0.0	1	5.0	5.123552322387695	there are 0 restaurants that are good for lunch and serve asian food .	
inform(name=X-name,price_range=expensive,kids_allowed=no)	6.0	6.0	0.0	1	5.0	5.140117645263672		6.0	6.0	0.0	1	5.0	4.943603515625	X-name is an expensive restaurant that does not allow children .	
inform(name=none,type=placetoeat,eattype=restaurant,near=X-near,food=English)	1.0	1.0	0.33881474	0	4.5	4.516427516937256		1.0	1.0	0.0	1	4.5	4.533445358276367	X-near is there to visit suggest want restaurant you may am sorry but i know of X-name venues english restaurant near x .	
inform(name=X-name,address=X-address)	4.5	4.5	0.05772829	0	5.5	5.348402500152588		4.5	4.5	0.0	1	5.0	5.16876745223999	the address of X-name is 901s van ness ave .	
inform(name=X-name,area=X-area,eattype=restaurant,food=Chinese)	5.0	5.0	0.0	1	5.5	5.437206268310547		5.0	5.0	0.0	1	5.5	5.30886697769165	X-name is a chinese food restaurant near X-area .	
inform(name=X-name,good_for_meal=lunch)	6.0	6.0	0.0	1	5.5	5.377469062805176		4.0	4.0	0.0	1	5.0	5.140585422515869	X-name is a good restaurant for lunch .	
inform(name=X-name,type=placetoeat,eattype=restaurant,near=X-near,area=X-area,area=X-area)	4.5	4.5	0.0	1	5.0	4.813828468322754		4.5	4.5	0.0	1	5.0	4.8238677978515625	X-name is a restaurant near X-near , X-area and near X-area .	
inform(name=X-name,area=X-area)	5.0	5.0	0.0	1	5.0	4.791121959686279		5.0	5.0	0.0	1	4.5	4.624117851257324	the X-name is in the X-area area .	
inform(name=X-name,dogs_allowed=none,phone=X-phone)	4.5	4.5	0.0	1	5.5	5.377140045166016		3.0	3.0	0.0	1	5.0	5.137008190155029	the phone number for X-name is X-phone no dogs are allowed there .	
inform(name=X-name,near=X-near)	6.0	6.0	0.0	1	5.0	5.0343017578125		5.0	5.0	0.0	1	4.5	4.646974563598633	the X-name is near X-near .	
inform(name=X-name,type=placetoeat,eattype=restaurant,pricerange=expensive,area=X-area,food=Continental,food=French)	6.0	6.0	0.0	1	5.0	5.084875583648682		5.0	5.0	0.0	1	5.0	4.931991100311279	X-name is a french and continental restaurant in the X-area area .	
inform(type=restaurant,count=X-count,good_for_meal=lunch,food=dont_care)	1.0	1.0	0.38331556	0	5.0	4.8035993576049805		2.0	2.0	0.0	1	4.5	4.736182689666748	i know of X-count restaurants good for lunch dinner for you do not care about the food type .	
confirm(price_range=inexpensive)	2.5	2.5	0.0	1	5.0	5.224229335784912		3.5	3.5	0.0	1	5.0	4.895257949829102	please confirm you are looking for the inexpensive range ?	
inform(name=X-name,kids_allowed=yes)	5.5	5.5	0.0	1	5.5	5.330411911010742		6.0	6.0	0.0	1	5.0	5.004082202911377	X-name allows children .	
inform(name=X-name,area=X-area,kids_allowed=yes)	3.5	3.5	0.07560539	0	5.0	4.936469078063965		3.0	3.0	0.0	1	4.5	4.687503337860107	X-name , is in X-area that allows children .	
inform(name=X-name,type=placetoeat,eattype=restaurant,near=X-near,area=X-area,area=X-area)	1.0	1.0	0.0	1	5.0	4.916413307189941		1.0	1.0	0.0	1	5.0	4.955924034118652	X-name is a restaurant on the riverside , X-near near X-area and .	
inform(name=X-name,type=placetoeat,eattype=restaurant,pricerange=expensive,near=X-near,food=Italian)	4.0	4.0	0.17315435	0	5.0	5.212419509887695		5.0	5.0	0.0	1	5.0	5.074423789978027	X-name is an italian restaurant in the expensive price range near X-near .	
inform(name=X-name,price_range=pricey,area=X-area)	5.0	5.0	0.094341755	0	4.5	4.544257640838623		5.0	5.0	0.0	1	4.5	4.486264705657959	the X-name is in the X-area area and it is pricey .	
inform(name=X-name,address=X-address,phone=X-phone)	4.0	4.0	0.0	1	5.5	5.374213218688965		4.5	4.5	0.0	1	5.0	5.085994720458984	X-name is located at X-address , and their phone number is X-phone .	
inform(name=X-name,type=placetoeat,eattype=restaurant,area=X-area)	4.0	4.0	0.0	1	5.5	5.3062920570373535		4.0	4.0	0.0	1	5.0	5.199304580688477	X-name is a restaurant in the riverside area .	
inform(name=X-name,phone=X-phone,postcode=X-postcode)	6.0	6.0	0.0	1	5.5	5.282464504241943		5.0	5.0	0.0	1	5.0	5.080461025238037	the phone number for X-name is X-phone , and the postcode is X-postcode .	
inform(type=restaurant,count=X-count,good_for_meal=dont_care)	5.0	5.0	0.0	1	5.5	5.3552680015563965		5.0	5.0	0.0	1	5.0	5.046512603759766	there are X-count restaurants available serving any meal .	
inform(name=X-name,area=X-area,dogs_allowed=no)	6.0	6.0	0.22903347	0	5.0	4.832140922546387		4.0	4.0	0.0	1	4.5	4.673989772796631	X-name is in X-area and does not allow dogs .	
inform(name=X-name,type=placetoeat,eattype=restaurant,near=X-near,area=X-area,food=Indian)	4.0	4.0	0.0	1	5.5	5.298615455627441		4.0	4.0	0.0	1	5.0	5.176900863647461	X-name is a restaurant in X-near near X-area .	
inform(name=X-name,eattype=restaurant,phone=X-phone)	6.0	6.0	0.0	1	5.5	5.467082977294922		5.0	5.0	0.0	1	5.0	5.069641590118408	X-name is a restaurant .	
inform(name=X-name,postcode=X-postcode)	6.0	6.0	0.0	1	5.5	5.443207263946533		6.0	6.0	0.0	1	5.0	5.103273868560791	the postcode of X-name is X-postcode .	
inform(name=X-name,price_range=inexpensive)	5.0	5.0	0.0	1	5.0	5.117732048034668		5.0	5.0	0.0	1	5.0	4.8181281089782715	the X-name is a inexpensive hotel .	
inform(name=X-name,type=restaurant)	6.0	6.0	0.15435839	0	5.5	5.5078301429748535		6.0	6.0	0.0	1	5.5	5.321537017822266	the name of the restaurant is X-name .	
confirm(price_range=cheap)	4.0	4.0	0.0	1	5.0	4.943314075469971		5.0	5.0	0.0	1	5.0	4.759116172790527	can i confirm that you are looking for a cheaply priced restaurant ?	
select(dogs_allowed='yes or no')	6.0	6.0	0.0	1	5.5	5.581358432769775		6.0	6.0	0.0	1	5.5	5.645716667175293	would you like a hotel where dogs are allowed ?	
inform(name=X-name,price_range=moderate,area=X-area)	6.0	6.0	0.013035774	0	4.5	4.548978328704834		6.0	6.0	0.0	1	4.5	4.484290599822998	the X-name is in the X-area area and it is moderate .	
inform(name=X-name,near=X-near)	4.0	4.0	0.060608864	0	5.0	4.856780529022217		3.0	3.0	0.061766148	0	4.5	4.390515327453613	X-name is near X-near .	
inform(name=X-name,address=X-address)	4.5	4.5	0.0	1	5.5	5.535253047943115		3.5	3.5	0.0	1	5.5	5.455129623413086	you may find X-name at X-address .	
inform(name=X-name,near=X-near,price_range=moderate)	6.0	6.0	0.0	1	5.0	4.829834461212158		4.0	4.0	0.0	1	4.5	4.564605712890625	okay well the X-name , near the X-near in your price moderate range .	
inform(name=X-name,price_range=expensive)	5.0	5.0	0.0	1	5.0	4.970885753631592		4.0	4.0	0.008917332	0	4.5	4.477731227874756	X-name , is expensive .	
inform(name=X-name,phone=X-phone)	2.0	2.0	0.0	1	5.5	5.568246364593506		3.0	3.0	0.0	1	5.0	5.227731227874756	the phone number for X-name is X-phone .	
inform(name=X-name,type=placetoeat,eattype=restaurant,area=X-area,near=X-near,food=Seafood)	3.0	3.0	0.0	1	5.5	5.260824680328369		4.0	4.0	0.0	1	5.0	5.106114387512207	X-name is a seafood restaurant on the riverside area near X-near .	
inform(name=X-name,type=placetoeat,area=X-area,eattype=restaurant,pricerange=moderate)	4.0	4.0	0.03693056	0	5.0	5.2331037521362305		5.0	5.0	0.0	1	5.5	5.360566139221191	X-name is a restaurant in the moderate price range located in the area in the X-area area .	
inform_no_match(area=X-area,price_range='ultra high end')	5.0	5.0	0.0	1	5.5	5.6399736404418945		6.0	6.0	0.0	1	5.5	5.423189640045166	i am sorry but there are no hotels in the X-area area in the price range ultra high end .	
inform(type=hotel,count=X-count,price_range=pricey)	6.0	6.0	0.0	1	5.5	5.415065765380859		6.0	6.0	0.0	1	5.0	5.1508684158325195	there are X-count hotels that are in the pricey price range .	
inform(name=X-name,near=X-near,has_internet=yes)	6.0	6.0	0.0	1	5.0	5.083260536193848		4.0	4.0	0.0	1	4.5	4.740974426269531	the X-name , near the X-near does offer internet .	
inform_no_match(near=X-near,dogs_allowed=yes)	5.0	5.0	0.0	1	5.0	5.165124416351318		5.0	5.0	0.0	1	5.0	4.9732513427734375	there are no hotels near X-near that allow dogs .	
inform(name=X-name,type=restaurant)	4.0	4.0	0.15435839	0	5.5	5.5078301429748535		4.0	4.0	0.0	1	5.5	5.321537017822266	the name of the restaurant is X-name .	
inform(name=X-name,type=placetoeat,eattype=restaurant,pricerange=moderate,area=X-area,area=X-area)	5.0	5.0	0.0	1	5.0	4.979453086853027		5.0	5.0	0.0	1	5.0	5.019627571105957	X-name is a moderately priced restaurant in X-area and X-area .	
inform_no_match(area=X-area)	6.0	6.0	0.0	1	5.5	5.6975202560424805		4.0	4.0	0.0	1	5.5	5.543246746063232	i am sorry but there are no hotels in the X-area area .	
inform(name=X-name,type=restaurant)	4.0	4.0	0.07745409	0	5.5	5.5847344398498535		4.0	4.0	0.0	1	5.0	5.234645843505859	X-name is a nice restaurant .	
select(price_range='expensive or cheap')	1.0	1.0	0.0	1	5.5	5.302140235900879		1.0	1.0	0.0	1	5.0	5.199612617492676	are you looking for a expensive or cheap price range is no restaurant ?	
inform(type=restaurant,count=X-count,area=X-area)	5.0	5.0	0.0	1	5.0	5.152755260467529		5.0	5.0	0.0	1	5.0	4.943659782409668	we have X-count restaurants listed in the X-area area .	
inform(name=X-name,type=placetoeat,eattype=restaurant,near=X-near,area=X-area,food=Italian)	4.5	4.5	0.0	1	5.5	5.300079345703125		5.0	5.0	0.0	1	5.0	5.08435583114624	X-name is an italian restaurant on the riverside close to X-near .	
inform(name=X-name,type=placetoeat,eattype=restaurant,area=X-area,near=X-near)	5.0	5.0	0.0	1	5.5	5.285664081573486		4.0	4.0	0.0	1	5.0	5.168524265289307	X-name is a restaurant in citycentre and X-near .	
inform(name=X-name,near=X-near)	6.0	6.0	0.0	1	5.0	5.0343017578125		6.0	6.0	0.0	1	4.5	4.646974563598633	the X-name is near X-near .	
inform(name=X-name,type=placetoeat,eattype=restaurant,near=X-near,food=Indian)	4.0	4.0	0.0	1	5.0	5.225377559661865		5.0	5.0	0.0	1	5.0	4.987278461456299	X-name is an indian restaurant near X-near and x .	
inform_no_match(area=X-area,price_range=expensive)	5.0	5.0	0.0	1	5.5	5.527381420135498		5.0	5.0	0.0	1	5.5	5.259471416473389	i am sorry . i did not find any expensive restaurants in X-area .	
inform_only_match(name=X-name,price_range=expensive,near=X-near)	4.5	4.5	0.0	1	5.0	4.827336311340332		5.0	5.0	0.0	1	4.5	4.719300270080566	there is no place other than X-name that are expensive near to X-near .	
inform_only_match(name=X-name,price_range=expensive,near=X-near)	4.0	4.0	0.0	1	5.0	4.827336311340332		4.0	4.0	0.0	1	4.5	4.719300270080566	there is no place other than X-name that are expensive near to X-near .	
inform(name=X-name,address=X-address,phone=X-phone)	5.5	5.5	0.0	1	5.5	5.470166206359863		5.0	5.0	0.0	1	5.0	5.244892597198486	X-name 's address is X-address , and its phone number is X-phone .	
inform(name=X-name,type=restaurant)	4.0	4.0	0.15435839	0	5.5	5.5078301429748535		5.0	5.0	0.0	1	5.5	5.321537017822266	the name of the restaurant is X-name .	
inform(type=restaurant,count=X-count,good_for_meal=dinner,near=X-near,price_range=moderate)	4.0	4.0	0.0	1	4.5	4.681455612182617		4.0	4.0	0.0	1	4.5	4.702910423278809	there are X-count restaurants near X-near in the moderate price range and it is good for dinner .	
inform(name=X-name,area=X-area)	3.0	3.0	0.017442226	0	4.5	4.715761184692383		2.0	2.0	0.0	1	4.5	4.593565940856934	the X-name is located in the X-area area .	
inform_no_match(area=X-area)	5.0	5.0	0.0	1	5.5	5.7307844161987305		4.0	4.0	0.0	1	5.5	5.585428714752197	i am sorry i am not finding any hotels in the X-area area .	
inform(name=X-name,phone=X-phone,postcode=X-postcode)	6.0	6.0	0.0	1	5.5	5.292549133300781		6.0	6.0	0.0	1	5.0	5.089526176452637	the phone number for X-name is X-phone and the postcode is X-postcode .	
inform_no_match(area=X-area)	5.0	5.0	0.0	1	5.5	5.6975202560424805		5.0	5.0	0.0	1	5.5	5.543246746063232	i am sorry but there are no hotels in the X-area area .	
inform_no_match(area=X-area)	5.0	5.0	0.0	1	5.5	5.3371710777282715		5.0	5.0	0.0	1	5.0	5.096408843994141	there are no hotels in the X-area area .	
inform(name=X-name,near=X-near)	5.0	5.0	0.07418394	0	5.0	4.843205451965332		5.0	5.0	0.029006481	0	4.5	4.423274993896484	X-name , is near the X-near .	
inform(name=X-name,type=placetoeat,eattype=restaurant,food='Cafe food',food=English)	6.0	6.0	0.0	1	5.5	5.277606010437012		3.0	3.0	0.0	1	5.0	5.091405868530273	X-name is an english cafe food restaurant serving chinese food .	
inform(type=hotel,count=X-count,has_internet=yes,dogs_allowed=dont_care)	2.0	2.0	0.0	1	5.5	5.42913818359375		2.0	2.0	0.0	1	5.0	5.160701751708984	there are X-count hotels available internet and have internet .	
inform(name=X-name,address=X-address,postcode=X-postcode)	6.0	6.0	0.0	1	5.0	5.214870929718018		5.0	5.0	0.0	1	5.0	5.03211784362793	the address of X-name is X-address , and the postcode is X-postcode .	
inform(name=X-name,dogs_allowed=none,phone=X-phone)	6.0	6.0	0.0	1	5.0	5.23275899887085		5.0	5.0	0.0	1	5.0	5.107508182525635	X-name will not allow dogs . they can be reached at this number , X-phone .	
inform_no_match(price_range=expensive,area=X-area)	6.0	6.0	0.0	1	5.5	5.4582319259643555		6.0	6.0	0.0	1	5.0	5.208924770355225	i am sorry . i did not find any expensive restaurants in X-area .	
inform(name=X-name,area=X-area)	5.0	5.0	0.0	1	5.0	4.791121959686279		4.0	4.0	0.0	1	4.5	4.624117851257324	the X-name is in the X-area area .	
inform(type=hotel,count=X-count,has_internet=yes)	3.0	3.0	0.23178053	0	5.0	5.083768367767334		3.0	3.0	0.0	1	5.0	4.8436713218688965	the hotel has X-count rooms , has internet and the price range you do not care about .	
inform(name=X-name,price_range=cheap)	5.5	5.5	0.25222445	0	4.5	4.6099982261657715		5.0	5.0	0.12968493	0	4.0	4.1135125160217285	X-name , is cheap .	
inform(type=hotel,count=X-count,area=X-area)	6.0	6.0	0.0	1	5.0	5.219174861907959		6.0	6.0	0.0	1	5.0	5.064820766448975	there are X-count hotels in the X-area area .	
inform(name=X-name,type=placetoeat,eattype=restaurant,area=X-area,food=Chinese)	5.0	5.0	0.0	1	5.5	5.389736652374268		6.0	6.0	0.0	1	5.5	5.347963809967041	X-name is a chinese restaurant near the river .	
inform(name=X-name,area=X-area)	4.0	4.0	0.0	1	4.5	4.733932971954346		5.0	5.0	0.0	1	4.5	4.566817283630371	the X-name is located in X-area area .	
inform(name=X-name,type=placetoeat,eattype=restaurant,near=X-near,pricerange=expensive,food=Chinese)	5.0	5.0	0.0	1	5.5	5.281445026397705		5.0	5.0	0.0	1	5.5	5.349335193634033	X-name is a restaurant near X-near providing expensive food .	
inform(name=X-name,price_range=moderate)	4.0	4.0	0.0	1	5.0	5.039781093597412		3.5	3.5	0.0	1	4.5	4.749389171600342	the X-name is a moderate hotel .	
inform_no_match(area=X-area)	6.0	6.0	0.0	1	5.5	5.6833176612854		4.0	4.0	0.0	1	5.5	5.541797161102295	i am sorry but there are no hotels in the area of X-area .	
inform(name=X-name,type=placetoeat,eattype=restaurant,area=X-area,near=X-near,food=Chinese)	3.0	3.0	0.0	1	5.0	5.217738151550293		5.0	5.0	0.0	1	5.5	5.280616283416748	X-name is a chinese restaurant in the city centre and area near X-near .	
confirm(food='comfort food')	6.0	6.0	0.0	1	5.5	5.293557643890381		5.0	5.0	0.0	1	5.0	5.184989929199219	let me confirm , are you looking for comfort food ?	
inform(name=X-name,near=X-near,price_range=moderate)	3.5	3.5	0.0	1	5.0	4.798146724700928		4.0	4.0	0.0	1	4.5	4.380743026733398	X-name near X-near offers moderate food .	
inform(name=X-name,type=placetoeat,eattype=restaurant,food=Seafood)	5.0	5.0	0.0599823	0	5.5	5.549401760101318		6.0	6.0	0.0	1	5.0	5.228466510772705	X-name is a seafood restaurant .	
inform_no_match(area=X-area)	3.0	3.0	0.0	1	5.5	5.6833176612854		4.0	4.0	0.0	1	5.5	5.541797161102295	i am sorry but there are no hotels in the area of X-area .	
inform(name=X-name,near=X-near,kids_allowed=yes,price_range=moderate)	5.0	5.0	0.0	1	5.0	5.126127243041992		4.0	4.0	0.0	1	5.0	4.857475757598877	X-name is a moderately priced restaurant that allows children near X-near .	
inform(name=X-name,area=X-area,phone=X-phone)	6.0	6.0	0.0	1	5.0	5.1853508949279785		5.0	5.0	0.0	1	5.0	5.0814290046691895	X-name is in the area of X-area heights , its phone number is X-phone .	
inform(type=hotel,count=X-count,price_range=dont_care)	5.0	5.0	0.0	1	5.0	5.18204927444458		5.0	5.0	0.0	1	5.0	4.880776882171631	there are X-count hotels available if the price range does not mater .	
inform_only_match(name=X-name,good_for_meal=dinner,near=X-near,kids_allowed=no)	3.5	3.5	0.0	1	5.0	4.798433303833008		4.0	4.0	0.0	1	4.5	4.65413761138916	i apologize X-name is the only restaurant near X-near that is good for dinner , and does not allow kids .	
inform(name=X-name,type=restaurant)	6.0	6.0	0.15435839	0	5.5	5.5078301429748535		6.0	6.0	0.0	1	5.5	5.321537017822266	the name of the restaurant is X-name .	
inform(name=X-name,phone=X-phone)	5.0	5.0	0.0	1	5.5	5.568246364593506		5.0	5.0	0.0	1	5.0	5.227731227874756	the phone number for X-name is X-phone .	
inform(name=X-name,food=peruvian,area=X-area,kids_allowed=no)	5.0	5.0	0.14622498	0	5.0	4.800647258758545		5.0	5.0	0.0	1	4.5	4.702415466308594	X-name , in X-area serves peruvian food and does not allow children .	
inform(name=X-name,kids_allowed=yes,food=thai)	3.0	3.0	0.032371998	0	5.0	5.203967094421387		3.0	3.0	0.0	1	5.0	4.834469318389893	X-name allows kids and serves thai food .	
inform(name=X-name,type=placetoeat,eattype=restaurant,area=X-area,food=Chinese)	4.0	4.0	0.0	1	5.5	5.3559746742248535		3.0	3.0	0.0	1	5.5	5.350745677947998	X-name is a restaurant near the river in the riverside area .	
inform(name=X-name,price_range=moderate)	6.0	6.0	0.0	1	5.0	5.039781093597412		5.5	5.5	0.0	1	4.5	4.749389171600342	the X-name is a moderate hotel .	
inform(name=X-name,near=X-near,accepts_credit_cards=yes)	5.0	5.0	0.08382654	0	5.0	5.092491149902344		5.0	5.0	0.0	1	5.0	4.802213668823242	the X-name is near X-near and accepts credit cards .	
request(food)	4.0	4.0	0.0	1	5.5	5.544493675231934		3.0	3.0	0.0	1	5.5	5.509276866912842	what type of food would you like to eat ?	
inform(name=X-name,accepts_credit_cards=yes,near=X-near,has_internet=yes)	3.0	3.0	0.07945728	0	5.0	4.936483383178711		2.0	2.0	0.0	1	4.5	4.7263898849487305	X-name is located near X-near , they accept credit cards , and internet access .	
inform(name=X-name,address=X-address,phone=X-phone,postcode=X-postcode)	4.0	4.0	0.0	1	5.0	5.191171169281006		4.0	4.0	0.0	1	5.0	5.1207427978515625	the address of X-name is X-address and the phone number is X-phone and the postcode is X-postcode .	
inform(name=X-name,type=hotel)	3.0	3.0	0.0	1	5.0	5.164252758026123		3.0	3.0	0.0	1	5.0	4.847318172454834	the X-name is a nice hotel .	
inform(type=hotel,count=X-count,has_internet=dont_care)	5.0	5.0	0.0	1	5.0	5.138531684875488		5.0	5.0	0.0	1	5.0	4.947319984436035	there are X-count hotels if you do not care whether it has internet or not .	
inform(name=X-name,price_range=moderate)	4.0	4.0	0.0	1	5.0	4.84793758392334		4.0	4.0	0.0	1	4.5	4.548099517822266	X-name is in the moderate price range .	
inform(name=X-name,area=X-area,price_range=moderate)	5.0	5.0	0.0	1	5.0	5.116240978240967		4.0	4.0	0.0	1	5.0	4.959572792053223	X-name is a moderate restaurant in the X-area area .	
inform(name=X-name,area=X-area,price_range=moderate)	3.0	3.0	0.0	1	4.5	4.740171432495117		4.0	4.0	0.0	1	4.5	4.632502555847168	the X-name is in the X-area area and it is moderate .	
inform(name=X-name,type=placetoeat,eattype=restaurant,near=X-near,food=French)	2.0	2.0	0.0	1	5.0	5.154652118682861		2.0	2.0	0.0	1	5.0	4.7841362953186035	X-name is a french and restaurant near X-near .	
inform(name=X-name,price=X-price)	5.0	5.0	0.0017352104	0	5.0	5.164498805999756		4.0	4.0	0.0	1	5.0	4.796511173248291	the price of X-name is X-price .	
inform(name=X-name,food=afghan)	5.0	5.0	0.0	1	5.5	5.3013482093811035		5.0	5.0	0.0	1	5.0	5.111540794372559	there is a afghan restaurant called X-name .	
inform_no_match(good_for_meal=dinner,food=shanghainese)	6.0	6.0	0.0	1	5.0	4.803617000579834		6.0	6.0	0.0	1	4.5	4.656895637512207	unfortunately 0 restaurants serve shanghainese for dinner .	
inform(name=X-name,type=placetoeat,eattype=restaurant,area=X-area)	5.0	5.0	0.0	1	5.5	5.281172752380371		4.0	4.0	0.0	1	5.0	5.188072681427002	X-name is a restaurant in the X-area area .	
inform(name=X-name,address=X-address)	4.5	4.5	0.0	1	5.5	5.507302284240723		3.5	3.5	0.0	1	5.5	5.418537616729736	you may find the X-name at X-address .	
inform(name=X-name,has_internet=yes,accepts_credit_cards=yes,near=X-near)	6.0	6.0	0.0	1	5.0	5.100831985473633		6.0	6.0	0.0	1	5.0	4.778594493865967	X-name near X-near has internet and does accept credit cards .	
inform_only_match(name=X-name,near=X-near)	3.5	3.5	0.0	1	5.0	4.902503967285156		4.0	4.0	0.0	1	4.5	4.570423126220703	just X-name near X-near .	
inform(name=X-name,phone=X-phone)	6.0	6.0	0.0	1	5.5	5.568246364593506		6.0	6.0	0.0	1	5.0	5.227731227874756	the phone number for X-name is X-phone .	
inform(name=X-name,phone=X-phone)	5.0	5.0	0.0	1	5.5	5.568246364593506		4.0	4.0	0.0	1	5.0	5.227731227874756	the phone number for X-name is X-phone .	
inform(name=X-name,address=X-address,phone=X-phone)	6.0	6.0	0.0	1	5.5	5.374213218688965		6.0	6.0	0.0	1	5.0	5.085994720458984	X-name is located at X-address , and their phone number is X-phone .	
inform(name=X-name,area=X-area,price=X-price,phone=X-phone)	4.0	4.0	0.16721344	0	5.0	4.977067470550537		3.0	3.0	0.0	1	5.0	4.9053826332092285	X-name , is in the X-area area 's the price is X-price their phone number is X-phone .	
inform(name=X-name,area=X-area)	2.0	2.0	0.13487911	0	4.5	4.598324298858643		2.0	2.0	0.0	1	4.5	4.426163196563721	X-name , is in the are of X-area .	
inform_no_match(dogs_allowed=no,area=X-area)	3.0	3.0	0.0	1	5.0	4.771044731140137		4.0	4.0	0.0	1	4.5	4.502570629119873	no hotel in X-area that does not allow dogs .	
inform(name=X-name,has_internet=yes,near=X-near)	5.0	5.0	0.0	1	5.0	4.9671125411987305		5.0	5.0	0.0	1	4.5	4.560125350952148	X-name is near X-near and has internet .	
inform(name=X-name,area=X-area)	5.0	5.0	0.013312817	0	4.5	4.719890594482422		4.0	4.0	0.0	1	4.5	4.524414539337158	X-name is in the X-area area .	
inform(name=X-name,food=thai,kids_allowed=yes,area=X-area)	4.0	4.0	0.0	1	5.0	4.91552209854126		6.0	6.0	0.0	1	5.0	4.908867359161377	X-name is a nice restaurant that serves thai food , and allows children and is located in the X-area area .	
inform(name=X-name,area=X-area,phone=X-phone)	4.0	4.0	0.0	1	5.0	5.064374923706055		3.0	3.0	0.0	1	5.0	4.856895446777344	X-name is in X-area and the phone number is X-phone .	
inform(name=X-name,price_range=moderate)	6.0	6.0	0.0	1	5.0	4.84793758392334		6.0	6.0	0.0	1	4.5	4.548099517822266	X-name is in the moderate price range .	
inform(name=X-name,has_internet=yes)	3.5	3.5	0.0	1	5.5	5.478875637054443		5.0	5.0	0.0	1	5.0	4.9826812744140625	X-name has internet .	
inform(name=X-name,has_internet=yes)	3.0	3.0	0.0	1	5.5	5.478875637054443		2.0	2.0	0.0	1	5.0	4.9826812744140625	X-name has internet .	
inform(name=X-name,kids_allowed=no,address=X-address,phone=X-phone,postcode=X-postcode)	4.0	4.0	0.0	1	5.0	5.205615520477295		5.0	5.0	0.0	1	5.0	5.145319938659668	X-name does not allow children , its address is X-address , its phone number is X-phone , and its postcode is X-postcode .	
inform(name=X-name,kids_allowed=yes)	6.0	6.0	0.0	1	5.5	5.330411911010742		6.0	6.0	0.0	1	5.0	5.004082202911377	X-name allows children .	
inform(name=X-name,address=X-address)	4.0	4.0	0.0	1	5.5	5.509738445281982		3.0	3.0	0.0	1	5.5	5.251452922821045	the address for X-name is X-address .	
inform(name=X-name,good_for_meal=dinner,near=X-near)	6.0	6.0	0.0	1	5.0	5.012280464172363		5.5	5.5	0.0	1	5.0	4.818169116973877	X-name , is a nice restaurant near X-near , and is good for dinner .	
inform(name=X-name,type=placetoeat,eattype=restaurant,near=X-near,area=X-area,food=Chinese)	1.0	1.0	0.0	1	5.0	5.1040873527526855		4.0	4.0	0.0	1	5.0	5.115413188934326	X-name is a chinese restaurant near X-near and X-area in x near x .	
inform(name=X-name,near=X-near)	6.0	6.0	0.07418394	0	5.0	4.843205451965332		6.0	6.0	0.029006481	0	4.5	4.423274993896484	X-name , is near the X-near .	
inform(name=X-name,address=X-address)	6.0	6.0	0.0	1	5.5	5.507302284240723		6.0	6.0	0.0	1	5.5	5.418537616729736	you may find the X-name at X-address .	
inform(name=X-name,type=hotel)	3.0	3.0	0.35834455	0	5.0	4.771050930023193		4.0	4.0	0.06495333	0	4.5	4.529196262359619	the name is X-name and it is a nice hotel .	
inform(name=X-name,type=restaurant)	6.0	6.0	0.07745409	0	5.5	5.5847344398498535		5.0	5.0	0.0	1	5.0	5.234645843505859	X-name is a nice restaurant .	
inform(name=X-name,price_range=expensive)	4.0	4.0	0.0	1	5.0	5.026423931121826		3.0	3.0	0.0	1	4.5	4.695712089538574	X-name is in the expensive price range .	
inform(name=X-name,dogs_allowed=yes)	3.5	3.5	0.28169537	0	5.0	5.0002851486206055		3.5	3.5	0.0	1	5.0	4.794497013092041	thank you X-name allows dogs .	
inform_no_match(area=X-area)	6.0	6.0	0.0	1	5.0	5.224217891693115		5.0	5.0	0.0	1	5.0	5.05933141708374	there are no hotels near X-area .	
inform(name=X-name,area=X-area,price_range=expensive)	4.0	4.0	0.0	1	4.5	4.661182880401611		3.0	3.0	0.0	1	4.5	4.6342902183532715	X-name is in the area of X-area and it is in the expensive price range .	
inform_no_match(area=X-area)	4.5	4.5	0.0	1	5.5	5.7307844161987305		3.5	3.5	0.0	1	5.5	5.585428714752197	i am sorry i am not finding any hotels in the X-area area .	
inform(name=X-name,type=placetoeat,eattype=restaurant,pricerange=expensive,area=X-area,near=X-near,near=X-near)	6.0	6.0	0.0	1	5.0	5.081435680389404		6.0	6.0	0.0	1	5.0	5.027167797088623	X-name is an expensive restaurant in X-area near X-near and X-near .	
inform(name=X-name,type=placetoeat,near=X-near,area=X-area,eattype=restaurant)	5.5	5.5	0.0	1	5.5	5.388042449951172		5.0	5.0	0.0	1	5.5	5.275449275970459	X-name is a restaurant in the centre of town near X-near .	
inform(name=X-name,type=placetoeat,eattype=restaurant,near=X-near,pricerange=cheap)	3.0	3.0	0.06394577	0	5.0	5.0458173751831055		2.0	2.0	0.0	1	5.0	5.049440383911133	X-name is a cheap restaurant in the expensive price range near X-near .	
inform(name=X-name,area=X-area,dogs_allowed=yes)	3.0	3.0	0.024013042	0	5.0	4.985986232757568		3.0	3.0	0.0	1	4.5	4.716590881347656	the X-name is near X-area and allows dogs .	
inform(name=X-name,near=X-near)	6.0	6.0	0.060608864	0	5.0	4.856780529022217		6.0	6.0	0.061766148	0	4.5	4.390515327453613	X-name is near X-near .	
inform(name=X-name,type=placetoeat,eattype=restaurant,near=X-near,near=X-near,food=French)	5.0	5.0	0.0	1	5.0	5.149566650390625		6.0	6.0	0.0	1	5.0	4.776987552642822	X-name is a french restaurant near X-near .	
inform(name=X-name,type=placetoeat,eattype=restaurant,area=X-area,near=X-near,near=X-near)	5.0	5.0	0.0	1	5.0	4.972818374633789		5.0	5.0	0.0	1	5.0	5.016597270965576	X-name is a high - end restaurant located on the riverside close to X-near it is near X-near .	
inform(name=X-name,has_internet=yes,near=X-near)	4.0	4.0	0.0	1	5.0	5.084583282470703		5.0	5.0	0.0	1	4.5	4.729050159454346	the X-name , near the X-near does offer internet .	
inform(name=X-name,price_range=moderate)	4.0	4.0	0.0	1	5.0	4.84793758392334		5.0	5.0	0.0	1	4.5	4.548099517822266	X-name is in the moderate price range .	
inform(type=restaurant,count=X-count,food=japanese,price_range=expensive)	2.0	2.0	0.0	1	5.5	5.526969909667969		2.0	2.0	0.0	1	5.5	5.303837776184082	there are X-count expensively priced japanese restaurants .	
inform(name=X-name,type=hotel)	5.0	5.0	0.0	1	5.0	5.164252758026123		5.0	5.0	0.0	1	5.0	4.847318172454834	the X-name is a nice hotel .	
inform(name=X-name,type=placetoeat,eattype=restaurant,area=X-area,food='Chinese takeaway',food=Japanese)	4.0	4.0	0.111971855	0	5.5	5.308398246765137		5.0	5.0	0.0	1	5.5	5.258727550506592	X-name is a japanese restaurant in the city centre that offers chinese takeaway .	
inform(name=X-name,address=X-address,phone=X-phone)	3.0	3.0	0.0	1	5.5	5.399875640869141		3.0	3.0	0.0	1	5.0	5.1103339195251465	the address of X-name is X-address and the phone number is X-phone .	
inform(name=X-name,postcode=X-postcode)	5.5	5.5	0.0	1	5.5	5.443207263946533		6.0	6.0	0.0	1	5.0	5.103273868560791	the postcode of X-name is X-postcode .	
inform(name=X-name,phone=X-phone)	5.0	5.0	0.0	1	5.5	5.568246364593506		4.0	4.0	0.0	1	5.0	5.227731227874756	the phone number for X-name is X-phone .	
inform(name=X-name,phone=X-phone)	6.0	6.0	0.0	1	5.5	5.568246364593506		6.0	6.0	0.0	1	5.0	5.227731227874756	the phone number for X-name is X-phone .	
inform(name=X-name,has_internet=yes,area=X-area)	6.0	6.0	0.056494713	0	4.5	4.6413397789001465		6.0	6.0	0.0	1	4.5	4.444942951202393	X-name is near X-area has internet .	
inform(name=X-name,good_for_meal=lunch,kids_allowed=no)	4.0	4.0	0.20153189	0	5.0	5.099310398101807		4.0	4.0	0.0	1	5.0	5.001355171203613	X-name , is good for lunch , and no children are allowed .	
inform(name=X-name,type=placetoeat,eattype=restaurant,food=Chinese)	1.0	1.0	0.0	1	5.5	5.508996963500977		1.0	1.0	0.0	1	5.5	5.368002414703369	X-name is a chinese restaurant .	
inform(name=X-name,type=placetoeat,eattype=restaurant,near=X-near,food=Indian)	5.0	5.0	0.0	1	5.5	5.278944969177246		5.0	5.0	0.0	1	5.0	5.008944511413574	X-name is an indian restaurant near X-near .	
select(kids_allowed='yes or no')	4.0	4.0	0.0	1	5.5	5.697928428649902		4.0	4.0	0.0	1	6.0	5.807640552520752	are you looking for somewhere that kids are allowed ?	
inform_no_match(area=X-area)	3.5	3.5	0.0	1	5.5	5.7307844161987305		3.5	3.5	0.0	1	5.5	5.585428714752197	i am sorry i am not finding any hotels in the X-area area .	
inform(name=X-name,price_range=expensive,near=X-near,food=asian)	5.0	5.0	0.0	1	5.0	5.1074957847595215		5.0	5.0	0.0	1	5.0	4.908870697021484	X-name is a asian restaurant near X-near that is in the expensive price range .	
inform_only_match(name=X-name,kids_allowed=yes,price_range=expensive,food=vietnamese)	6.0	6.0	0.0	1	4.5	4.64658260345459		6.0	6.0	0.0	1	4.5	4.585279941558838	i have found only 1 place called X-name that serves vietnamese , is expensively price range and that allow kids .	
inform_only_match(name=X-name,accepts_credit_cards=yes,near=X-near,has_internet=yes)	3.0	3.0	0.0	1	5.0	4.953933238983154		1.0	1.0	0.0	1	5.0	4.764466285705566	X-name is the hotel near X-near has internet is a credit card .	
inform(name=X-name,area=X-area,accepts_credit_cards=yes)	4.0	4.0	0.5126276	0	4.5	4.663217067718506		4.0	4.0	0.12136698	0	4.5	4.548552513122559	repeats X-name , accepts credit cards , and in X-area .	
select(accepts_credit_cards='yes or no')	6.0	6.0	0.0	1	5.5	5.689151287078857		6.0	6.0	0.0	1	5.5	5.744133949279785	do you need a hotel that accepts credit cards ?	
inform(name=X-name,type=restaurant)	5.0	5.0	0.15435839	0	5.5	5.5078301429748535		5.0	5.0	0.0	1	5.5	5.321537017822266	the name of the restaurant is X-name .	
inform(name=X-name,food=chinese,near=X-near,good_for_meal=dinner,kids_allowed=yes)	4.0	4.0	0.3849697	0	4.5	4.678958415985107		5.0	5.0	0.020062923	0	4.5	4.391165256500244	X-name is near X-near and allows kids and serves chinese food and is good for dinner .	
inform(name=X-name,type=placetoeat,eattype=restaurant,area=X-area,food=Italian)	5.0	5.0	0.023931026	0	5.5	5.310288906097412		3.0	3.0	0.0	1	5.0	5.120263576507568	X-name is an italian restaurant in the riverside area which serves italian food .	
inform(name=X-name,type=placetoeat,eattype=restaurant,area=X-area,food=Italian,food='Takeaway pizza')	4.0	4.0	0.0	1	5.5	5.263106346130371		4.0	4.0	0.0	1	5.0	5.159738063812256	X-name is an italian restaurant in the riverside area that serves italian food .	
inform(name=X-name,has_internet=yes,area=X-area)	5.0	5.0	0.0	1	5.0	4.831254005432129		3.0	3.0	0.0	1	4.5	4.669729232788086	X-name in the X-area area has internet .	
inform(name=X-name,food=french,good_for_meal=lunch)	5.0	5.0	0.1384697	0	5.0	5.196863174438477		3.5	3.5	0.0	1	5.0	5.059310436248779	X-name , is a good restaurant that serves french food , especially for lunch .	
confirm(near=dont_care)	1.0	1.0	0.16621971	0	4.5	4.326696395874023		1.0	1.0	0.0	1	4.5	4.437850475311279	can you do not care about the near correct ?	
inform(name=X-name,food=lounge,good_for_meal=dinner)	4.5	4.5	0.060809135	0	5.0	4.93704891204834		3.5	3.5	0.0	1	5.0	4.8040642738342285	X-name , is a good restaurant that serves lounge food , especially for dinner .	
inform(type=hotel,count=X-count,price_range=moderate)	6.0	6.0	0.0	1	5.5	5.458169460296631		6.0	6.0	0.0	1	5.5	5.269858360290527	there are X-count hotels that are in the moderate price range .	
inform(name=X-name,good_for_meal='lunch or dinner')	5.0	5.0	0.13953638	0	5.5	5.378525733947754		6.0	6.0	0.0	1	5.0	5.231418132781982	X-name is a good restaurant for lunch or dinner .	
inform(name=X-name,type=placetoeat,eattype=restaurant,pricerange=cheap,area=X-area,food=Indian)	4.0	4.0	0.08585501	0	5.0	5.200759410858154		3.0	3.0	0.0	1	5.0	5.174704551696777	X-name is an indian restaurant in the cheap price range on the riverside .	
inform(name=X-name,area=X-area)	4.0	4.0	0.013312817	0	4.5	4.719890594482422		4.0	4.0	0.0	1	4.5	4.524414539337158	X-name is in the X-area area .	
inform(name=X-name,food=shanghainese)	6.0	6.0	0.0	1	5.5	5.37498140335083		5.0	5.0	0.0	1	5.0	5.052529811859131	X-name serves shanghainese food .	
inform(name=X-name,kids_allowed=no,near=X-near,good_for_meal=dinner)	3.0	3.0	0.28825665	0	4.5	4.572141170501709		6.0	6.0	0.056301117	0	4.5	4.328396320343018	X-name , is near X-near , does not allow kids for dinner .	
inform_no_match(area=X-area,dogs_allowed=yes)	5.0	5.0	0.0	1	5.5	5.597177028656006		5.0	5.0	0.0	1	5.5	5.365574359893799	i am sorry but there are no hotels near X-area that allow dogs .	
inform(name=X-name,food=spanish)	6.0	6.0	0.11712408	0	5.5	5.519489288330078		6.0	6.0	0.0	1	5.5	5.3166046142578125	there is a spanish restaurant called X-name .	
inform_no_match(near=X-near,price_range=expensive)	5.0	5.0	0.0	1	5.0	5.229753017425537		5.0	5.0	0.0	1	5.0	4.992176055908203	there are no expensively priced restaurants near X-near .	
inform(name=X-name,address=X-address,phone=X-phone)	5.5	5.5	0.0	1	5.5	5.374213218688965		5.0	5.0	0.0	1	5.0	5.085994720458984	X-name is located at X-address , and their phone number is X-phone .	
inform(name=X-name,has_internet=yes,near=X-near)	4.0	4.0	0.0	1	5.0	5.084583282470703		4.5	4.5	0.0	1	4.5	4.729050159454346	the X-name , near the X-near does offer internet .	
inform(name=X-name,phone=X-phone)	6.0	6.0	0.0	1	5.5	5.568246364593506		5.0	5.0	0.0	1	5.0	5.227731227874756	the phone number for X-name is X-phone .	
request(near)	5.0	5.0	0.0	1	5.0	4.966660499572754		6.0	6.0	0.0	1	5.0	5.01080322265625	where is it near ?	
inform(name=X-name,area=X-area,price_range=cheap,good_for_meal=dinner)	4.0	4.0	0.30420303	0	4.5	4.472397804260254		4.0	4.0	0.0	1	4.5	4.406135082244873	X-name is good for dinner , it is cheaply priced , and it is in X-area .	
inform(name=X-name,near=X-near,food=chinese)	5.0	5.0	0.06368637	0	5.0	4.93530797958374		5.0	5.0	0.0	1	4.5	4.531763553619385	X-name is near X-near and serves chinese food .	
inform(name=X-name,near=X-near,area=X-area,phone=X-phone)	1.0	1.0	0.25490236	0	4.5	4.57393741607666		1.0	1.0	0.018342018	0	4.5	4.4014811515808105	X-name , is near X-near , the , the , the , the , the , the , the , the , the , the , the , the , the , the and .	
inform(name=X-name,phone=X-phone)	6.0	6.0	0.0	1	5.5	5.568246364593506		6.0	6.0	0.0	1	5.0	5.227731227874756	the phone number for X-name is X-phone .	
inform(name=X-name,type=restaurant)	5.5	5.5	0.15435839	0	5.5	5.5078301429748535		4.5	4.5	0.0	1	5.5	5.321537017822266	the name of the restaurant is X-name .	
inform(name=X-name,price_range=expensive,good_for_meal=dinner)	3.0	3.0	0.028272152	0	5.0	4.81613826751709		2.5	2.5	0.0	1	4.5	4.5062971115112305	X-name , is a good dinner meal and is expensive .	
inform(name=X-name,has_internet=yes)	5.0	5.0	0.0	1	5.5	5.478875637054443		4.5	4.5	0.0	1	5.0	4.9826812744140625	X-name has internet .	
inform(name=X-name,has_internet=yes)	5.0	5.0	0.0	1	5.5	5.478875637054443		4.0	4.0	0.0	1	5.0	4.9826812744140625	X-name has internet .	
inform(name=X-name,near=X-near,phone=X-phone)	5.0	5.0	0.0	1	5.0	5.138726234436035		5.0	5.0	0.0	1	5.0	4.762071132659912	X-name is near X-near and the phone number is X-phone .	
inform(name=X-name,postcode=X-postcode)	6.0	6.0	0.0	1	5.5	5.4532036781311035		5.0	5.0	0.0	1	5.0	5.149956226348877	the postcode for X-name is X-postcode .	
inform(name=X-name,type=restaurant)	6.0	6.0	0.07745409	0	5.5	5.5847344398498535		5.0	5.0	0.0	1	5.0	5.234645843505859	X-name is a nice restaurant .	
inform(name=X-name,price_range=cheap)	4.0	4.0	0.052259922	0	5.0	4.809962749481201		5.0	5.0	0.0	1	4.5	4.428092956542969	X-name is in the cheap price range .	
inform(name=X-name,type=placetoeat,eattype=restaurant,food='Chinese takeaway',food=Japanese)	2.0	2.0	0.18989182	0	5.5	5.428083896636963		2.0	2.0	0.0	1	5.0	5.199055194854736	X-name is a japanese restaurant that provides chinese takeaway .	
inform(name=X-name,type=hotel)	5.0	5.0	0.0	1	5.0	5.164252758026123		5.0	5.0	0.0	1	5.0	4.847318172454834	the X-name is a nice hotel .	
inform(name=X-name,type=restaurant)	6.0	6.0	0.07745409	0	5.5	5.5847344398498535		5.0	5.0	0.0	1	5.0	5.234645843505859	X-name is a nice restaurant .	
inform(name=X-name,eattype=restaurant,addr=X-addr,phone=X-phone)	4.0	4.0	0.0	1	5.5	5.386354446411133		4.0	4.0	0.0	1	5.0	5.1748480796813965	X-name is a restaurant and its phone number is X-addr X-phone .	
inform_no_match(food='gluten free',price_range=cheap)	5.0	5.0	0.0	1	5.0	5.219997406005859		5.0	5.0	0.0	1	5.0	4.9546732902526855	i am sorry , i can not find any restaurants that serve gluten free food and are cheap .	
inform(name=X-name,address=X-address,postcode=X-postcode)	3.0	3.0	0.0	1	5.5	5.266090393066406		3.0	3.0	0.0	1	5.0	5.12558650970459	the address for the X-name is X-address and the postcode is X-postcode .	
inform(name=X-name,price_range=expensive,good_for_meal=lunch)	3.0	3.0	0.039680958	0	5.0	4.9832000732421875		2.0	2.0	0.0	1	5.0	4.821177005767822	X-name , is a good lunch meal and is expensive .	
inform(name=X-name,area=X-area,price_range=cheap)	5.0	5.0	0.15787888	0	4.5	4.538923740386963		5.0	5.0	0.0	1	4.5	4.32350492477417	X-name , is in the X-area area with a cheap price range .	
inform(name=X-name,price_range=moderate,food=basque,kids_allowed=no)	5.0	5.0	0.15428495	0	5.0	5.113125801086426		4.0	4.0	0.0	1	5.0	4.8856611251831055	X-name does not allow children and serves basque food in the moderate price range .	
inform(name=X-name,address=X-address,postcode=X-postcode)	5.0	5.0	0.0	1	5.5	5.409581661224365		5.0	5.0	0.0	1	5.0	5.145427703857422	the address for X-name is X-address , X-postcode .	
inform(name=X-name,type=placetoeat,eattype=restaurant,area=X-area,near=X-near,near=X-near,food=Fastfood)	6.0	6.0	0.0	1	5.0	5.091989517211914		6.0	6.0	0.0	1	5.0	4.957809925079346	X-name is a fast food restaurant near X-near and X-near .	
inform(name=X-name,address=X-address,phone=X-phone)	5.0	5.0	0.0	1	5.5	5.374213218688965		5.0	5.0	0.0	1	5.0	5.085994720458984	X-name is located at X-address , and their phone number is X-phone .	
inform(name=X-name,type=placetoeat,pricerange=cheap,area=X-area,near=X-near,eattype=restaurant)	6.0	6.0	0.0	1	5.5	5.3334879875183105		6.0	6.0	0.0	1	5.5	5.303538799285889	X-name is a restaurant in the centre of town near X-near .	
inform(name=X-name,type=hotel)	3.5	3.5	0.35834455	0	5.0	4.771050930023193		4.0	4.0	0.06495333	0	4.5	4.529196262359619	the name is X-name and it is a nice hotel .	
inform(name=X-name,price_range=cheap,food=taiwanese,good_for_meal=lunch)	5.0	5.0	0.18264389	0	5.0	4.990602016448975		4.0	4.0	0.0	1	4.5	4.7098774909973145	X-name serves cheap taiwanese food and is good for lunch .	
inform(name=X-name,phone=X-phone,postcode=X-postcode)	6.0	6.0	0.0	1	5.5	5.255784034729004		6.0	6.0	0.0	1	5.0	5.047149181365967	the phone number of X-name is X-phone and the postcode is X-postcode .	
inform(type=restaurant,count=X-count,kids_allowed=yes)	6.0	6.0	0.0	1	5.5	5.615230083465576		6.0	6.0	0.0	1	5.5	5.3467535972595215	there are X-count restaurants that allow children .	
inform(name=X-name,kids_allowed=yes)	6.0	6.0	0.0	1	5.5	5.330411911010742		6.0	6.0	0.0	1	5.0	5.004082202911377	X-name allows children .	
inform(name=X-name,type=placetoeat,eattype=restaurant,area=X-area,area=X-area,near=X-near,food=Chinese)	3.0	3.0	0.0	1	5.0	5.075758934020996		3.5	3.5	0.0	1	5.0	5.231169700622559	X-name is a chinese food restaurant , is located in the city centre and near on riverside areas near X-near .	
inform(name=X-name,type=placetoeat,eattype=restaurant,area=X-area,near=X-near,near=X-near,food=Fastfood)	5.0	5.0	0.0	1	5.0	5.117534637451172		4.0	4.0	0.0	1	5.0	5.05940580368042	X-name is a fastfood restaurant at the riverside area near X-near and X-near .	
inform(name=X-name,food=creperies,good_for_meal=dinner)	5.0	5.0	0.13469696	0	5.0	5.000509738922119		5.0	5.0	0.0	1	5.0	4.8927412033081055	X-name , is a good restaurant that serves creperies food , especially for dinner .	
inform(name=X-name,price_range=expensive,food=vietnamese)	5.5	5.5	0.0	1	5.5	5.386226654052734		5.0	5.0	0.0	1	5.0	4.948159217834473	X-name serves vietnamese food at a expensive price range .	
inform(name=X-name,price=X-price)	6.0	6.0	0.0017352104	0	5.0	5.164498805999756		6.0	6.0	0.0	1	5.0	4.796511173248291	the price of X-name is X-price .	
inform(name=X-name,type=placetoeat,eattype=restaurant,near=X-near,area=X-area,food=Continental,food=French)	6.0	6.0	0.0	1	5.0	5.073171615600586		6.0	6.0	0.0	1	5.0	4.934066295623779	X-name is a restaurant in X-near providing french and continental food near X-area .	
inform(name=X-name,address=X-address,price=X-price)	6.0	6.0	0.045823574	0	5.0	5.057292938232422		4.0	4.0	0.0	1	5.0	4.866615295410156	the address of X-name is X-address , and the price is X-price .	
inform(name=X-name,type=placetoeat,pricerange=expensive,area=X-area,eattype=restaurant)	5.0	5.0	0.0	1	5.5	5.511507511138916		4.0	4.0	0.0	1	5.5	5.342761993408203	X-name is a restaurant in the riverside area .	
inform(name=X-name,type=placetoeat,eattype=restaurant,area=X-area,food=French)	6.0	6.0	0.0	1	5.5	5.292369365692139		6.0	6.0	0.0	1	5.0	5.043267726898193	X-name is a french restaurant in the riverside area .	
inform(name=X-name,type=hotel)	6.0	6.0	0.0	1	5.0	5.164252758026123		5.0	5.0	0.0	1	5.0	4.847318172454834	the X-name is a nice hotel .	
inform(name=X-name,area=X-area,dogs_allowed=none)	6.0	6.0	0.0	1	5.0	4.78943395614624		6.0	6.0	0.0	1	4.5	4.571569919586182	the X-name allows dogs and is in X-area .	
inform(name=X-name,price_range=inexpensive)	4.0	4.0	0.0	1	5.0	5.117732048034668		4.5	4.5	0.0	1	5.0	4.8181281089782715	the X-name is a inexpensive hotel .	
inform_no_match(area=X-area)	5.5	5.5	0.0	1	5.5	5.7307844161987305		5.0	5.0	0.0	1	5.5	5.585428714752197	i am sorry i am not finding any hotels in the X-area area .	
inform(name=X-name,price_range=cheap)	5.5	5.5	0.25222445	0	4.5	4.6099982261657715		4.5	4.5	0.12968493	0	4.0	4.1135125160217285	X-name , is cheap .	
inform_no_match(near=X-near,price_range=pricey)	5.0	5.0	0.0	1	5.0	4.853842258453369		5.0	5.0	0.0	1	4.5	4.529962062835693	there is no pricey hotel near the X-near .	
inform(name=X-name,address=X-address)	6.0	6.0	0.0	1	5.5	5.507302284240723		6.0	6.0	0.0	1	5.5	5.418537616729736	you may find the X-name at X-address .	
inform(name=X-name,price_range=moderate,phone=X-phone)	6.0	6.0	0.0	1	5.5	5.3120245933532715		5.0	5.0	0.0	1	5.0	5.024685382843018	X-name has a moderate price range , and the phone number is X-phone .	
inform(name=X-name,type=placetoeat,eattype=restaurant,area=X-area,food=Italian)	4.0	4.0	0.0	1	5.5	5.346043109893799		5.0	5.0	0.0	1	5.0	5.153285980224609	X-name is an italian restaurant in the X-area area .	
inform_no_match(price_range=expensive,area=X-area)	4.0	4.0	0.0	1	5.0	4.91257381439209		5.0	5.0	0.0	1	5.0	4.822881698608398	zero restaurants in the X-area area in the expensive price range .	
inform(name=X-name,food=arabian)	5.5	5.5	0.0	1	5.0	5.2409348487854		5.0	5.0	0.0	1	5.0	4.965538024902344	there is a arabian restaurant called X-name .	
inform(name=X-name,type=hotel)	4.0	4.0	0.35834455	0	5.0	4.771050930023193		3.0	3.0	0.06495333	0	4.5	4.529196262359619	the name is X-name and it is a nice hotel .	
inform(name=X-name,food='comfort food',good_for_meal=dinner,near=X-near)	3.0	3.0	0.0	1	5.0	5.180466651916504		3.0	3.0	0.0	1	5.0	5.034951686859131	X-name is a comfort food restaurant good for dinner near X-near .	
inform(name=X-name,area=X-area,eattype=restaurant,food=Fastfood,pricerange=cheap)	5.0	5.0	0.14925146	0	5.0	5.151321887969971		5.0	5.0	0.0	1	5.0	5.117766857147217	X-name is a reasonably priced fast food restaurant down by river cheap .	
inform(name=X-name,price_range=expensive)	6.0	6.0	0.0	1	5.0	4.970885753631592		5.0	5.0	0.008917332	0	4.5	4.477731227874756	X-name , is expensive .	
inform(name=X-name,area=X-area,dogs_allowed=none)	6.0	6.0	0.0	1	5.0	4.78943395614624		6.0	6.0	0.0	1	4.5	4.571569919586182	the X-name allows dogs and is in X-area .	
inform(name=X-name,type=placetoeat,eattype=restaurant,area=X-area,near=X-near,food=French)	6.0	6.0	0.0	1	5.0	5.154219627380371		5.0	5.0	0.0	1	5.0	4.9551262855529785	X-name is a french restaurant in the riverside near X-near .	
inform(name=X-name,type=placetoeat,eattype=restaurant,area=X-area,area=X-area,food=Indian)	4.0	4.0	0.0	1	5.5	5.345781326293945		4.0	4.0	0.0	1	5.0	5.1630859375	X-name is an indian restaurant in X-area .	
inform(name=X-name,address=X-address,phone=X-phone)	6.0	6.0	0.0	1	5.5	5.374213218688965		5.5	5.5	0.0	1	5.0	5.085994720458984	X-name is located at X-address , and their phone number is X-phone .	
inform(name=X-name,area=X-area)	6.0	6.0	0.017442226	0	4.5	4.715761184692383		5.0	5.0	0.0	1	4.5	4.593565940856934	the X-name is located in the X-area area .	
inform(type=restaurant,count=X-count,good_for_meal=dinner,price_range=expensive)	6.0	6.0	0.0	1	5.0	5.20225715637207		6.0	6.0	0.0	1	5.0	5.115634918212891	there are X-count expensively priced restaurants which do a good dinner service .	
inform_no_match(good_for_meal=dinner,food=shanghainese)	1.0	1.0	0.0	1	5.0	4.9708170890808105		2.0	2.0	0.0	1	5.0	4.975773334503174	there are 0 restaurants that are good for dinner and serve shanghainese food .	
inform(name=X-name,food=brazilian,good_for_meal=dinner)	3.0	3.0	0.07797241	0	5.0	5.003727436065674		4.0	4.0	0.0	1	4.5	4.564555644989014	X-name serves brazilian and is good for dinner .	
inform(name=X-name,kids_allowed=no)	6.0	6.0	0.15675402	0	5.5	5.288259983062744		5.0	5.0	0.0	1	5.0	5.195459842681885	X-name is a nice restaurant that does not allow children .	
inform(name=X-name,kids_allowed=no)	4.5	4.5	0.0	1	5.5	5.745206356048584		4.5	4.5	0.0	1	5.5	5.621227741241455	there are no children allowed at X-name .	
inform(name=X-name,type=placetoeat,eattype=restaurant,area=X-area,food='Cafe food',food=English)	5.0	5.0	0.0	1	5.5	5.282674789428711		4.0	4.0	0.0	1	5.0	5.147861003875732	X-name is an english cafe food restaurant in the city centre .	
inform(name=X-name,food=Chinese,eattype=restaurant,area=X-area)	4.5	4.5	0.0	1	5.0	5.156312465667725		4.5	4.5	0.0	1	5.0	5.125907897949219	X-name is a chinese food restaurant down by the river .	
inform(name=X-name,has_internet=yes,area=X-area)	3.0	3.0	0.056494713	0	4.5	4.6413397789001465		2.5	2.5	0.0	1	4.5	4.444942951202393	X-name is near X-area has internet .	
inform(name=X-name,price_range=cheap,near=X-near)	6.0	6.0	0.0	1	5.0	5.011902809143066		5.5	5.5	0.0	1	4.5	4.5630202293396	X-name near X-near offers cheap food .	
inform(name=X-name,eattype=coffeeshop,eattype=restaurant)	3.0	3.0	0.0	1	5.5	5.663404941558838		3.0	3.0	0.0	1	5.5	5.304530620574951	X-name is a restaurant recommend .	
inform(name=X-name,price_range=moderate,kids_allowed=no)	3.0	3.0	0.0	1	5.0	5.167210102081299		3.0	3.0	0.0	1	5.0	5.012304782867432	X-name is an moderate restaurant that does not allow children .	
inform(name=X-name,type=restaurant)	5.5	5.5	0.15435839	0	5.5	5.5078301429748535		5.5	5.5	0.0	1	5.5	5.321537017822266	the name of the restaurant is X-name .	
inform(name=X-name,food='dim sum',address=X-address,phone=X-phone)	5.0	5.0	0.0	1	5.5	5.332432270050049		5.0	5.0	0.0	1	5.0	5.132462501525879	X-name serves dim sum food , the address is X-address , and the phone number is X-phone .	
inform(name=X-name,good_for_meal=brunch)	5.0	5.0	0.0	1	5.5	5.355937480926514		5.0	5.0	0.0	1	5.0	5.243890285491943	X-name is a good restaurant for brunch .	
select(price_range='expensive or cheap')	6.0	6.0	0.0	1	5.5	5.252299785614014		5.0	5.0	0.0	1	5.0	5.210134983062744	would you like to find a expensive or cheap restaurant ?	
inform_no_match(kids_allowed=yes,food=lounge)	3.0	3.0	0.0	1	5.0	5.081569194793701		2.0	2.0	0.0	1	5.0	4.886814117431641	there are 0 restaurants that allow kids , and serve lounge .	
inform_no_match(area=X-area)	4.0	4.0	0.0	1	5.5	5.7307844161987305		5.0	5.0	0.0	1	5.5	5.585428714752197	i am sorry i am not finding any hotels in the X-area area .	
inform_no_match(near=X-near,good_for_meal=lunch,kids_allowed=no)	4.0	4.0	0.0	1	5.0	5.23390007019043		2.0	2.0	0.0	1	5.0	5.075852394104004	i am sorry i did not find any restaurants near X-near , and good for lunch with kids not allowed .	
inform(name=X-name,kids_allowed=yes)	5.0	5.0	0.0	1	5.5	5.330411911010742		5.5	5.5	0.0	1	5.0	5.004082202911377	X-name allows children .	
inform(name=X-name,phone=X-phone)	6.0	6.0	0.0	1	5.5	5.568246364593506		4.0	4.0	0.0	1	5.0	5.227731227874756	the phone number for X-name is X-phone .	
inform(type=restaurant,count=X-count,food=korean,kids_allowed=yes,price_range=dont_care)	5.0	5.0	0.0	1	5.0	5.212591648101807		5.0	5.0	0.0	1	5.0	4.967190265655518	there are X-count korean restaurants at various price ranges and allow kids .	
inform_no_match(food=steak,price_range=cheap)	1.5	1.5	0.0	1	5.0	4.932516574859619		1.5	1.5	0.0	1	4.5	4.457576751708984	unfortunately 0 restaurants serve steak are cheap .	
inform(name=X-name,near=X-near)	6.0	6.0	0.07418394	0	5.0	4.843205451965332		5.0	5.0	0.029006481	0	4.5	4.423274993896484	X-name , is near the X-near .	
inform(name=X-name,area=X-area,kids_allowed=no,good_for_meal=dinner)	6.0	6.0	0.087082386	0	5.0	4.831324100494385		6.0	6.0	0.0	1	5.0	4.80818510055542	X-name is a good restaurant for dinner in the X-area and does not allow kids .	
inform(name=X-name,price_range=cheap)	4.0	4.0	0.052259922	0	5.0	4.809962749481201		4.0	4.0	0.0	1	4.5	4.428092956542969	X-name is in the cheap price range .	
inform(name=X-name,kids_allowed=no,price_range=moderate,near=X-near)	3.0	3.0	0.0	1	5.0	5.020268440246582		3.0	3.0	0.0	1	5.0	4.908519268035889	X-name is an moderate restaurant that does not allow kids and is near X-near .	
inform(name=X-name,type=restaurant)	5.0	5.0	0.07745409	0	5.5	5.5847344398498535		5.0	5.0	0.0	1	5.0	5.234645843505859	X-name is a nice restaurant .	
inform(name=X-name,near=X-near)	4.0	4.0	0.7986083	0	4.0	4.118781089782715		2.5	2.5	0.672045	0	4.0	3.7802364826202393	he X-name is located near X-near .	
inform(name=X-name,price_range=cheap,near=X-near)	3.0	3.0	0.0	1	5.0	5.157656669616699		3.0	3.0	0.0	1	5.0	4.795003890991211	X-name is a cheap restaurant near X-near .	
inform(name=X-name,address=X-address)	5.5	5.5	0.0	1	5.5	5.483950614929199		6.0	6.0	0.0	1	5.5	5.271986484527588	X-name 's address is 925 cortland ave .	
inform(name=X-name,good_for_meal='lunch or dinner')	4.5	4.5	0.36067533	0	5.0	5.157386779785156		4.0	4.0	0.0	1	5.0	4.964592933654785	X-name , is good for lunch or dinner .	
inform(name=X-name,address=X-address,phone=X-phone)	6.0	6.0	0.0	1	5.5	5.470166206359863		6.0	6.0	0.0	1	5.0	5.244892597198486	X-name 's address is X-address , and its phone number is X-phone .	
inform(name=X-name,type=placetoeat,eattype=restaurant,food='Cafe food',food=English)	1.0	1.0	0.0	1	5.0	5.236765384674072		1.0	1.0	0.0	1	5.0	5.167567253112793	X-name is a restaurant that serves italian serving fashionable and it english cafe food .	
inform_no_match(area=X-area)	5.0	5.0	0.0	1	5.5	5.280191898345947		5.0	5.0	0.0	1	5.0	5.044291019439697	there are no restaurants in the X-area area .	
inform(name=X-name,price=X-price,phone=X-phone)	6.0	6.0	0.0	1	5.5	5.439462184906006		5.5	5.5	0.0	1	5.0	5.232071876525879	X-name 's prices range X-price their phone number is X-phone .	
inform(name=X-name,area=X-area,good_for_meal=dinner)	3.0	3.0	0.16236591	0	4.5	4.65817403793335		3.0	3.0	0.0	1	4.5	4.49151611328125	X-name is in X-area and is a good place for dinner .	
inform(name=X-name,type=placetoeat,eattype=restaurant,area=X-area)	5.0	5.0	0.0	1	5.0	5.249582290649414		5.5	5.5	0.0	1	5.0	5.086998462677002	X-name is a restaurant in X-area .	
inform(name=X-name,type=placetoeat,eattype=restaurant,near=X-near,near=X-near,food='Chinese takeaway',food=Japanese)	6.0	6.0	0.09970617	0	5.5	5.26209831237793		6.0	6.0	0.0	1	5.0	5.178572177886963	X-name is a japanese restaurant near X-near and X-near .	
inform(name=X-name,address=X-address)	5.0	5.0	0.0	1	5.5	5.5588603019714355		5.0	5.0	0.0	1	5.5	5.361140251159668	X-name 's address is X-address .	
inform(name=X-name,type=placetoeat,near=X-near,eattype=restaurant)	6.0	6.0	0.0	1	5.5	5.4378485679626465		6.0	6.0	0.0	1	5.0	5.131773948669434	X-name is a restaurant near X-near .	
inform(name=X-name,type=placetoeat,near=X-near,eattype=restaurant)	4.5	4.5	0.0	1	5.5	5.4378485679626465		4.5	4.5	0.0	1	5.0	5.131773948669434	X-name is a restaurant near X-near .	
inform(name=X-name,type=restaurant)	6.0	6.0	0.07745409	0	5.5	5.5847344398498535		6.0	6.0	0.0	1	5.0	5.234645843505859	X-name is a nice restaurant .	
inform(name=X-name,price_range=moderate,food=persian)	3.0	3.0	0.0	1	5.0	5.199459075927734		3.0	3.0	0.0	1	5.0	5.025247097015381	X-name is a moderate persian restaurant .	
inform(name=X-name,area=X-area)	2.0	2.0	0.13487911	0	4.5	4.598324298858643		2.0	2.0	0.0	1	4.5	4.426163196563721	X-name , is in the are of X-area .	
inform(name=X-name,type=placetoeat,eattype=restaurant,area=X-area,area=X-area,near=X-near)	5.0	5.0	0.0	1	5.5	5.2995758056640625		5.0	5.0	0.0	1	5.0	5.205646514892578	X-name is a restaurant in the riverside near X-area .	
inform_only_match(name=X-name,kids_allowed=no,food=french,good_for_meal=lunch)	4.0	4.0	0.0	1	5.0	5.16075325012207		4.0	4.0	0.0	1	5.0	4.987880706787109	no place except X-name serves french food good for lunch , and does not allow kids .	
inform(name=X-name,type=placetoeat,eattype=restaurant,area=X-area,pricerange=moderate)	6.0	6.0	0.0	1	5.5	5.436193466186523		6.0	6.0	0.0	1	5.5	5.4439167976379395	X-name is a restaurant in the X-area area .	
confirm(has_internet=yes)	5.0	5.0	0.0	1	5.5	5.250769138336182		5.0	5.0	0.0	1	5.0	5.087725639343262	i would like to confirm that you are looking for a hotel with internet ?	
confirm(has_internet=yes)	6.0	6.0	0.0	1	5.5	5.250769138336182		6.0	6.0	0.0	1	5.0	5.087725639343262	i would like to confirm that you are looking for a hotel with internet ?	
inform(name=X-name,type=placetoeat,near=X-near,pricerange=expensive,eattype=restaurant)	5.0	5.0	0.12219477	0	5.5	5.332199573516846		5.0	5.0	0.0	1	5.5	5.261773586273193	X-name is a restaurant near X-near in the expensive price range .	
inform_no_match(area=X-area)	6.0	6.0	0.0	1	5.5	5.6833176612854		5.0	5.0	0.0	1	5.5	5.541797161102295	i am sorry but there are no hotels in the area of X-area .	
inform(name=X-name,price_range=expensive,food=japanese)	4.0	4.0	0.0	1	5.5	5.348066329956055		3.5	3.5	0.0	1	5.0	4.977405548095703	X-name serves japanese food at a expensive price range .	
inform(name=X-name,type=placetoeat,pricerange=expensive,near=X-near,eattype=restaurant)	5.0	5.0	0.0	1	5.5	5.291727542877197		5.0	5.0	0.0	1	5.0	5.2203497886657715	X-name is a restaurant near X-near in the expensive price range .	
inform(name=X-name,price_range=cheap,phone=X-phone)	6.0	6.0	0.0	1	5.0	5.215545177459717		6.0	6.0	0.0	1	5.0	4.822068691253662	X-name has cheap prices and the phone number is X-phone .	
inform(name=X-name,price_range=cheap)	4.0	4.0	0.052259922	0	5.0	4.809962749481201		4.0	4.0	0.0	1	4.5	4.428092956542969	X-name is in the cheap price range .	
inform(type=restaurant,count=X-count,good_for_meal=brunch)	6.0	6.0	0.0	1	6.0	5.806987285614014		6.0	6.0	0.0	1	5.5	5.401955604553223	there are X-count restaurants which serve brunch .	
inform(name=X-name,area=X-area)	3.0	3.0	0.13487911	0	4.5	4.598324298858643		2.0	2.0	0.0	1	4.5	4.426163196563721	X-name , is in the are of X-area .	
inform(type=restaurant,count=X-count,food=basque,kids_allowed=no,price_range=moderate)	4.0	4.0	0.0	1	5.5	5.306956768035889		4.0	4.0	0.0	1	5.0	5.108436584472656	there are X-count basque restaurant do not allow kids in the moderate price range .	
inform(name=X-name,has_internet=yes)	6.0	6.0	0.0	1	5.5	5.478875637054443		6.0	6.0	0.0	1	5.0	4.9826812744140625	X-name has internet .	
inform(name=X-name,has_internet=yes)	6.0	6.0	0.0	1	5.5	5.478875637054443		6.0	6.0	0.0	1	5.0	4.9826812744140625	X-name has internet .	
inform(name=X-name,food=thai,near=X-near)	6.0	6.0	0.0	1	5.0	5.015977382659912		5.0	5.0	0.0	1	4.5	4.606949329376221	X-name is near X-near and serves thai food .	
inform(name=X-name,food=thai,kids_allowed=yes,area=X-area)	6.0	6.0	0.06343317	0	4.5	4.663602352142334		6.0	6.0	0.0	1	4.5	4.557429313659668	i would recommend X-name it is in the X-area , serves thai food , and allows kids .	
inform(name=X-name,near=X-near)	6.0	6.0	0.060608864	0	5.0	4.856780529022217		4.0	4.0	0.061766148	0	4.5	4.390515327453613	X-name is near X-near .	
inform(name=X-name,price_range=pricey,area=X-area)	4.0	4.0	0.0	1	5.0	4.896459579467773		4.0	4.0	0.0	1	5.0	4.759610652923584	X-name has a pricey price range in the area of X-area .	
inform(name=X-name,good_for_meal=dinner)	4.0	4.0	0.0	1	5.0	5.131732940673828		4.0	4.0	0.0	1	5.0	4.809016227722168	X-name is a good restaurant for dinner .	
inform(name=none,near=X-near,area=X-area)	6.0	6.0	0.0	1	5.0	4.958893775939941		3.0	3.0	0.0	1	5.0	4.8893818855285645	i am sorry there is X-name information on the riverside , near X-near .	
inform(name=X-name,area=X-area,kids_allowed=no)	5.0	5.0	0.3068986	0	4.5	4.64720344543457		5.0	5.0	0.0	1	4.5	4.604658603668213	X-name , is in the area of X-area and it does not allow children .	
inform(name=X-name,eattype=restaurant,near=X-near)	5.0	5.0	0.0	1	5.5	5.344915866851807		6.0	6.0	0.0	1	5.0	4.967525482177734	X-name is a restaurant near X-near .	
inform(name=X-name,eattype=restaurant,near=X-near)	6.0	6.0	0.0	1	5.5	5.344915866851807		6.0	6.0	0.0	1	5.0	4.967525482177734	X-name is a restaurant near X-near .	
inform(name=X-name,area=X-area,address=X-address,phone=X-phone)	3.0	3.0	0.0	1	5.0	5.198790073394775		4.0	4.0	0.0	1	5.0	5.113764762878418	the area of X-name is X-address , is located in the X-area heights area . their phone number is X-phone .	
inform(name=X-name,price_range=moderate,near=X-near,good_for_meal=dinner)	4.0	4.0	0.37503672	0	4.5	4.428796768188477		3.0	3.0	0.00038528442	0	4.5	4.307521820068359	X-name is near X-near and is in the moderate range and is good for dinner .	
inform(name=X-name,address=X-address,phone=X-phone)	3.0	3.0	0.0	1	5.5	5.399875640869141		3.0	3.0	0.0	1	5.0	5.1103339195251465	the address of X-name is X-address and the phone number is X-phone .	
inform(type=hotel,count=X-count,has_internet=yes,dogs_allowed=dont_care)	4.0	4.0	0.0	1	5.5	5.287168502807617		4.0	4.0	0.0	1	5.0	5.072961330413818	there are X-count hotels available internet and does have internet or not .	
inform(name=X-name,food=none,address=X-address)	5.0	5.0	0.14284897	0	5.0	5.142011642456055		5.0	5.0	0.0	1	5.0	5.143320560455322	the address of X-name is X-address . i do not know the type of food .	
inform(name=X-name,type=placetoeat,eattype=restaurant,area=X-area,food='Chinese takeaway',food=Takeaway)	5.0	5.0	0.06413841	0	5.0	5.16739559173584		5.0	5.0	0.0	1	5.0	5.205487251281738	X-name is a chinese restaurant in the riverside area that serves food including chinese takeaway .	
inform(name=X-name,type=placetoeat,eattype=restaurant,food='Chinese takeaway',food=Takeaway)	6.0	6.0	0.0	1	5.5	5.394001483917236		6.0	6.0	0.0	1	5.0	5.165441513061523	X-name is a chinese takeaway restaurant .	
select(near=X-near)	1.0	1.0	0.15043783	0	5.0	4.890488147735596		2.0	2.0	0.0	1	5.0	5.101096153259277	where do you want it to be near to , X-near japantown ?	
inform(name=X-name,eattype=restaurant)	6.0	6.0	0.0	1	5.5	5.6462907791137695		3.0	3.0	0.0	1	5.5	5.291453838348389	X-name is a restaurant .	
inform(name=X-name,eattype=restaurant)	5.0	5.0	0.0	1	5.5	5.6462907791137695		6.0	6.0	0.0	1	5.5	5.291453838348389	X-name is a restaurant .	
inform(name=X-name,has_internet=yes,price_range=inexpensive,dogs_allowed=no)	6.0	6.0	0.004784584	0	5.0	5.098663806915283		6.0	6.0	0.0	1	5.0	4.941889762878418	X-name is also inexpensive , has internet and does not allow dogs .	
inform(name=X-name,food=peruvian,good_for_meal=dinner)	3.0	3.0	0.11285114	0	5.0	4.939047813415527		3.0	3.0	0.0	1	4.5	4.664778232574463	X-name serves peruvian and is good for dinner .	
inform(name=X-name,postcode=X-postcode)	3.5	3.5	0.0	1	5.5	5.3662638664245605		4.0	4.0	0.0	1	5.0	4.9729390144348145	X-name postcode is X-postcode .	
inform(name=X-name,has_internet=yes,near=X-near)	5.5	5.5	0.0	1	5.0	5.084583282470703		5.0	5.0	0.0	1	4.5	4.729050159454346	the X-name , near the X-near does offer internet .	
inform(name=X-name,food=shanghainese)	4.0	4.0	0.0	1	5.5	5.3514723777771		4.5	4.5	0.0	1	5.0	5.096647262573242	there is a shanghainese restaurant called X-name .	
select(dogs_allowed='yes or no')	6.0	6.0	0.0	1	5.5	5.5685343742370605		6.0	6.0	0.0	1	5.5	5.540827751159668	would you like to know if dogs are allowed ?	
inform(name=X-name,type=placetoeat,eattype=restaurant,near=X-near,near=X-near,food=French)	6.0	6.0	0.0	1	5.0	5.10628080368042		5.0	5.0	0.0	1	5.0	4.7987380027771	X-name is a french food restaurant near X-near and X-near .	
inform(name=X-name,food=spanish)	6.0	6.0	0.110449314	0	5.5	5.5261640548706055		5.0	5.0	0.0	1	5.0	5.238102912902832	X-name serves spanish food .	
inform(name=X-name,phone=X-phone)	6.0	6.0	0.0	1	5.5	5.568246364593506		6.0	6.0	0.0	1	5.0	5.227731227874756	the phone number for X-name is X-phone .	
inform_no_match(near=X-near,area=X-area)	5.0	5.0	0.0	1	5.0	4.878098964691162		4.0	4.0	0.0	1	4.5	4.627594470977783	there are no restaurants near X-near in X-area .	
inform(name=X-name,address=X-address)	5.0	5.0	0.05772829	0	5.5	5.348402500152588		6.0	6.0	0.0	1	5.0	5.16876745223999	the address of X-name is 2424 van ness ave .	
inform(name=X-name,type=placetoeat,eattype=restaurant,area=X-area,area=X-area,near=X-near,near=X-near)	4.0	4.0	0.0	1	5.0	5.151340961456299		4.0	4.0	0.0	1	5.0	5.164233684539795	X-name is a restaurant by the riverside in the centre of the city near X-near .	
inform(name=X-name,phone=X-phone,postcode=X-postcode)	6.0	6.0	0.0	1	5.5	5.292549133300781		5.0	5.0	0.0	1	5.0	5.089526176452637	the phone number for X-name is X-phone and the postcode is X-postcode .	
inform(name=X-name,price_range=pricey,area=X-area)	5.0	5.0	0.10242796	0	4.5	4.5361714363098145		5.0	5.0	0.0	1	4.5	4.3709917068481445	the X-name is in X-area and is pricey .	
inform_no_match(area=X-area)	6.0	6.0	0.0	1	5.5	5.6975202560424805		5.0	5.0	0.0	1	5.5	5.543246746063232	i am sorry but there are no hotels in the X-area area .	
inform(name=X-name,area=X-area,price_range='ultra high end')	4.0	4.0	0.0019807816	0	5.0	4.808177947998047		4.0	4.0	0.0	1	5.0	4.775866508483887	the X-name is in the X-area area and it is ultra high end .	
inform(name=X-name,address=X-address)	6.0	6.0	0.0	1	5.5	5.509738445281982		6.0	6.0	0.0	1	5.5	5.251452922821045	the address for X-name is X-address .	
inform(type=restaurant,count=X-count,food='new american',kids_allowed=yes,price_range=moderate)	3.0	3.0	0.0	1	5.0	5.031960964202881		3.0	3.0	0.0	1	5.0	4.923693656921387	there are X-count new american restaurants in the moderate price range and does allow children .	
inform_no_match(price_range=pricey,accepts_credit_cards=no)	5.0	5.0	0.0	1	5.5	5.4303669929504395		2.0	2.0	0.0	1	5.0	5.183794975280762	there are no pricey hotels that do not accept credit cards .	
inform(name=X-name,type=placetoeat,eattype=restaurant,pricerange=expensive,area=X-area,near=X-near)	4.0	4.0	0.0	1	5.0	5.072955131530762		5.0	5.0	0.0	1	5.0	5.184473991394043	X-name is a restaurant in the expensive price range in the X-area area near X-near .	
inform(name=X-name,address=X-address)	5.0	5.0	0.0	1	5.5	5.509738445281982		5.0	5.0	0.0	1	5.5	5.251452922821045	the address for X-name is X-address .	
inform(name=X-name,postcode=X-postcode)	6.0	6.0	0.0	1	5.5	5.4532036781311035		5.0	5.0	0.0	1	5.0	5.149956226348877	the postcode for X-name is X-postcode .	
inform(name=X-name,price_range=cheap)	6.0	6.0	0.052259922	0	5.0	4.809962749481201		5.0	5.0	0.0	1	4.5	4.428092956542969	X-name is in the cheap price range .	
inform(name=X-name,kids_allowed=no)	6.0	6.0	0.0	1	5.5	5.745206356048584		6.0	6.0	0.0	1	5.5	5.621227741241455	there are no children allowed at X-name .	
inform(name=X-name,type=placetoeat,eattype=restaurant,pricerange=moderate,area=X-area)	5.0	5.0	0.0	1	5.0	5.240094184875488		5.0	5.0	0.0	1	5.5	5.282655715942383	X-name is a moderately priced restaurant in the X-area area .	
inform(name=X-name,address=X-address)	5.5	5.5	0.0	1	5.5	5.5588603019714355		6.0	6.0	0.0	1	5.5	5.361140251159668	X-name 's address is X-address .	
inform(name=X-name,phone=X-phone)	5.5	5.5	0.0	1	5.5	5.462837219238281		6.0	6.0	0.0	1	5.5	5.333493709564209	you may reach the X-name at X-phone .	
inform(name=X-name,type=placetoeat,eattype=restaurant,near=X-near,area=X-area)	5.5	5.5	0.0	1	5.0	5.155786991119385		5.5	5.5	0.0	1	5.0	5.050955295562744	X-name is a restaurant on the riverside , near X-near .	
inform_no_match(area=X-area)	3.0	3.0	0.0	1	5.0	5.059560775756836		4.0	4.0	0.0	1	5.0	4.876782417297363	there is no match for a hotel in the X-area area .	
inform(name=X-name,area=X-area,food=cantonese)	5.0	5.0	0.12771463	0	5.0	4.766262531280518		3.0	3.0	0.0	1	4.5	4.608251094818115	X-name , is in X-area serves cantonese food .	
inform(name=X-name,type=placetoeat,pricerange=expensive,near=X-near,near=X-near,area=X-area,eattype=restaurant)	4.5	4.5	0.089313984	0	5.0	4.86002779006958		4.5	4.5	0.0	1	5.0	5.015281677246094	X-name is a high - end restaurant located in X-near near X-near , X-area and they are on the expensive pricerange .	
inform(name=X-name,phone=X-phone)	6.0	6.0	0.0	1	5.5	5.568246364593506		6.0	6.0	0.0	1	5.0	5.227731227874756	the phone number for X-name is X-phone .	
inform(name=X-name,phone=X-phone)	6.0	6.0	0.0	1	5.5	5.568246364593506		5.0	5.0	0.0	1	5.0	5.227731227874756	the phone number for X-name is X-phone .	
inform(name=X-name,address=X-address,phone=X-phone)	6.0	6.0	0.0	1	5.5	5.399875640869141		5.0	5.0	0.0	1	5.0	5.1103339195251465	the address of X-name is X-address and the phone number is X-phone .	
inform(name=X-name,food=creperies)	4.0	4.0	0.031569958	0	5.5	5.329909324645996		4.0	4.0	0.0	1	5.0	5.110812664031982	X-name serves creperies food .	
inform(name=X-name,type=placetoeat,near=X-near,pricerange=moderate,area=X-area,eattype=restaurant)	3.0	3.0	0.0	1	5.5	5.365555286407471		4.0	4.0	0.0	1	5.5	5.296914100646973	X-name is a restaurant near X-near in the moderate price range on the riverside .	
inform(name=X-name,phone=X-phone)	4.0	4.0	0.0	1	5.5	5.568246364593506		4.0	4.0	0.0	1	5.0	5.227731227874756	the phone number for X-name is X-phone .	
inform(name=X-name,phone=X-phone,postcode=X-postcode)	4.0	4.0	0.0	1	5.0	5.176009654998779		4.5	4.5	0.0	1	5.0	4.910909175872803	X-name , phone number is X-phone , and the postcode is X-postcode .	
inform(name=X-name,good_for_meal=dinner,food=brasseries)	3.0	3.0	0.024217606	0	5.0	5.113461494445801		4.0	4.0	0.0	1	5.0	4.751437664031982	X-name serves brasseries and is good for dinner .	
inform(name=X-name,phone=X-phone,postcode=X-postcode)	6.0	6.0	0.0	1	5.5	5.292549133300781		3.0	3.0	0.0	1	5.0	5.089526176452637	the phone number for X-name is X-phone and the postcode is X-postcode .	
inform(name=X-name,food=mexican,kids_allowed=yes)	5.0	5.0	0.095422745	0	5.0	5.143337726593018		5.0	5.0	0.0	1	5.0	4.762917995452881	X-name allows kids and serves mexican food .	
inform(name=X-name,type=restaurant)	6.0	6.0	0.07745409	0	5.5	5.5847344398498535		5.0	5.0	0.0	1	5.0	5.234645843505859	X-name is a nice restaurant .	
inform(name=X-name,address=X-address)	6.0	6.0	0.0	1	5.5	5.5588603019714355		6.0	6.0	0.0	1	5.5	5.361140251159668	X-name 's address is X-address .	
inform_no_match(price_range=pricey,dogs_allowed=no)	4.0	4.0	0.0	1	5.5	5.276863098144531		4.0	4.0	0.0	1	5.0	5.117699146270752	no match for pricey hotels that do not allow dogs .	
inform(name=X-name,good_for_meal='lunch or dinner')	5.0	5.0	0.36067533	0	5.0	5.157386779785156		3.5	3.5	0.0	1	5.0	4.964592933654785	X-name , is good for lunch or dinner .	
inform(name=X-name,price_range=moderate)	6.0	6.0	0.0	1	5.0	4.96025276184082		5.0	5.0	0.0	1	4.5	4.730724811553955	the X-name is in the moderate price range .	
