mr	naturalness_human_rating	naturalness_human_rating_raw	naturalness_rank_loss	naturalness_rank_ok	naturalness_system_rating	naturalness_system_rating_raw	orig_ref	quality_human_rating	quality_human_rating_raw	quality_rank_loss	quality_rank_ok	quality_system_rating	quality_system_rating_raw	system_output	system_output2
inform(name=X-name,type=hotel)	4.0	4.0	0.0	1	3.0	3.29461407661438		5.0	5.0	0.0	1	3.0	3.159707546234131	the name is X-name and it is a nice hotel .	
inform(name=X-name,kids_allowed=yes,good_for_meal=dinner,area=X-area)	5.0	5.0	0.0	1	5.0	4.7633585929870605		5.0	5.0	0.0	1	5.0	4.538375377655029	X-name is a nice restaurant in the X-area areas , allows kids , and is good for dinner .	
inform(name=X-name,kids_allowed=no)	2.0	2.0	0.0	1	5.0	4.9965996742248535		4.0	4.0	0.0	1	5.0	4.591657638549805	X-name is a nice restaurant that does not allow children .	
inform(name=X-name,area=X-area,dogs_allowed=no)	6.0	6.0	0.0	1	5.0	5.330317974090576		6.0	6.0	0.0	1	5.0	4.942002296447754	X-name is in X-area and does not allow dogs .	
inform(name=X-name,type=placetoeat,area=X-area,near=X-near,near=X-near,eattype=restaurant)	2.0	2.0	0.0	1	4.0	4.283479690551758		3.0	3.0	0.0	1	4.0	4.23023796081543	X-name is a restaurant in X-area on and to X-near .	
inform(name=X-name,accepts_credit_cards=yes)	5.0	5.0	0.0	1	4.0	4.3806610107421875		5.0	5.0	0.0	1	4.0	4.104742050170898	X-name accepts credit cards .	
inform(name=X-name,accepts_credit_cards=yes)	5.0	5.0	0.0	1	4.0	4.3806610107421875		5.0	5.0	0.0	1	4.0	4.104742050170898	X-name accepts credit cards .	
inform(name=X-name,area=X-area,dogs_allowed=yes)	3.0	3.0	0.0	1	5.0	4.688785076141357		2.0	2.0	0.0	1	5.0	4.513850688934326	the X-name is near X-area and allows dogs .	
inform(type=restaurant,count=X-count,kids_allowed=dont_care,good_for_meal=dont_care)	1.0	1.0	0.0	1	3.0	3.2895662784576416		1.0	1.0	0.0	1	3.0	3.1361875534057617	there are X-count restaurant if you do not care the price meal and various the food do not care whether the kids are allowed .	
inform(name=X-name,address=X-address,postcode=X-postcode)	5.0	5.0	0.0	1	6.0	6.0		4.0	4.0	0.0	1	6.0	5.797125339508057	the address of the X-name is X-address , X-postcode .	
inform_no_match(area=X-area)	6.0	6.0	0.0	1	5.0	5.0413737297058105		5.0	5.0	0.0	1	5.0	4.68095588684082	there are no restaurants in the X-area area .	
inform(name=X-name,postcode=X-postcode)	4.0	4.0	0.0	1	5.0	5.457610130310059		4.0	4.0	0.0	1	5.0	5.086413383483887	the postcode for X-name is X-postcode .	
inform(name=X-name,type=placetoeat,eattype=restaurant,pricerange=cheap,area=X-area,food=Fastfood)	6.0	6.0	0.0	1	4.0	3.826131582260132		6.0	6.0	0.0	1	4.0	3.5516269207000732	X-name is a cheap fast food restaurant near the river .	
inform(name=X-name,price=X-price,phone=X-phone)	4.0	4.0	0.0	1	4.0	4.171352863311768		4.0	4.0	0.0	1	4.0	4.067505359649658	the name of the restaurant is X-name . the price is X-price . their phone number is X-phone .	
inform(name=X-name,type=hotel)	3.0	3.0	0.0	1	5.0	5.181740760803223		2.0	2.0	0.0	1	5.0	4.887684345245361	the X-name is a nice hotel .	
inform(name=X-name,food=lounge,good_for_meal=dinner)	1.0	1.0	0.0	1	3.0	2.771310329437256		1.0	1.0	0.0	1	3.0	2.5583131313323975	X-name serves lounge and is good for dinner .	
inform(name=X-name,food=chinese,near=X-near,good_for_meal=dinner,kids_allowed=yes)	4.0	4.0	0.0	1	5.0	4.9582037925720215		5.0	5.0	0.0	1	5.0	4.754697322845459	X-name , is near X-near , it serves chinese food for dinner , and allows kids .	
inform(name=X-name,area=X-area,food=Chinese,eattype=restaurant)	3.0	3.0	0.0	1	3.0	3.135870933532715		3.0	3.0	0.0	1	3.0	3.0848746299743652	X-name is a chinese restaurant near the river and i serve food .	
inform(name=none,area=X-area,near=X-near)	3.0	3.0	0.0	1	5.0	4.965213298797607		3.0	3.0	0.0	1	5.0	4.681187629699707	i 'm X-name venues in the X-area area near X-near .	
inform(name=X-name,price_range=expensive,food=vietnamese)	4.0	4.0	0.0	1	5.0	4.689218521118164		4.0	4.0	0.0	1	4.0	4.475512504577637	X-name is a nice restaurant that serves vietnamese food in the expensive price range .	
inform(name=X-name,area=X-area,phone=X-phone)	5.0	5.0	0.0	1	5.0	4.9525837898254395		4.0	4.0	0.0	1	5.0	4.661166191101074	the phone number for X-name is X-phone and it is located in the X-area heights area .	
inform(name=X-name,type=placetoeat,near=X-near,area=X-area,eattype=restaurant)	5.0	5.0	0.0	1	5.0	4.538595676422119		5.0	5.0	0.0	1	4.0	4.328567981719971	X-name is a high - end restaurant located in riverside near X-near .	
inform(name=X-name,type=placetoeat,eattype=restaurant,near=X-near,area=X-area,food=Italian)	5.0	5.0	0.0	1	5.0	4.952245712280273		5.0	5.0	0.0	1	5.0	4.67454719543457	X-name is an italian restaurant in the riverside area near X-near .	
inform(name=X-name,address=X-address,phone=X-phone)	5.0	5.0	0.0	1	6.0	5.737064361572266		4.0	4.0	0.0	1	5.0	5.438192844390869	the address of X-name is X-address and the phone number is X-phone .	
inform(name=X-name,price_range=moderate,food='gluten free')	4.0	4.0	0.0	1	4.0	4.148532390594482		4.0	4.0	0.0	1	4.0	3.794647216796875	X-name is a moderate gluten free restaurant .	
inform_no_match(area=X-area)	6.0	6.0	0.0	1	4.0	4.389866352081299		5.0	5.0	0.0	1	4.0	4.0344438552856445	there are no hotels near X-area .	
inform(name=X-name,type=placetoeat,eattype=restaurant,area=X-area,near=X-near,near=X-near)	6.0	6.0	0.0	1	5.0	5.011531829833984		6.0	6.0	0.0	1	5.0	4.903332233428955	X-name is a restaurant in the city centre near X-near and X-near .	
request(food)	6.0	6.0	0.0	1	5.0	4.682825088500977		6.0	6.0	0.0	1	5.0	4.524693012237549	what type of food are you looking for ?	
inform(name=X-name,accepts_credit_cards=yes,area=X-area)	5.0	5.0	0.0	1	3.0	2.6391594409942627		5.0	5.0	0.0	1	3.0	2.5304737091064453	well there is a hotel in the area of X-area called X-name and they accept credit cards .	
inform(name=X-name,kids_allowed=no,good_for_meal=breakfast)	4.0	4.0	0.0	1	5.0	4.51905632019043		5.0	5.0	0.0	1	4.0	4.313036918640137	X-name does not allow kids and is good for breakfast .	
inform(name=X-name,area=X-area)	3.0	3.0	0.0	1	3.0	2.831237554550171		4.0	4.0	0.0	1	3.0	2.6677582263946533	there is a hotel called in the X-name and in the area of X-area .	
inform(name=X-name,address=X-address)	5.0	5.0	0.0	1	5.0	5.426418781280518		5.0	5.0	0.0	1	5.0	5.134660720825195	the address for X-name is X-address .	
inform(name=X-name,type=placetoeat,eattype=restaurant,food=Chinese)	3.0	3.0	0.0	1	3.0	2.968116044998169		3.0	3.0	0.0	1	3.0	2.9742343425750732	me i suggest X-name , chinese restaurant .	
inform_only_match(name=X-name,area=X-area)	4.0	4.0	0.0	1	3.0	3.0673067569732666		4.0	4.0	0.0	1	3.0	3.0160491466522217	the only match i have for you is the X-name in the X-area area .	
inform_no_match(area=X-area)	5.0	5.0	0.0	1	5.0	5.214570045471191		5.0	5.0	0.0	1	5.0	4.82533597946167	i am sorry but there are no hotels in the X-area area .	
inform(name=X-name,price_range=moderate)	6.0	6.0	0.0	1	5.0	4.876069068908691		4.0	4.0	0.0	1	5.0	4.509603977203369	X-name is in the moderate price range .	
inform(name=X-name,area=X-area)	4.0	4.0	0.0	1	4.0	4.282561302185059		4.0	4.0	0.0	1	4.0	3.8310956954956055	X-name is located in the X-area area .	
inform(name=X-name,type=placetoeat,eattype=restaurant,pricerange=expensive,area=X-area,near=X-near)	6.0	6.0	0.0	1	5.0	5.127213001251221		6.0	6.0	0.0	1	5.0	4.89543342590332	X-name is an expensive restaurant in the X-area area near X-near .	
inform(name=X-name,area=X-area,phone=X-phone)	6.0	6.0	0.0	1	5.0	5.465244770050049		6.0	6.0	0.0	1	5.0	5.108538627624512	X-name is in the area of X-area hill , its phone number is X-phone .	
inform(name=X-name,address=X-address,phone=X-phone)	6.0	6.0	0.0	1	6.0	5.800821304321289		3.0	3.0	0.0	1	5.0	5.468519687652588	X-name is located at X-address and the phone number is X-phone .	
inform(name=X-name,food=arabian,good_for_meal=dinner)	4.0	4.0	0.0	1	4.0	4.0315842628479		4.0	4.0	0.0	1	4.0	3.767956495285034	X-name , is a good restaurant that serves arabian food , especially for dinner .	
inform(name=X-name,phone=X-phone)	5.0	5.0	0.0	1	6.0	5.8973069190979		6.0	6.0	0.0	1	5.0	5.499774932861328	the phone number for X-name is X-phone .	
inform_no_match(dogs_allowed=yes,area=X-area)	6.0	6.0	0.0	1	4.0	3.902054786682129		4.0	4.0	0.0	1	4.0	3.6726861000061035	i am sorry but there are no hotels near X-area that allow dogs .	
inform(name=X-name,area=X-area,price_range=moderate)	3.0	3.0	0.0	1	4.0	4.272331714630127		4.0	4.0	0.0	1	4.0	4.001817226409912	X-name has a moderate price range in the area of X-area .	
inform(name=X-name,area=X-area)	3.0	3.0	0.0	1	5.0	5.054844856262207		4.0	4.0	0.0	1	5.0	4.706775188446045	the X-name is in the X-area area .	
inform(name=X-name,near=X-near,price_range=moderate)	4.0	4.0	0.0	1	5.0	4.912774085998535		5.0	5.0	0.0	1	5.0	4.598841190338135	X-name is a moderate restaurant near X-near .	
inform(name=X-name,area=X-area,address=X-address,phone=X-phone)	6.0	6.0	0.0	1	5.0	5.4803147315979		5.0	5.0	0.0	1	5.0	5.185385704040527	X-name has 2 locations in X-area , the address is X-address , and the phone number is X-phone .	
inform_no_match(area=X-area)	3.0	3.0	0.0	1	5.0	5.214570045471191		4.0	4.0	0.0	1	5.0	4.82533597946167	i am sorry but there are no hotels in the X-area area .	
inform(name=X-name,area=X-area,kids_allowed=no)	5.0	5.0	0.0	1	5.0	5.023556232452393		3.0	3.0	0.0	1	5.0	4.611422061920166	X-name is in the area of X-area and it does not allow children .	
inform(name=X-name,type=placetoeat,eattype=restaurant,area=X-area,near=X-near,food=Chinese)	6.0	6.0	0.0	1	5.0	4.597538471221924		6.0	6.0	0.0	1	5.0	4.567627429962158	X-name is a restaurant in X-area near X-near and x .	
inform_only_match(name=X-name,near=X-near)	3.0	3.0	0.0	1	4.0	3.71940541267395		4.0	4.0	0.0	1	4.0	3.5674214363098145	just X-name near X-near .	
inform(name=X-name,type=placetoeat,eattype=restaurant,area=X-area,pricerange=cheap,near=X-near,near=X-near)	5.0	5.0	0.0	1	5.0	4.760838985443115		6.0	6.0	0.0	1	5.0	4.6986260414123535	X-name is a restaurant in the centre of town near X-near .	
inform(name=X-name,area=X-area,address=X-address,phone=X-phone)	4.0	4.0	0.0	1	5.0	5.408733367919922		3.0	3.0	0.0	1	5.0	5.157036304473877	X-name is in X-area south at the address is X-address , and the phone number is X-phone .	
inform_no_match(area=X-area,dogs_allowed=yes)	6.0	6.0	0.0	1	4.0	4.479973793029785		4.0	4.0	0.0	1	4.0	4.340775012969971	i am sorry but there are no hotels near X-area that allow dogs .	
inform(name=X-name,area=X-area,address=X-address)	5.0	5.0	0.0	1	4.0	4.200429916381836		5.0	5.0	0.0	1	4.0	4.1301727294921875	X-name is in the X-area hill area and the address is X-address .	
inform(name=X-name,area=X-area)	3.0	3.0	0.0	1	3.0	2.831237554550171		2.0	2.0	0.0	1	3.0	2.6677582263946533	there is a hotel called in the X-name and in the area of X-area .	
inform(name=X-name,type=placetoeat,eattype=restaurant,pricerange=moderate,area=X-area,food=Indian,food='Indian takeaway')	5.0	5.0	0.06918764	0	2.0	2.0780060291290283		5.0	5.0	0.09182429	0	2.0	2.208360195159912	X-name is an indian restaurant in the moderate price range that offers indian takeaway and riverside .	
inform(type=hotel,count=X-count,area=dont_care)	6.0	6.0	0.0	1	5.0	4.773597717285156		6.0	6.0	0.0	1	5.0	4.507108211517334	there are X-count hotels available if its locations does not matter .	
inform(name=X-name,has_internet=yes,accepts_credit_cards=yes)	6.0	6.0	0.0	1	5.0	4.8303141593933105		5.0	5.0	0.0	1	5.0	4.544407367706299	X-name has internet and accepts credit cards .	
inform(name=X-name,price_range=moderate,kids_allowed=no,food=tapas)	4.0	4.0	0.0	1	5.0	4.727380752563477		4.0	4.0	0.0	1	4.0	4.486186504364014	the restaurant i recommend is X-name , it serves tapas moderately priced and does not allow children .	
confirm(area=dont_care)	4.0	4.0	0.0	1	2.0	2.359184980392456		6.0	6.0	0.16945505	0	2.0	2.2854392528533936	you do not care about the area ?	
inform_no_match(near=X-near,dogs_allowed=yes)	4.0	4.0	0.0	1	3.0	3.48865008354187		5.0	5.0	0.0	1	4.0	3.5395750999450684	i am sorry there is no match near X-near that allows dogs .	
inform(name=X-name,near=X-near,kids_allowed=yes,price_range=moderate,food='new american')	5.0	5.0	0.0	1	4.0	4.263251304626465		5.0	5.0	0.0	1	4.0	4.047290802001953	X-name is a moderate new american near X-near and allows children .	
inform(name=X-name,price_range=cheap,food=vegetarian)	5.0	5.0	0.0	1	4.0	4.2673234939575195		2.0	2.0	0.0	1	4.0	3.9538445472717285	X-name is a cheap vegetarian restaurant .	
inform(name=X-name,good_for_meal=dinner,near=X-near,price_range=cheap)	2.0	2.0	0.0	1	3.0	3.236431121826172		1.0	1.0	0.0	1	3.0	3.0321457386016846	X-name , is near X-near , the is good for dinner , and it is in the cheap price range .	
inform(name=X-name,type=placetoeat,near=X-near,pricerange=expensive,eattype=restaurant)	6.0	6.0	0.0	1	5.0	4.961893558502197		6.0	6.0	0.0	1	5.0	4.823502540588379	X-name is an expensive restaurant near X-near .	
inform(name=X-name,price_range=expensive)	6.0	6.0	0.0	1	5.0	4.666851997375488		6.0	6.0	0.0	1	4.0	4.3348612785339355	X-name is in the expensive price range .	
inform(name=X-name,type=placetoeat,eattype=restaurant,area=X-area,near=X-near,food=Contemporary,food=English)	6.0	6.0	0.0	1	5.0	5.212375164031982		5.0	5.0	0.0	1	5.0	4.968964576721191	X-name is an english restaurant in X-area .	
inform(name=X-name,phone=X-phone)	6.0	6.0	0.0	1	6.0	5.8973069190979		5.0	5.0	0.0	1	5.0	5.499774932861328	the phone number for X-name is X-phone .	
inform(name=X-name,kids_allowed=yes)	5.0	5.0	0.0	1	5.0	5.121910095214844		6.0	6.0	0.0	1	5.0	4.81651496887207	X-name allows children .	
inform(name=X-name,area=X-area,phone=X-phone)	3.0	3.0	0.0	1	5.0	5.465244770050049		3.0	3.0	0.0	1	5.0	5.108538627624512	X-name is in the area of X-area hill , its phone number is X-phone .	
inform(name=X-name,kids_allowed=yes,good_for_meal=dinner)	5.0	5.0	0.0	1	4.0	3.5881078243255615		4.0	4.0	0.0	1	3.0	3.3503201007843018	X-name allows kids , and is good for dinner .	
inform(name=X-name,type=placetoeat,eattype=restaurant,pricerange=moderate,area=X-area,food=Indian)	6.0	6.0	0.0	1	5.0	5.262706756591797		6.0	6.0	0.0	1	5.0	5.112735271453857	X-name is a moderately priced indian restaurant located in the X-area area .	
inform(name=X-name,has_internet=yes)	6.0	6.0	0.0	1	5.0	4.852818965911865		5.0	5.0	0.0	1	4.0	4.426893711090088	X-name has internet .	
inform(name=X-name,type=restaurant)	6.0	6.0	0.0	1	5.0	5.15414571762085		6.0	6.0	0.0	1	5.0	4.837474822998047	X-name is a nice restaurant .	
inform(name=none,area=X-area,near=X-near)	5.0	5.0	0.0	1	5.0	4.996698379516602		6.0	6.0	0.0	1	5.0	4.673629283905029	i am sorry but there is X-name information about a venue in X-area near X-near .	
inform(name=X-name,price_range=moderate)	4.0	4.0	0.0	1	4.0	3.7109944820404053		5.0	5.0	0.0	1	3.0	3.465938091278076	the X-name is a moderate hotel .	
inform(name=X-name,type=placetoeat,eattype=restaurant,near=X-near,area=X-area,food=Indian)	4.0	4.0	0.0	1	4.0	4.477692604064941		3.0	3.0	0.0	1	4.0	4.345694541931152	X-name is an indian restaurant in the riverside near X-near .	
inform(name=X-name,type=placetoeat,eattype=restaurant,pricerange=expensive,near=X-near,near=X-near)	3.0	3.0	0.0	1	4.0	4.261638164520264		4.0	4.0	0.0	1	4.0	4.22974967956543	X-name is an expensive restaurant in the expensive price range .	
inform_no_match(area=X-area)	5.0	5.0	0.0	1	4.0	4.444097518920898		6.0	6.0	0.0	1	4.0	4.194279193878174	i am sorry i am not finding any hotels in the X-area area .	
inform(type=hotel,count=X-count,price_range=dont_care)	5.0	5.0	0.0	1	6.0	5.524186611175537		4.0	4.0	0.0	1	5.0	5.187053203582764	there are X-count hotels if you do not care the price range .	
confirm(area=X-area)	4.0	4.0	0.0	1	4.0	4.264740943908691		4.0	4.0	0.0	1	4.0	4.1222147941589355	you would like to search X-area ?	
inform_no_match(area=X-area,dogs_allowed=yes)	5.0	5.0	0.0	1	3.0	3.044828414916992		5.0	5.0	0.0	1	3.0	3.0246801376342773	i am sorry but there are no hotels in the X-area area that match those requirements allows dogs .	
inform(name=X-name,area=X-area,address=X-address)	5.0	5.0	0.44247937	0	2.0	2.342158079147339		6.0	6.0	0.6241429	0	2.0	2.2575602531433105	X-name , is located in X-area its address is 925 cortland ave .	
inform(name=X-name,food=indian)	6.0	6.0	0.0	1	5.0	5.023744106292725		6.0	6.0	0.0	1	5.0	4.750923156738281	X-name serves indian food .	
inform(name=X-name,price_range=moderate,phone=X-phone)	4.0	4.0	0.0	1	6.0	5.530795574188232		5.0	5.0	0.0	1	5.0	5.247833728790283	X-name is in the moderate price range and the phone number is X-phone .	
inform(name=X-name,type=placetoeat,area=X-area,eattype=restaurant,pricerange=moderate)	6.0	6.0	0.0	1	5.0	5.230468273162842		5.0	5.0	0.0	1	5.0	5.0296831130981445	X-name is a moderately priced indian restaurant in X-area .	
inform_no_match(good_for_meal=lunch,food=afghan)	4.0	4.0	0.0	1	4.0	3.5691990852355957		5.0	5.0	0.0	1	3.0	3.495762348175049	unfortunately 0 restaurants serve afghan for lunch .	
confirm(near=X-near)	4.0	4.0	0.0	1	5.0	5.072882175445557		2.0	2.0	0.0	1	5.0	4.907136917114258	can i confirm you want X-near with internet connection ?	
inform_only_match(name=X-name,near=X-near,kids_allowed=yes,price_range=moderate)	5.0	5.0	0.0	1	3.0	2.976539373397827		5.0	5.0	0.0	1	3.0	2.9908947944641113	just X-name near X-near that allow kids , and are moderately priced .	
inform(name=X-name,dogs_allowed=yes)	6.0	6.0	0.0	1	5.0	5.011561393737793		5.0	5.0	0.0	1	5.0	4.741703510284424	the X-name allows dogs .	
inform(name=X-name,food=asian)	6.0	6.0	0.0	1	5.0	5.432705879211426		5.0	5.0	0.0	1	5.0	5.070478439331055	X-name serves asian food .	
inform(name=X-name,type=placetoeat,eattype=restaurant,near=X-near,area=X-area,area=X-area)	4.0	4.0	0.0	1	4.0	3.877661943435669		4.0	4.0	0.0	1	4.0	3.7250590324401855	X-name is a restaurant in the centre of town and riverside area near X-near .	
inform(name=X-name,address=X-address,phone=X-phone)	3.0	3.0	0.0	1	6.0	5.737064361572266		3.0	3.0	0.0	1	5.0	5.438192844390869	the address of X-name is X-address and the phone number is X-phone .	
inform(name=X-name,food=persian,good_for_meal=dinner)	6.0	6.0	0.0	1	4.0	4.045204162597656		5.0	5.0	0.0	1	4.0	3.820674180984497	X-name , is a good restaurant that serves persian food , especially for dinner .	
inform(name=X-name,price_range=moderate)	3.0	3.0	0.0	1	5.0	4.876069068908691		3.0	3.0	0.0	1	5.0	4.509603977203369	X-name is in the moderate price range .	
inform(name=X-name,kids_allowed=yes)	3.0	3.0	0.0	1	5.0	5.121910095214844		4.0	4.0	0.0	1	5.0	4.81651496887207	X-name allows children .	
inform(name=X-name,area=X-area)	5.0	5.0	0.0	1	5.0	5.054844856262207		4.0	4.0	0.0	1	5.0	4.706775188446045	the X-name is in the X-area area .	
inform(name=X-name,type=restaurant)	6.0	6.0	0.0	1	5.0	5.15414571762085		4.0	4.0	0.0	1	5.0	4.837474822998047	X-name is a nice restaurant .	
inform_only_match(name=X-name,near=X-near)	4.0	4.0	0.0	1	4.0	4.368370056152344		5.0	5.0	0.0	1	4.0	4.194326400756836	X-name is the only restaurant listed near X-near .	
inform(name=X-name,area=X-area)	3.0	3.0	0.0	1	3.0	2.9046621322631836		4.0	4.0	0.0	1	3.0	2.7190377712249756	there is a hotel called in X-name and in the area of X-area .	
inform(name=X-name,type=placetoeat,eattype=restaurant,pricerange=expensive,area=X-area)	6.0	6.0	0.0	1	5.0	4.986130714416504		6.0	6.0	0.0	1	5.0	4.743474960327148	X-name is an expensive restaurant in the X-area area .	
inform(type=hotel,count=X-count,near=X-near)	6.0	6.0	0.0	1	6.0	5.88625955581665		5.0	5.0	0.0	1	6.0	5.627523422241211	there are X-count hotels near X-near .	
inform(name=X-name,type=restaurant)	5.0	5.0	0.0	1	5.0	5.15414571762085		5.0	5.0	0.0	1	5.0	4.837474822998047	X-name is a nice restaurant .	
inform_no_match(area=X-area)	5.0	5.0	0.0	1	5.0	5.214570045471191		4.0	4.0	0.0	1	5.0	4.82533597946167	i am sorry but there are no hotels in the X-area area .	
inform_no_match(area=X-area)	5.0	5.0	0.0	1	4.0	4.444097518920898		5.0	5.0	0.0	1	4.0	4.194279193878174	i am sorry i am not finding any hotels in the X-area area .	
inform_no_match(area=X-area,near=X-near)	6.0	6.0	0.0	1	4.0	3.7845606803894043		6.0	6.0	0.0	1	4.0	3.7331366539001465	there is no match for a hotel in the X-area area near the X-near .	
inform_no_match(area=X-area)	5.0	5.0	0.0	1	4.0	4.444097518920898		5.0	5.0	0.0	1	4.0	4.194279193878174	i am sorry i am not finding any hotels in the X-area area .	
inform(name=X-name,type=restaurant)	6.0	6.0	0.0	1	5.0	5.15414571762085		6.0	6.0	0.0	1	5.0	4.837474822998047	X-name is a nice restaurant .	
inform(name=X-name,type=placetoeat,pricerange=expensive,area=X-area,eattype=restaurant)	5.0	5.0	0.0	1	4.0	3.9329121112823486		5.0	5.0	0.0	1	4.0	3.7653720378875732	X-name is an expensive restaurant , in the riverside area .	
inform(name=X-name,price_range=cheap,near=X-near)	6.0	6.0	0.0	1	5.0	4.683148384094238		5.0	5.0	0.0	1	4.0	4.373137474060059	X-name near X-near offers cheap food .	
inform(name=X-name,area=X-area)	2.0	2.0	0.0	1	2.0	2.441599130630493		1.0	1.0	0.115621805	0	2.0	2.1203019618988037	X-name , is in the are of X-area .	
inform(name=X-name,area=X-area,kids_allowed=no,good_for_meal=dinner)	5.0	5.0	0.0	1	4.0	4.220480918884277		5.0	5.0	0.0	1	4.0	3.9663755893707275	X-name , is a nice restaurant in the X-area area that allows children , and is good for dinner .	
inform(name=X-name,kids_allowed=yes,price_range=cheap,good_for_meal=breakfast)	2.0	2.0	0.0	1	5.0	4.956484317779541		2.0	2.0	0.0	1	5.0	4.780639171600342	X-name has a cheap allows kids , and is good for breakfast .	
inform(name=X-name,price_range=moderate)	4.0	4.0	0.0	1	3.0	2.577008008956909		3.0	3.0	0.12982535	0	2.0	2.20644211769104	X-name , is moderate .	
inform(name=X-name,type=placetoeat,eattype=restaurant,area=X-area,food=Fastfood)	6.0	6.0	0.0	1	5.0	4.814334392547607		6.0	6.0	0.0	1	4.0	4.49896764755249	X-name is a fast food restaurant in the riverside area .	
inform(name=X-name,area=X-area,dogs_allowed=yes,has_internet=yes)	4.0	4.0	0.0	1	5.0	4.818711757659912		5.0	5.0	0.0	1	5.0	4.55640172958374	X-name has internet , is in the X-area area and does allow dogs .	
inform_no_match(price_range=pricey,near=X-near)	4.0	4.0	0.13770247	0	3.0	2.556652069091797		5.0	5.0	0.2511437	0	3.0	2.5475046634674072	okay well there are no hotels that are in the pricey range in the X-near area .	
inform(name=X-name,type=placetoeat,area=X-area,near=X-near,eattype=restaurant)	5.0	5.0	0.0	1	5.0	4.991170883178711		5.0	5.0	0.0	1	5.0	4.863528251647949	X-name is a restaurant in X-area , near to X-near .	
inform(name=X-name,food=malaysian)	5.0	5.0	0.0	1	5.0	4.7581257820129395		3.0	3.0	0.0	1	4.0	4.4424638748168945	X-name serves malaysian food .	
inform(name=X-name,good_for_meal=dinner,food=basque)	6.0	6.0	0.0	1	5.0	4.791937828063965		5.0	5.0	0.0	1	5.0	4.5704169273376465	X-name , is a good restaurant that serves basque food , especially for dinner .	
inform(name=X-name,area=X-area)	6.0	6.0	0.0	1	5.0	4.759819030761719		5.0	5.0	0.0	1	4.0	4.381607532501221	X-name is in the area of X-area .	
inform_no_match(price_range=expensive,food=cambodian)	1.0	1.0	0.9736301	0	2.0	1.556026577949524		2.0	2.0	0.96710396	0	2.0	1.6918361186981201	unfortunately 0 restaurants serve cambodian are expensive .	
inform(name=X-name,address=X-address)	5.0	5.0	0.0	1	6.0	5.794837951660156		5.0	5.0	0.0	1	5.0	5.462703227996826	X-name 's address is X-address .	
inform(name=X-name,accepts_credit_cards=yes,dogs_allowed=no,near=X-near)	2.0	2.0	0.0	1	5.0	4.9053120613098145		2.0	2.0	0.0	1	5.0	4.67784309387207	the X-name accepts credit cards in X-near does not allow dogs .	
inform_no_match(area=X-area,price_range='ultra high end')	6.0	6.0	0.0	1	4.0	4.244251251220703		6.0	6.0	0.0	1	4.0	4.00006103515625	there are no ultra high end hotels in X-area .	
inform_only_match(name=X-name,price_range=cheap,good_for_meal=brunch)	3.0	3.0	0.0	1	4.0	3.7296807765960693		4.0	4.0	0.0	1	4.0	3.700148582458496	there is no place other than X-name that is cheap and a good for brunch .	
inform(name=X-name,area=X-area,address=X-address)	5.0	5.0	0.0	1	4.0	4.201910972595215		5.0	5.0	0.0	1	4.0	4.058591365814209	X-name , is in the X-area area and it is address is X-address .	
inform(name=X-name,near=X-near,good_for_meal=dinner)	5.0	5.0	0.0	1	4.0	4.184347629547119		6.0	6.0	0.0	1	4.0	3.9322686195373535	X-name , is a nice restaurant near X-near , and is good for dinner .	
inform(name=X-name,address=X-address,phone=X-phone)	5.0	5.0	0.0	1	6.0	5.835147857666016		5.0	5.0	0.0	1	6.0	5.515310287475586	X-name is located at X-address , and their phone number is X-phone .	
inform(name=X-name,type=placetoeat,eattype=restaurant,area=X-area,near=X-near,food=Chinese)	5.0	5.0	0.0	1	3.0	2.5319764614105225		5.0	5.0	0.0	1	3.0	2.643096685409546	X-name is a chinese food restaurant and is located in the centre of town area city .	
inform_no_match(area=X-area,good_for_meal=brunch)	6.0	6.0	0.0	1	4.0	3.834246873855591		5.0	5.0	0.0	1	4.0	3.5946428775787354	there are no restaurants in X-area that are good for brunch .	
inform(name=X-name,address=X-address,phone=X-phone)	4.0	4.0	0.0	1	5.0	5.300295352935791		4.0	4.0	0.0	1	5.0	5.021265029907227	the address for X-name is X-address . the phone number is X-phone .	
inform(name=X-name,type=restaurant)	6.0	6.0	0.0	1	5.0	5.15414571762085		6.0	6.0	0.0	1	5.0	4.837474822998047	X-name is a nice restaurant .	
inform_no_match(area=X-area)	5.0	5.0	0.0	1	4.0	4.444097518920898		4.0	4.0	0.0	1	4.0	4.194279193878174	i am sorry i am not finding any hotels in the X-area area .	
inform(name=X-name,price_range=cheap,food=taiwanese,good_for_meal=lunch)	5.0	5.0	0.0	1	4.0	4.348093509674072		5.0	5.0	0.0	1	4.0	3.983286142349243	the X-name provides taiwanese lunch for a cheap price range .	
inform(name=X-name,kids_allowed=no,near=X-near)	6.0	6.0	0.0	1	5.0	5.087798118591309		6.0	6.0	0.0	1	5.0	4.8386335372924805	X-name is a nice restaurant near X-near that does not allow children .	
inform(name=X-name,address=X-address,phone=X-phone)	6.0	6.0	0.0	1	6.0	5.835147857666016		6.0	6.0	0.0	1	6.0	5.515310287475586	X-name is located at X-address , and their phone number is X-phone .	
inform(name=X-name,address=X-address)	5.0	5.0	0.0	1	5.0	5.426418781280518		4.0	4.0	0.0	1	5.0	5.134660720825195	the address for X-name is X-address .	
inform(name=X-name,type=placetoeat,area=X-area,pricerange=moderate,eattype=restaurant)	6.0	6.0	0.0	1	5.0	5.483630657196045		5.0	5.0	0.0	1	5.0	5.288228988647461	X-name is a restaurant in the X-area area .	
inform(name=X-name,type=placetoeat,eattype=restaurant,near=X-near,area=X-area,area=X-area)	3.0	3.0	0.0	1	3.0	3.3694331645965576		3.0	3.0	0.0	1	3.0	3.205171585083008	X-name is a restaurant in X-near on the river near to X-area .	
inform(name=X-name,type=placetoeat,eattype=restaurant,pricerange=moderate,area=X-area,food=Indian,food='Indian takeaway')	4.0	4.0	0.0	1	3.0	2.9818246364593506		4.0	4.0	0.0	1	3.0	3.039654493331909	X-name is a moderately priced indian restaurant in the riverside area which serves indian food in the moderate price range in the riverside area .	
inform(name=X-name,near=X-near,price_range=cheap)	4.0	4.0	0.0	1	5.0	5.238125801086426		3.0	3.0	0.0	1	5.0	4.905270576477051	X-name is a cheap restaurant near X-near .	
inform(name=X-name,area=X-area,accepts_credit_cards=yes)	6.0	6.0	0.0	1	5.0	5.188944339752197		6.0	6.0	0.0	1	5.0	4.884908199310303	X-name is in the area of X-area and accepts credit cards .	
inform(name=X-name,type=placetoeat,eattype=restaurant,area=X-area)	6.0	6.0	0.0	1	5.0	4.855772495269775		6.0	6.0	0.0	1	5.0	4.642427444458008	X-name is a restaurant in the city centre .	
inform(name=X-name,type=placetoeat,eattype=restaurant,area=X-area)	6.0	6.0	0.0	1	5.0	4.855772495269775		6.0	6.0	0.0	1	5.0	4.642427444458008	X-name is a restaurant in the city centre .	
inform(name=X-name,eattype=restaurant,addr=X-addr)	6.0	6.0	0.0	1	4.0	4.036019802093506		5.0	5.0	0.0	1	4.0	3.795719623565674	X-name is a restaurant located at X-addr .	
inform(name=X-name,price_range=moderate,kids_allowed=yes,food='new american')	6.0	6.0	0.0	1	4.0	4.355996608734131		5.0	5.0	0.0	1	4.0	4.093474864959717	X-name is a moderately priced new american restaurant that allows children .	
select(food='new american or thai')	6.0	6.0	0.0	1	5.0	4.763506889343262		6.0	6.0	0.0	1	5.0	4.631922721862793	would you prefer new american or thai food ?	
inform(name=X-name,food=thai,near=X-near)	4.0	4.0	0.0	1	5.0	4.602878570556641		5.0	5.0	0.0	1	4.0	4.294634819030762	X-name near X-near serves thai .	
inform(name=X-name,kids_allowed=no,price_range=moderate)	5.0	5.0	0.0	1	3.0	2.7381162643432617		5.0	5.0	0.0	1	2.0	2.471879720687866	X-name is an moderate restaurant that does not allow children .	
inform(name=X-name,type=placetoeat,area=X-area,pricerange=expensive,eattype=restaurant)	5.0	5.0	0.0	1	4.0	3.6990556716918945		6.0	6.0	0.0	1	4.0	3.644705295562744	X-name is a restaurant in X-area if you are seeking something expensive .	
inform(name=X-name,address=X-address,postcode=X-postcode)	4.0	4.0	0.0	1	6.0	5.905531406402588		4.0	4.0	0.0	1	6.0	5.552872657775879	the address for X-name is X-address , X-postcode .	
inform(name=X-name,type=placetoeat,eattype=restaurant,near=X-near,pricerange=expensive)	4.0	4.0	0.0	1	5.0	4.964565277099609		5.0	5.0	0.0	1	5.0	4.901666641235352	X-name is a restaurant near X-near in the expensive price range .	
inform(name=X-name,has_internet=yes,dogs_allowed=no)	6.0	6.0	0.0	1	5.0	5.025819778442383		6.0	6.0	0.0	1	5.0	4.661807060241699	X-name does not allow dogs , has internet access .	
inform(name=X-name,food='comfort food')	2.0	2.0	0.0	1	4.0	3.8845064640045166		3.0	3.0	0.0	1	4.0	3.524873733520508	X-name serves comfort food .	
inform(name=X-name,price_range=cheap,kids_allowed=yes)	5.0	5.0	0.0	1	4.0	4.266845703125		5.0	5.0	0.0	1	4.0	3.9592933654785156	X-name , is cheaply priced and allows kids .	
inform(name=X-name,kids_allowed=no,price_range=expensive)	6.0	6.0	0.0	1	4.0	4.1241583824157715		5.0	5.0	0.0	1	4.0	3.829437732696533	X-name is an expensive restaurant that does not allow children .	
inform(name=X-name,price_range=cheap)	6.0	6.0	0.0	1	5.0	4.552393436431885		4.0	4.0	0.0	1	4.0	4.135087966918945	X-name , is cheap .	
inform(name=X-name,price_range=moderate,address=X-address,phone=X-phone)	6.0	6.0	0.0	1	6.0	5.711465358734131		6.0	6.0	0.0	1	5.0	5.420214653015137	X-name is located at X-address , and the phone number is X-phone . it is moderately priced .	
inform(name=X-name,type=restaurant)	5.0	5.0	0.0	1	5.0	4.639429569244385		5.0	5.0	0.0	1	4.0	4.386942386627197	the name of the restaurant is X-name .	
inform(name=X-name,address=X-address,postcode=X-postcode)	4.0	4.0	0.0	1	6.0	5.695770740509033		4.0	4.0	0.0	1	5.0	5.391190052032471	the address of the X-name is X-address and the postcode is X-postcode .	
inform_no_match(area=X-area)	6.0	6.0	0.0	1	5.0	4.9426093101501465		5.0	5.0	0.0	1	5.0	4.569812297821045	i am sorry but there are no hotels in the area of X-area .	
inform(name=X-name,type=placetoeat,eattype=restaurant,area=X-area,pricerange=moderate,food=Indian)	5.0	5.0	0.0	1	5.0	5.309930801391602		5.0	5.0	0.0	1	5.0	5.210009574890137	X-name is a moderately priced indian restaurant in X-area .	
inform(name=X-name,kids_allowed=yes)	6.0	6.0	0.0	1	5.0	5.023921012878418		4.0	4.0	0.0	1	5.0	4.756092548370361	X-name is a nice restaurant that allows children .	
inform(name=X-name,dogs_allowed=none,accepts_credit_cards=yes)	5.0	5.0	0.0	1	5.0	4.72300386428833		5.0	5.0	0.0	1	5.0	4.536137580871582	the X-name allows dogs and accepts credit cards .	
inform(name=X-name,dogs_allowed=none,accepts_credit_cards=yes)	6.0	6.0	0.0	1	5.0	4.72300386428833		6.0	6.0	0.0	1	5.0	4.536137580871582	the X-name allows dogs and accepts credit cards .	
inform(name=X-name,type=placetoeat,eattype=restaurant,pricerange=expensive,near=X-near)	4.0	4.0	0.0	1	4.0	4.377693176269531		4.0	4.0	0.0	1	4.0	4.295928955078125	X-name is an expensive restaurant in the expensive price range .	
inform_no_match(area=X-area)	5.0	5.0	0.0	1	4.0	4.444097518920898		5.0	5.0	0.0	1	4.0	4.194279193878174	i am sorry i am not finding any hotels in the X-area area .	
inform(name=X-name,type=placetoeat,eattype=restaurant,area=X-area,near=X-near,near=X-near,food=French)	6.0	6.0	0.0	1	5.0	5.105756759643555		4.0	4.0	0.0	1	5.0	4.968512058258057	X-name is a french restaurant in the riverside area near X-near , and X-near .	
inform(name=X-name,near=X-near)	5.0	5.0	0.0	1	5.0	5.154169082641602		3.0	3.0	0.0	1	5.0	4.79513692855835	X-name is near X-near .	
inform(name=X-name,type=placetoeat,eattype=restaurant,near=X-near,pricerange=cheap)	2.0	2.0	0.0	1	5.0	4.601434707641602		1.0	1.0	0.0	1	5.0	4.508671760559082	X-name is a restaurant near X-near which offers cheap price range .	
inform(name=X-name,type=placetoeat,eattype=restaurant,pricerange=expensive,area=X-area,area=X-area,food=Italian)	6.0	6.0	0.0	1	5.0	5.21074914932251		5.0	5.0	0.0	1	5.0	4.881722927093506	X-name is an italian restaurant near X-area .	
inform_no_match(area=X-area)	5.0	5.0	0.0	1	5.0	5.214570045471191		5.0	5.0	0.0	1	5.0	4.82533597946167	i am sorry but there are no hotels in the X-area area .	
inform_no_match(price_range=pricey,near=X-near)	5.0	5.0	0.0	1	5.0	4.529844284057617		3.0	3.0	0.0	1	4.0	4.400589466094971	there is no pricey hotel near the X-near .	
inform(name=X-name,kids_allowed=no,near=X-near,good_for_meal=dinner)	3.0	3.0	0.0	1	4.0	3.9431560039520264		2.0	2.0	0.0	1	4.0	3.6929221153259277	X-name is near X-near and does not allow kids for dinner .	
inform(name=X-name,type=placetoeat,pricerange=expensive,near=X-near,near=X-near,eattype=restaurant)	4.0	4.0	0.0	1	5.0	4.700926780700684		5.0	5.0	0.0	1	5.0	4.65504264831543	X-name is a restaurant near X-near in the expensive price range .	
inform(name=X-name,address=X-address,phone=X-phone)	6.0	6.0	0.0	1	6.0	5.835147857666016		6.0	6.0	0.0	1	6.0	5.515310287475586	X-name is located at X-address , and their phone number is X-phone .	
inform(name=X-name,near=X-near)	5.0	5.0	0.0	1	5.0	5.3494696617126465		5.0	5.0	0.0	1	5.0	5.017846584320068	the X-name is near X-near .	
inform(name=X-name,price_range=inexpensive)	5.0	5.0	0.0	1	4.0	4.430161476135254		5.0	5.0	0.0	1	4.0	4.052392482757568	the X-name is a inexpensive hotel .	
inform(name=X-name,price_range=moderate,kids_allowed=no)	4.0	4.0	0.0	1	4.0	3.6709296703338623		4.0	4.0	0.0	1	3.0	3.257732629776001	X-name , is moderately prices and does not allow children .	
inform(name=X-name,type=hotel)	6.0	6.0	0.0	1	5.0	5.181740760803223		4.0	4.0	0.0	1	5.0	4.887684345245361	the X-name is a nice hotel .	
inform(name=X-name,type=placetoeat,eattype=restaurant,near=X-near,pricerange=moderate,food=Indian,food='Indian takeaway')	6.0	6.0	0.0	1	4.0	4.436674118041992		6.0	6.0	0.0	1	4.0	4.406061172485352	X-name is an indian restaurant near X-near .	
inform(name=X-name,area=X-area,food='new american')	2.0	2.0	0.0	1	4.0	4.4178900718688965		2.0	2.0	0.0	1	4.0	3.9343385696411133	X-name , is in X-area serves new american food .	
inform(name=X-name,type=placetoeat,eattype=restaurant,pricerange=moderate,area=X-area,food=Italian)	5.0	5.0	0.0	1	5.0	4.784090518951416		5.0	5.0	0.0	1	5.0	4.566317081451416	X-name is an italian restaurant in the moderate price range located in the X-area area .	
inform(name=X-name,address=X-address,phone=X-phone)	6.0	6.0	0.0	1	6.0	5.83721923828125		6.0	6.0	0.0	1	5.0	5.497217178344727	X-name 's address is X-address , and its phone number is X-phone .	
inform(name=X-name,near=X-near)	2.0	2.0	0.0	1	3.0	3.095116376876831		2.0	2.0	0.0	1	3.0	2.7331759929656982	he X-name is located near X-near .	
confirm(area=X-area)	6.0	6.0	0.0	1	5.0	4.8857421875		4.0	4.0	0.0	1	5.0	4.616339683532715	to confirm , you are looking for a hotel in the X-area area ?	
inform(name=X-name,kids_allowed=no,good_for_meal=brunch)	6.0	6.0	0.0	1	4.0	4.043627738952637		5.0	5.0	0.0	1	4.0	3.796065330505371	X-name does not allow kids and is good for brunch .	
inform(name=X-name,area=X-area)	4.0	4.0	0.0	1	5.0	5.054844856262207		4.0	4.0	0.0	1	5.0	4.706775188446045	the X-name is in the X-area area .	
inform(name=X-name,type=placetoeat,area=X-area,near=X-near,near=X-near,eattype=restaurant)	4.0	4.0	0.0	1	4.0	4.4080963134765625		4.0	4.0	0.0	1	4.0	4.373059272766113	X-name is a restaurant in the centre of town located near X-near and X-near .	
inform(name=X-name,address=X-address,postcode=X-postcode)	6.0	6.0	0.0	1	6.0	5.905531406402588		5.0	5.0	0.0	1	6.0	5.552872657775879	the address for X-name is X-address , X-postcode .	
inform(name=X-name,price_range=cheap)	5.0	5.0	0.0	1	5.0	4.589557647705078		6.0	6.0	0.0	1	4.0	4.22808313369751	X-name is in the cheap price range .	
inform(name=X-name,food=basque,kids_allowed=no)	5.0	5.0	0.0	1	5.0	4.715636730194092		5.0	5.0	0.0	1	4.0	4.368797302246094	X-name , is a nice restaurant that serves basque food and does not allow children .	
inform(name=X-name,dogs_allowed=no,near=X-near)	6.0	6.0	0.0	1	5.0	5.271719932556152		6.0	6.0	0.0	1	5.0	4.978928565979004	X-name near X-near does not allow dogs .	
inform(name=X-name,phone=X-phone)	6.0	6.0	0.0	1	6.0	5.8973069190979		6.0	6.0	0.0	1	5.0	5.499774932861328	the phone number for X-name is X-phone .	
inform(name=X-name,phone=X-phone)	6.0	6.0	0.0	1	6.0	5.8973069190979		5.0	5.0	0.0	1	5.0	5.499774932861328	the phone number for X-name is X-phone .	
inform(name=X-name,dogs_allowed=yes)	6.0	6.0	0.0	1	5.0	5.011561393737793		5.0	5.0	0.0	1	5.0	4.741703510284424	the X-name allows dogs .	
inform(name=X-name,type=placetoeat,eattype=restaurant,pricerange=expensive,near=X-near,food=Italian)	6.0	6.0	0.0	1	5.0	5.44801664352417		4.0	4.0	0.0	1	5.0	5.2219672203063965	X-name is an expensive restaurant near X-near .	
confirm(area=X-area)	6.0	6.0	0.0	1	5.0	4.980259895324707		5.0	5.0	0.0	1	5.0	4.6371049880981445	are you looking for a restaurant in the area of X-area ?	
inform(name=X-name,phone=X-phone)	4.0	4.0	0.0	1	6.0	5.8973069190979		4.0	4.0	0.0	1	5.0	5.499774932861328	the phone number for X-name is X-phone .	
inform(name=X-name,area=X-area,address=X-address)	5.0	5.0	0.0	1	4.0	4.200429916381836		5.0	5.0	0.0	1	4.0	4.1301727294921875	X-name is in the X-area hill area and the address is X-address .	
inform(name=X-name,type=placetoeat,eattype=restaurant,pricerange=expensive,area=X-area)	4.0	4.0	0.0	1	5.0	4.639273643493652		4.0	4.0	0.0	1	4.0	4.489065647125244	X-name is a restaurant in the expensive price range in the X-area area .	
inform_no_match(price_range=expensive,food=cambodian)	4.0	4.0	0.0	1	3.0	2.9846010208129883		3.0	3.0	0.0	1	3.0	2.9707746505737305	i am sorry , i can not find any restaurants that serve cambodian food and are expensive .	
inform(name=X-name,type=placetoeat,eattype=restaurant,near=X-near,food=Chinese)	6.0	6.0	0.0	1	5.0	5.053063869476318		6.0	6.0	0.0	1	5.0	5.0131940841674805	X-name is a chinese restaurant near X-near .	
inform(name=X-name,type=placetoeat,eattype=restaurant,pricerange=expensive,near=X-near,near=X-near)	4.0	4.0	0.0	1	5.0	4.750847816467285		5.0	5.0	0.0	1	5.0	4.720724582672119	X-name is a restaurant in the expensive price range near X-near and X-near .	
inform(name=X-name,type=placetoeat,eattype=restaurant,pricerange=moderate)	6.0	6.0	0.0	1	5.0	5.143889904022217		6.0	6.0	0.0	1	5.0	5.023014545440674	X-name is a restaurant in the moderate price range .	
inform(name=X-name,type=placetoeat,eattype=restaurant,pricerange=moderate)	6.0	6.0	0.0	1	5.0	5.143889904022217		5.0	5.0	0.0	1	5.0	5.023014545440674	X-name is a restaurant in the moderate price range .	
inform(name=X-name,kids_allowed=no)	5.0	5.0	0.0	1	5.0	4.924245357513428		5.0	5.0	0.0	1	4.0	4.482426166534424	there are no children allowed at X-name .	
inform(name=X-name,price_range=expensive)	5.0	5.0	0.0	1	4.0	4.341675758361816		4.0	4.0	0.0	1	4.0	3.931490659713745	X-name , is expensive .	
inform(name=X-name,price_range=expensive,near=X-near)	5.0	5.0	0.0	1	5.0	5.24100399017334		5.0	5.0	0.0	1	5.0	4.992401599884033	X-name is a expensive restaurant near X-near .	
inform(name=X-name,type=placetoeat,near=X-near,pricerange=moderate,eattype=restaurant)	6.0	6.0	0.0	1	5.0	5.294281482696533		2.0	2.0	0.0	1	5.0	5.145971298217773	X-name is a moderately priced indian restaurant near X-near .	
inform(name=X-name,price_range=moderate)	5.0	5.0	0.0	1	5.0	4.876069068908691		5.0	5.0	0.0	1	5.0	4.509603977203369	X-name is in the moderate price range .	
inform(name=X-name,type=restaurant)	6.0	6.0	0.0	1	5.0	4.639429569244385		5.0	5.0	0.0	1	4.0	4.386942386627197	the name of the restaurant is X-name .	
inform(name=X-name,dogs_allowed=yes)	3.0	3.0	0.053483248	0	3.0	2.5387022495269775		4.0	4.0	0.16829443	0	3.0	2.5174551010131836	thank you the X-name allows dogs .	
inform(name=X-name,near=X-near)	6.0	6.0	0.0	1	5.0	5.154169082641602		5.0	5.0	0.0	1	5.0	4.79513692855835	X-name is near X-near .	
inform(name=X-name,address=X-address,phone=X-phone,postcode=X-postcode)	6.0	6.0	0.0	1	6.0	5.791520595550537		6.0	6.0	0.0	1	6.0	5.609334468841553	you may find the X-name at X-address , X-postcode , and the phone number is X-phone .	
inform(name=X-name,good_for_meal='lunch or dinner')	5.0	5.0	0.0	1	5.0	4.966880798339844		5.0	5.0	0.0	1	5.0	4.638523578643799	X-name is a good restaurant for lunch or dinner .	
inform(name=X-name,phone=X-phone)	6.0	6.0	0.0	1	6.0	5.8973069190979		5.0	5.0	0.0	1	5.0	5.499774932861328	the phone number for X-name is X-phone .	
inform(name=X-name,type=placetoeat,eattype=restaurant,area=X-area,near=X-near,food='Chinese takeaway',food=Japanese)	4.0	4.0	0.0	1	3.0	2.7270560264587402		2.0	2.0	0.0	1	3.0	2.8228447437286377	X-name is a japanese food and chinese takeaway restaurant in the city centre area near X-near .	
confirm(price_range=dont_care)	5.0	5.0	0.0	1	3.0	3.002307415008545		2.0	2.0	0.0	1	3.0	2.813727855682373	do you mean that you do not care which price range ?	
inform(name=X-name,type=placetoeat,eattype=restaurant,pricerange=cheap,area=X-area,near=X-near)	6.0	6.0	0.0	1	5.0	4.929637432098389		4.0	4.0	0.0	1	5.0	4.74259614944458	X-name is a cheap restaurant in the riverside near X-near .	
confirm(area=X-area)	3.0	3.0	0.0	1	4.0	4.027903079986572		4.0	4.0	0.0	1	4.0	3.9258501529693604	you want a hotel in the X-area ?	
inform(name=X-name,address=X-address)	5.0	5.0	0.0	1	5.0	5.426418781280518		3.0	3.0	0.0	1	5.0	5.134660720825195	the address for X-name is X-address .	
inform(name=X-name,good_for_meal=breakfast,food=mexican,kids_allowed=yes)	6.0	6.0	0.0	1	5.0	5.04720401763916		5.0	5.0	0.0	1	5.0	4.877869129180908	X-name serves mexican food for breakfast and allows kids .	
inform(name=X-name,area=X-area)	3.0	3.0	0.0	1	2.0	2.441599130630493		3.0	3.0	0.115621805	0	2.0	2.1203019618988037	X-name , is in the are of X-area .	
inform(name=X-name,address=X-address,phone=X-phone,postcode=X-postcode)	3.0	3.0	0.0	1	5.0	5.318249702453613		4.0	4.0	0.0	1	5.0	4.9896392822265625	X-name is located at X-address . the postcode is X-postcode . the phone number is X-phone .	
inform(name=X-name,near=X-near)	6.0	6.0	0.0	1	5.0	5.154169082641602		3.0	3.0	0.0	1	5.0	4.79513692855835	X-name is near X-near .	
inform(name=X-name,kids_allowed=no,good_for_meal=breakfast)	4.0	4.0	0.0	1	4.0	4.080092430114746		4.0	4.0	0.0	1	4.0	3.8522496223449707	X-name , is good for breakfast , and no children are allowed .	
inform(name=X-name,area=X-area)	4.0	4.0	0.0	1	3.0	2.831237554550171		3.0	3.0	0.0	1	3.0	2.6677582263946533	there is a hotel called in the X-name and in the area of X-area .	
inform(name=X-name,phone=X-phone)	4.0	4.0	0.0	1	6.0	5.7778191566467285		4.0	4.0	0.0	1	5.0	5.4671173095703125	you may reach the X-name at X-phone .	
inform(type=restaurant,count=X-count,good_for_meal=dont_care,kids_allowed=yes,price_range=expensive)	3.0	3.0	0.0	1	5.0	5.234925746917725		6.0	6.0	0.0	1	5.0	4.9647297859191895	there are X-count restaurants that are expensive and allow children good for any meal .	
inform(name=X-name,food=basque,kids_allowed=no)	4.0	4.0	0.0	1	5.0	5.231991291046143		2.0	2.0	0.0	1	5.0	4.8917412757873535	X-name is a nice restaurant that serves basque food and does not allow children .	
inform(name=X-name,price_range=moderate)	3.0	3.0	0.0	1	5.0	5.058925628662109		4.0	4.0	0.0	1	5.0	4.725396633148193	the X-name is in the moderate price range .	
inform(name=X-name,kids_allowed=no)	6.0	6.0	0.0	1	5.0	4.9965996742248535		6.0	6.0	0.0	1	5.0	4.591657638549805	X-name is a nice restaurant that does not allow children .	
inform(name=X-name,food=brasseries)	6.0	6.0	0.0	1	4.0	4.404290676116943		4.0	4.0	0.0	1	4.0	4.154385566711426	X-name serves brasseries food .	
inform(type=restaurant,count=X-count,kids_allowed=no,area=X-area)	4.0	4.0	0.0	1	6.0	5.622241020202637		1.0	1.0	0.0	1	5.0	5.203099250793457	there are X-count restaurants that does not allow the s in the X-area area .	
inform(name=X-name,near=X-near)	4.0	4.0	0.0	1	5.0	4.636220455169678		1.0	1.0	0.0	1	4.0	4.259613990783691	X-name , is near the X-near .	
inform(name=X-name,type=placetoeat,eattype=restaurant,area=X-area,food='Chinese takeaway',food=Takeaway)	5.0	5.0	0.26887465	0	2.0	2.174325942993164		4.0	4.0	0.3763461	0	2.0	2.186506986618042	X-name is a chinese food takeaway restaurant with restaurant on the riverside .	
inform(name=X-name,area=X-area)	5.0	5.0	0.0	1	5.0	4.759819030761719		2.0	2.0	0.0	1	4.0	4.381607532501221	X-name is in the area of X-area .	
inform_no_match(near=X-near,good_for_meal=lunch,kids_allowed=no)	6.0	6.0	0.0	1	4.0	3.7638144493103027		6.0	6.0	0.0	1	4.0	3.549891948699951	i am sorry i did not find any restaurants that does not allow children near the X-near good for lunch .	
inform(name=X-name,food=burgers,price_range=expensive,good_for_meal=dinner)	4.0	4.0	0.0	1	3.0	2.9487345218658447		4.0	4.0	0.0	1	3.0	2.7617297172546387	the X-name provides burgers dinner for a expensive price range .	
inform(name=X-name,price_range=moderate,address=X-address,phone=X-phone)	5.0	5.0	0.0	1	5.0	4.9738030433654785		5.0	5.0	0.0	1	5.0	4.806612014770508	X-name is in the moderate price range . they are located at X-address and their phone number is X-phone .	
inform(name=X-name,type=hotel)	3.0	3.0	0.0	1	3.0	3.29461407661438		3.0	3.0	0.0	1	3.0	3.159707546234131	the name is X-name and it is a nice hotel .	
inform(name=X-name,address=X-address,phone=X-phone)	4.0	4.0	0.0	1	6.0	5.746640682220459		5.0	5.0	0.0	1	5.0	5.445533275604248	the address of X-name is X-address . the phone number is X-phone .	
inform_no_match(near=X-near,area=X-area)	4.0	4.0	0.0	1	4.0	3.9400389194488525		4.0	4.0	0.0	1	4.0	3.762131690979004	there is no hotel near the X-near and in the X-area area .	
inform(name=X-name,type=placetoeat,eattype=restaurant,area=X-area,food=Indian)	5.0	5.0	0.21250153	0	2.0	2.220205068588257		5.0	5.0	0.36939716	0	2.0	2.2137038707733154	X-name is an indian restaurant in the riverside area serves both indian food indian takeaway .	
inform(name=X-name,eattype=coffeeshop,eattype=restaurant)	5.0	5.0	0.0	1	5.0	5.015137672424316		5.0	5.0	0.0	1	5.0	4.82956075668335	X-name is a restaurant .	
inform(type=restaurant,count=X-count,food=japanese,price_range=cheap)	4.0	4.0	0.0	1	6.0	5.516393661499023		3.0	3.0	0.0	1	5.0	5.102530479431152	there are X-count cheaply priced japanese restaurants .	
inform(name=X-name,address=X-address)	5.0	5.0	0.0	1	5.0	5.426418781280518		3.0	3.0	0.0	1	5.0	5.134660720825195	the address for X-name is X-address .	
inform(name=X-name,address=X-address,phone=X-phone,postcode=X-postcode)	5.0	5.0	0.0	1	6.0	5.712284088134766		5.0	5.0	0.0	1	5.0	5.479978084564209	X-name , is at X-address , phone number is X-phone , and the postcode is X-postcode .	
inform(name=X-name,address=X-address,postcode=X-postcode)	5.0	5.0	0.0	1	6.0	5.695770740509033		5.0	5.0	0.0	1	5.0	5.391190052032471	the address of the X-name is X-address and the postcode is X-postcode .	
inform(name=X-name,type=placetoeat,area=X-area,pricerange=moderate,eattype=restaurant)	5.0	5.0	0.0	1	5.0	5.021803379058838		5.0	5.0	0.0	1	5.0	4.892859935760498	X-name is a restaurant in X-area with a moderately priced menu .	
inform_no_match(area=X-area)	5.0	5.0	0.0	1	5.0	5.214570045471191		5.0	5.0	0.0	1	5.0	4.82533597946167	i am sorry but there are no hotels in the X-area area .	
inform(name=X-name,type=placetoeat,pricerange=expensive,near=X-near,near=X-near,eattype=restaurant)	5.0	5.0	0.0	1	5.0	4.789877891540527		5.0	5.0	0.0	1	5.0	4.70974063873291	X-name is an expensive restaurant near X-near and X-near .	
inform(name=X-name,phone=X-phone)	5.0	5.0	0.0	1	6.0	5.801592826843262		4.0	4.0	0.0	1	5.0	5.4739532470703125	you may reach X-name at X-phone .	
inform(type=restaurant,count=X-count,food=french)	6.0	6.0	0.0	1	6.0	5.802288055419922		5.0	5.0	0.0	1	5.0	5.483963966369629	there are X-count restaurants that serve french food .	
inform(name=X-name,type=placetoeat,pricerange=moderate,eattype=restaurant)	6.0	6.0	0.0	1	5.0	5.154813766479492		5.0	5.0	0.0	1	5.0	5.051670551300049	X-name is a restaurant in the moderate price range .	
inform(name=X-name,accepts_credit_cards=yes)	5.0	5.0	0.0	1	4.0	4.3806610107421875		6.0	6.0	0.0	1	4.0	4.104742050170898	X-name accepts credit cards .	
inform(name=X-name,accepts_credit_cards=yes)	5.0	5.0	0.0	1	4.0	4.3806610107421875		3.0	3.0	0.0	1	4.0	4.104742050170898	X-name accepts credit cards .	
inform(name=X-name,near=X-near,address=X-address,phone=X-phone)	5.0	5.0	0.0	1	5.0	4.910920143127441		3.0	3.0	0.0	1	5.0	4.70193338394165	X-name , is near the X-near , it is address is X-address , and the phone number is X-phone .	
inform(name=X-name,area=X-area,dogs_allowed=yes)	5.0	5.0	0.0	1	5.0	4.540323257446289		5.0	5.0	0.0	1	4.0	4.3356451988220215	X-name is near X-area and allows dogs .	
inform(type=restaurant,count=X-count,good_for_meal=dinner,price_range=expensive)	6.0	6.0	0.0	1	5.0	5.409831523895264		6.0	6.0	0.0	1	5.0	5.104432106018066	there are X-count restaurants in the expensive price range that are good for dinner .	
inform(name=X-name,address=X-address,phone=X-phone)	6.0	6.0	0.0	1	6.0	5.83721923828125		6.0	6.0	0.0	1	5.0	5.497217178344727	X-name 's address is X-address , and its phone number is X-phone .	
inform(name=X-name,has_internet=no)	5.0	5.0	0.0	1	5.0	4.683565139770508		5.0	5.0	0.0	1	4.0	4.161730766296387	we 're sorry the X-name does not have internet .	
inform(name=X-name,area=X-area)	3.0	3.0	0.0	1	3.0	2.831237554550171		4.0	4.0	0.0	1	3.0	2.6677582263946533	there is a hotel called in the X-name and in the area of X-area .	
inform(type=restaurant,count=X-count,kids_allowed=yes,price_range=expensive)	5.0	5.0	0.0	1	5.0	5.483229637145996		6.0	6.0	0.0	1	5.0	5.177302360534668	there are X-count restaurants that allow children and are expensive .	
inform(name=X-name,accepts_credit_cards=yes,near=X-near,price_range=inexpensive)	5.0	5.0	0.0	1	3.0	2.9672200679779053		4.0	4.0	0.0	1	3.0	2.868675708770752	i found a X-name near the X-near area that and inexpensive hotel and it accepts credit cards .	
inform(name=X-name,area=X-area)	1.0	1.0	0.0	1	2.0	2.441599130630493		1.0	1.0	0.115621805	0	2.0	2.1203019618988037	X-name , is in the are of X-area .	
inform(name=X-name,near=X-near,kids_allowed=yes,price_range=moderate)	3.0	3.0	0.0	1	3.0	2.9775702953338623		2.0	2.0	0.0	1	3.0	2.7814323902130127	X-name , is near X-near , is moderate range and allows children .	
inform(name=X-name,address=X-address,phone=X-phone)	6.0	6.0	0.0	1	6.0	5.785161972045898		4.0	4.0	0.0	1	5.0	5.492226600646973	the X-name is located at X-address . the phone number is X-phone .	
inform(name=X-name,area=X-area,price_range=moderate)	4.0	4.0	0.0	1	4.0	3.535529851913452		4.0	4.0	0.0	1	3.0	3.2538037300109863	X-name is in the X-area area and it is moderate .	
inform(name=X-name,has_internet=yes)	5.0	5.0	0.0	1	5.0	4.852818965911865		3.0	3.0	0.0	1	4.0	4.426893711090088	X-name has internet .	
inform(name=X-name,has_internet=yes)	5.0	5.0	0.0	1	5.0	4.852818965911865		2.0	2.0	0.0	1	4.0	4.426893711090088	X-name has internet .	
inform_no_match(good_for_meal=breakfast,food=shanghainese)	5.0	5.0	0.0	1	4.0	4.277820587158203		3.0	3.0	0.0	1	4.0	4.224910259246826	unfortunately 0 restaurants serve shanghainese for breakfast .	
inform(name=X-name,address=X-address,postcode=X-postcode)	5.0	5.0	0.0	1	6.0	5.905531406402588		5.0	5.0	0.0	1	6.0	5.552872657775879	the address for X-name is X-address , X-postcode .	
inform(name=X-name,phone=X-phone)	5.0	5.0	0.0	1	6.0	5.8973069190979		5.0	5.0	0.0	1	5.0	5.499774932861328	the phone number for X-name is X-phone .	
inform(name=X-name,eattype=restaurant,addr=X-addr,phone=X-phone)	5.0	5.0	0.0	1	4.0	3.9794135093688965		5.0	5.0	0.0	1	4.0	3.8595662117004395	i suggest X-name restaurant .	
inform(name=X-name,type=placetoeat,eattype=restaurant,near=X-near,near=X-near,food=Chinese)	3.0	3.0	0.0	1	5.0	4.646472930908203		4.0	4.0	0.0	1	5.0	4.656559467315674	X-name is a chinese food restaurant near X-near and X-near .	
inform(name=X-name,near=X-near)	1.0	1.0	0.0	1	3.0	3.095116376876831		1.0	1.0	0.0	1	3.0	2.7331759929656982	he X-name is located near X-near .	
inform(name=X-name,type=placetoeat,near=X-near,area=X-area,area=X-area,eattype=restaurant)	6.0	6.0	0.0	1	5.0	5.188098907470703		6.0	6.0	0.0	1	5.0	4.938111782073975	X-name is a restaurant in X-near near X-area and X-area .	
inform(type=hotel,count=X-count,dogs_allowed=yes)	6.0	6.0	0.0	1	6.0	5.9179511070251465		6.0	6.0	0.0	1	6.0	5.627585411071777	there are X-count hotels that allow dogs .	
inform(type=hotel,count=X-count,dogs_allowed=yes)	6.0	6.0	0.0	1	6.0	5.9179511070251465		6.0	6.0	0.0	1	6.0	5.627585411071777	there are X-count hotels that allow dogs .	
inform_no_match(area=X-area)	6.0	6.0	0.0	1	4.0	4.444097518920898		5.0	5.0	0.0	1	4.0	4.194279193878174	i am sorry i am not finding any hotels in the X-area area .	
inform(name=X-name,address=X-address,phone=X-phone)	6.0	6.0	0.0	1	5.0	5.300295352935791		5.0	5.0	0.0	1	5.0	5.021265029907227	the address for X-name is X-address . the phone number is X-phone .	
inform_no_match(area=X-area)	5.0	5.0	0.0	1	4.0	4.444097518920898		5.0	5.0	0.0	1	4.0	4.194279193878174	i am sorry i am not finding any hotels in the X-area area .	
inform(name=X-name,address=X-address,phone=X-phone)	5.0	5.0	0.0	1	6.0	5.83721923828125		5.0	5.0	0.0	1	5.0	5.497217178344727	X-name 's address is X-address , and its phone number is X-phone .	
inform(name=X-name,type=placetoeat,eattype=restaurant,area=X-area,near=X-near,near=X-near,food=Italian)	5.0	5.0	0.0	1	5.0	4.91444730758667		4.0	4.0	0.0	1	5.0	4.7267537117004395	X-name is an italian restaurant in the riverside area near X-near and X-near .	
inform(name=X-name,kids_allowed=yes)	5.0	5.0	0.0	1	5.0	5.023921012878418		5.0	5.0	0.0	1	5.0	4.756092548370361	X-name is a nice restaurant that allows children .	
inform(name=X-name,area=X-area,food=korean)	5.0	5.0	0.0	1	4.0	4.236003875732422		5.0	5.0	0.0	1	4.0	3.7855875492095947	X-name , is in X-area serves korean food .	
inform_no_match(near=X-near,area=X-area)	5.0	5.0	0.0	1	3.0	3.390469789505005		6.0	6.0	0.0	1	3.0	3.2328686714172363	there is no match for a hotel in the X-area area near the X-near .	
inform(name=X-name,area=X-area,price_range=moderate)	2.0	2.0	0.0	1	4.0	3.857866048812866		4.0	4.0	0.0	1	4.0	3.646759033203125	the X-name is in the X-area area and it is moderate .	
inform(name=X-name,good_for_meal=dinner)	5.0	5.0	0.0	1	4.0	4.3516974449157715		2.0	2.0	0.0	1	4.0	3.995244026184082	X-name is a good restaurant for dinner .	
confirm(price_range=pricey)	5.0	5.0	0.0	1	3.0	3.1602771282196045		4.0	4.0	0.0	1	3.0	3.1129093170166016	do you want a hotel in the pricey price range ?	
inform(name=X-name,phone=X-phone)	6.0	6.0	0.0	1	6.0	5.8973069190979		5.0	5.0	0.0	1	5.0	5.499774932861328	the phone number for X-name is X-phone .	
inform(name=X-name,phone=X-phone)	6.0	6.0	0.0	1	6.0	5.8973069190979		5.0	5.0	0.0	1	5.0	5.499774932861328	the phone number for X-name is X-phone .	
inform(name=X-name,address=X-address)	5.0	5.0	0.0	1	6.0	5.794837951660156		5.0	5.0	0.0	1	5.0	5.462703227996826	X-name 's address is X-address .	
inform(name=X-name,has_internet=yes,near=X-near)	6.0	6.0	0.0	1	4.0	4.285943031311035		4.0	4.0	0.0	1	4.0	3.9740045070648193	X-name is near X-near and has internet .	
inform(name=X-name,food=french,good_for_meal=lunch)	6.0	6.0	0.0	1	4.0	4.4110260009765625		5.0	5.0	0.0	1	4.0	4.1239213943481445	X-name serves french and is good for lunch .	
inform(name=X-name,kids_allowed=yes)	6.0	6.0	0.0	1	5.0	5.023921012878418		5.0	5.0	0.0	1	5.0	4.756092548370361	X-name is a nice restaurant that allows children .	
inform(name=X-name,food=spanish)	6.0	6.0	0.0	1	5.0	4.743279933929443		6.0	6.0	0.0	1	4.0	4.382976531982422	X-name serves spanish food .	
inform(name=X-name,price_range=cheap,good_for_meal=dinner)	2.0	2.0	0.0	1	3.0	3.2189838886260986		2.0	2.0	0.0	1	3.0	2.9731364250183105	X-name is a cheap restaurant that is good for dinner .	
inform_no_match(area=X-area)	5.0	5.0	0.0	1	5.0	4.904968738555908		4.0	4.0	0.0	1	5.0	4.526798725128174	there are no hotels in the X-area area .	
inform(name=X-name,area=X-area)	4.0	4.0	0.0	1	3.0	2.831237554550171		5.0	5.0	0.0	1	3.0	2.6677582263946533	there is a hotel called in the X-name and in the area of X-area .	
inform(name=X-name,address=X-address)	5.0	5.0	0.0	1	5.0	5.426418781280518		2.0	2.0	0.0	1	5.0	5.134660720825195	the address for X-name is X-address .	
inform_no_match(area=X-area)	5.0	5.0	0.0	1	5.0	4.9426093101501465		5.0	5.0	0.0	1	5.0	4.569812297821045	i am sorry but there are no hotels in the area of X-area .	
inform(name=X-name,type=placetoeat,eattype=restaurant,pricerange=cheap,area=X-area,near=X-near)	6.0	6.0	0.0	1	5.0	4.882671356201172		6.0	6.0	0.0	1	5.0	4.696286201477051	X-name is a cheap restaurant in the city centre near X-near .	
inform(name=X-name,area=X-area,dogs_allowed=yes)	6.0	6.0	0.0	1	3.0	2.763165235519409		6.0	6.0	0.0	1	3.0	2.6962926387786865	yes there is the X-name and in the X-area area that allows dogs .	
inform(name=X-name,price_range=cheap)	5.0	5.0	0.0	1	5.0	4.552393436431885		4.0	4.0	0.0	1	4.0	4.135087966918945	X-name , is cheap .	
inform(name=X-name,near=X-near)	3.0	3.0	0.0	1	3.0	3.095116376876831		3.0	3.0	0.0	1	3.0	2.7331759929656982	he X-name is located near X-near .	
inform(name=X-name,type=restaurant)	6.0	6.0	0.0	1	5.0	5.15414571762085		5.0	5.0	0.0	1	5.0	4.837474822998047	X-name is a nice restaurant .	
inform(name=X-name,near=X-near)	4.0	4.0	0.0	1	5.0	5.3494696617126465		4.0	4.0	0.0	1	5.0	5.017846584320068	the X-name is near X-near .	
inform(name=X-name,type=placetoeat,eattype=restaurant,area=X-area,near=X-near,food='Cafe food',food=English)	3.0	3.0	0.0	1	4.0	3.9483518600463867		2.0	2.0	0.0	1	4.0	3.7686660289764404	X-name is an english cafe food restaurant in the city centre area and .	
inform(name=X-name,postcode=X-postcode)	5.0	5.0	0.0	1	5.0	5.34194803237915		5.0	5.0	0.0	1	5.0	4.9836554527282715	the postcode for the X-name is X-postcode .	
inform(name=X-name,area=X-area)	6.0	6.0	0.0	1	5.0	5.054844856262207		6.0	6.0	0.0	1	5.0	4.706775188446045	the X-name is in the X-area area .	
inform(name=X-name,accepts_credit_cards=yes,near=X-near)	5.0	5.0	0.0	1	4.0	3.9895293712615967		5.0	5.0	0.0	1	4.0	3.6738836765289307	X-name is located near X-near and they accept credit cards .	
inform(name=X-name,type=placetoeat,pricerange=moderate,area=X-area,eattype=restaurant)	6.0	6.0	0.0	1	6.0	5.506463050842285		5.0	5.0	0.0	1	5.0	5.262085437774658	X-name is a moderately priced restaurant in the X-area area .	
inform(name=X-name,price_range=moderate)	4.0	4.0	0.0	1	3.0	2.577008008956909		4.0	4.0	0.12982535	0	2.0	2.20644211769104	X-name , is moderate .	
inform(name=X-name,dogs_allowed=none,has_internet=yes,near=X-near,accepts_credit_cards=yes)	5.0	5.0	0.0	1	4.0	3.9172630310058594		4.0	4.0	0.0	1	4.0	3.8447325229644775	the X-name allows dogs and near X-near , has internet and accepts credit cards .	
inform(name=X-name,area=X-area,price_range=moderate)	5.0	5.0	0.0	1	4.0	4.272331714630127		5.0	5.0	0.0	1	4.0	4.001817226409912	X-name has a moderate price range in the area of X-area .	
inform_no_match(kids_allowed=yes,food=moroccan)	5.0	5.0	0.0	1	5.0	4.935739517211914		5.0	5.0	0.0	1	5.0	4.764552116394043	i am sorry , i did not find any restaurants that allows kids and serve moroccan .	
inform(name=X-name,has_internet=yes,phone=X-phone)	5.0	5.0	0.0	1	5.0	5.151484966278076		4.0	4.0	0.0	1	5.0	4.8565473556518555	the X-name does have internet service , and the phone number is X-phone .	
inform_no_match(area=X-area)	4.0	4.0	0.0	1	5.0	4.904968738555908		4.0	4.0	0.0	1	5.0	4.526798725128174	there are no hotels in the X-area area .	
inform_no_match(area=X-area,kids_allowed=yes,price_range=expensive)	6.0	6.0	0.0	1	4.0	4.142991065979004		6.0	6.0	0.0	1	4.0	3.9660277366638184	there are no expensively priced restaurants in the X-area area which allow children .	
inform(name=X-name,area=X-area)	3.0	3.0	0.0	1	3.0	2.9046621322631836		3.0	3.0	0.0	1	3.0	2.7190377712249756	there is a hotel called in X-name and in the area of X-area .	
inform(name=X-name,type=placetoeat,eattype=restaurant,near=X-near,area=X-area)	5.0	5.0	0.0	1	5.0	4.871466636657715		6.0	6.0	0.0	1	5.0	4.673774242401123	X-name is a restaurant in the city centre near X-near .	
inform(name=X-name,area=X-area,food=indian,good_for_meal=dinner)	2.0	2.0	0.0	1	4.0	3.783799171447754		3.0	3.0	0.0	1	4.0	3.5148561000823975	X-name , is good for dinner that serves indian food in the X-area area .	
inform(name=X-name,food=vegetarian)	6.0	6.0	0.0	1	5.0	4.988742828369141		6.0	6.0	0.0	1	5.0	4.589249134063721	X-name serves vegetarian food .	
inform(name=X-name,address=X-address,phone=X-phone)	5.0	5.0	0.0	1	6.0	5.746640682220459		4.0	4.0	0.0	1	5.0	5.445533275604248	the address of X-name is X-address . the phone number is X-phone .	
inform(name=X-name,price_range=cheap,kids_allowed=yes)	5.0	5.0	0.0	1	4.0	4.414294242858887		4.0	4.0	0.0	1	4.0	4.159580707550049	X-name is cheap and allows children .	
inform(name=X-name,price_range=expensive,near=X-near)	4.0	4.0	0.0	1	4.0	4.356561660766602		5.0	5.0	0.0	1	4.0	4.079089164733887	X-name near X-near offers expensive food .	
inform(name=X-name,address=X-address)	5.0	5.0	0.0	1	5.0	5.426418781280518		3.0	3.0	0.0	1	5.0	5.134660720825195	the address for X-name is X-address .	
inform(name=X-name,dogs_allowed=none,phone=X-phone)	6.0	6.0	0.0	1	5.0	4.546466827392578		6.0	6.0	0.0	1	4.0	4.315585136413574	the phone number for X-name is X-phone no dogs are allowed there .	
inform(type=restaurant,count=X-count,area=X-area)	6.0	6.0	0.0	1	5.0	5.135522365570068		6.0	6.0	0.0	1	5.0	4.950204372406006	we have X-count restaurants listed in the X-area area .	
inform(name=X-name,kids_allowed=no,good_for_meal=brunch,near=X-near)	5.0	5.0	0.0	1	5.0	4.861220836639404		4.0	4.0	0.0	1	5.0	4.613125324249268	X-name is near X-near and does not allow kids for brunch .	
inform(name=X-name,food=mexican,kids_allowed=yes)	5.0	5.0	0.0	1	5.0	4.960962295532227		5.0	5.0	0.0	1	5.0	4.668276309967041	X-name allows kids , and serves mexican food .	
inform(name=X-name,price_range=moderate)	5.0	5.0	0.0	1	5.0	4.876069068908691		5.0	5.0	0.0	1	5.0	4.509603977203369	X-name is in the moderate price range .	
inform(name=X-name,address=X-address,price=X-price)	2.0	2.0	0.0	1	3.0	3.2192277908325195		2.0	2.0	0.0	1	3.0	3.03952693939209	it is located at X-address it is price X-name is X-price .	
inform(name=X-name,food=lounge,price_range=expensive)	4.0	4.0	0.0	1	4.0	4.059330463409424		4.0	4.0	0.0	1	4.0	3.8200953006744385	X-name serves lounge food at a expensive price range .	
inform(name=X-name,address=X-address)	6.0	6.0	0.0	1	5.0	5.426418781280518		5.0	5.0	0.0	1	5.0	5.134660720825195	the address for X-name is X-address .	
inform(name=X-name,area=X-area)	5.0	5.0	0.0	1	5.0	4.759819030761719		4.0	4.0	0.0	1	4.0	4.381607532501221	X-name is in the area of X-area .	
inform(name=X-name,area=X-area,price_range=cheap)	5.0	5.0	0.0	1	4.0	3.5753822326660156		4.0	4.0	0.0	1	3.0	3.2452242374420166	X-name , is in the X-area area with a cheap price range .	
inform(name=X-name,price_range=expensive)	5.0	5.0	0.0	1	5.0	4.666851997375488		5.0	5.0	0.0	1	4.0	4.3348612785339355	X-name is in the expensive price range .	
confirm(near=X-near)	4.0	4.0	0.0	1	4.0	3.963712692260742		4.0	4.0	0.0	1	4.0	3.8034656047821045	do you want it near X-near ?	
confirm(price_range=pricey)	6.0	6.0	0.0	1	3.0	3.0136899948120117		3.0	3.0	0.0	1	3.0	3.0364456176757812	please confirm you are looking for the pricey range ?	
inform(name=X-name,type=restaurant)	6.0	6.0	0.0	1	5.0	4.639429569244385		5.0	5.0	0.0	1	4.0	4.386942386627197	the name of the restaurant is X-name .	
inform(name=X-name,accepts_credit_cards=yes,near=X-near)	4.0	4.0	0.0	1	5.0	4.823304176330566		2.0	2.0	0.0	1	5.0	4.5223469734191895	X-name is near X-near and accepts credit cards .	
inform(name=X-name,type=restaurant)	6.0	6.0	0.0	1	5.0	5.15414571762085		5.0	5.0	0.0	1	5.0	4.837474822998047	X-name is a nice restaurant .	
inform(name=X-name,accepts_credit_cards=yes,dogs_allowed=no,near=X-near)	3.0	3.0	0.0	1	5.0	4.662787437438965		3.0	3.0	0.0	1	4.0	4.443411827087402	the X-name accepts credit cards in the X-near area does not allow dogs .	
inform(name=X-name,type=placetoeat,eattype=restaurant,area=X-area,food='Chinese takeaway',food=Japanese)	5.0	5.0	0.0	1	5.0	5.071165561676025		5.0	5.0	0.0	1	5.0	4.932040691375732	X-name is a japanese restaurant in the city centre .	
inform(type=hotel,count=X-count,has_internet=yes,near=X-near)	6.0	6.0	0.0	1	6.0	5.740382671356201		6.0	6.0	0.0	1	5.0	5.492554664611816	there are X-count hotels with internet near the X-near .	
inform(name=X-name,area=X-area)	6.0	6.0	0.0	1	4.0	3.6025102138519287		4.0	4.0	0.0	1	3.0	3.273838758468628	X-name is in the X-area hill area .	
select(accepts_credit_cards='yes or no')	4.0	4.0	0.0	1	4.0	3.9220316410064697		5.0	5.0	0.0	1	4.0	3.917426347732544	would you like a hotel that accepts credit cards or is that not an issue ?	
inform(name=X-name,price_range=moderate)	4.0	4.0	0.0	1	4.0	3.7109944820404053		4.0	4.0	0.0	1	3.0	3.465938091278076	the X-name is a moderate hotel .	
inform(name=X-name,kids_allowed=no,near=X-near)	6.0	6.0	0.0	1	5.0	4.625292778015137		6.0	6.0	0.0	1	4.0	4.353898048400879	X-name , is a nice restaurant near X-near that does not allow children .	
inform(name=X-name,type=placetoeat,eattype=restaurant,near=X-near,area=X-area,area=X-area)	3.0	3.0	0.0	1	5.0	4.799234390258789		2.0	2.0	0.0	1	5.0	4.562167644500732	X-name is a restaurant in X-near near X-area and .	
inform(name=X-name,address=X-address)	4.0	4.0	0.0	1	5.0	5.426418781280518		5.0	5.0	0.0	1	5.0	5.134660720825195	the address for X-name is X-address .	
inform(name=X-name,type=placetoeat,eattype=restaurant,near=X-near,area=X-area,food=Indian)	5.0	5.0	0.0	1	4.0	4.463061809539795		5.0	5.0	0.0	1	4.0	4.326739311218262	X-name is an indian restaurant in the X-near area near X-area .	
inform(name=X-name,has_internet=yes)	6.0	6.0	0.0	1	5.0	4.852818965911865		6.0	6.0	0.0	1	4.0	4.426893711090088	X-name has internet .	
inform(name=X-name,has_internet=yes)	6.0	6.0	0.0	1	5.0	4.852818965911865		4.0	4.0	0.0	1	4.0	4.426893711090088	X-name has internet .	
inform(name=X-name,type=placetoeat,eattype=restaurant,pricerange=expensive,near=X-near)	5.0	5.0	0.0	1	5.0	5.121603965759277		5.0	5.0	0.0	1	5.0	4.955548286437988	X-name is an expensive restaurant near X-near .	
inform(name=X-name,area=X-area,dogs_allowed=none)	2.0	2.0	0.0	1	4.0	3.967115879058838		3.0	3.0	0.0	1	4.0	3.7078075408935547	there is not any information if the X-name in the X-area area allows dogs .	
inform(name=X-name,near=X-near,price_range=moderate)	2.0	2.0	0.0	1	5.0	4.912774085998535		2.0	2.0	0.0	1	5.0	4.598841190338135	X-name is a moderate restaurant near X-near .	
select(kids_allowed='yes or no')	5.0	5.0	0.0	1	5.0	5.311986923217773		5.0	5.0	0.0	1	5.0	5.032188415527344	are you looking for a restaurant that allows kids , or does not allow kids ?	
inform(name=X-name,area=X-area,kids_allowed=no,price_range=expensive)	2.0	2.0	0.0	1	5.0	5.074204444885254		3.0	3.0	0.0	1	5.0	4.716541290283203	X-name is expensively priced in the X-area area and does not allow kids .	
inform(name=X-name,good_for_meal=lunch,kids_allowed=no,price_range=cheap)	4.0	4.0	0.0	1	4.0	4.016970157623291		4.0	4.0	0.0	1	4.0	3.803366184234619	X-name is in the cheap price range , does not allow children and is good for lunch .	
inform(name=X-name,area=X-area,address=X-address)	6.0	6.0	0.0	1	5.0	5.086141586303711		6.0	6.0	0.0	1	5.0	4.929722785949707	X-name is in the X-area area and the address is X-address .	
inform(name=X-name,address=X-address,phone=X-phone,postcode=X-postcode)	5.0	5.0	0.0	1	6.0	5.712284088134766		5.0	5.0	0.0	1	5.0	5.479978084564209	X-name , is at X-address , phone number is X-phone , and the postcode is X-postcode .	
inform(name=X-name,near=X-near,price_range=inexpensive)	3.0	3.0	0.0	1	4.0	3.5883595943450928		1.0	1.0	0.0	1	3.0	3.3029565811157227	okay well the X-name , near the X-near in your price inexpensive range .	
inform(type=restaurant,count=X-count,good_for_meal=brunch)	6.0	6.0	0.0	1	6.0	6.0		6.0	6.0	0.0	1	6.0	5.639134883880615	there are X-count restaurants that are good for brunch .	
inform(name=X-name,accepts_credit_cards=yes,dogs_allowed=no,near=X-near)	4.0	4.0	0.0	1	4.0	4.112906455993652		4.0	4.0	0.0	1	4.0	3.829181671142578	X-name is near X-near and accepts credit cards but does not allow dogs .	
inform(name=X-name,type=placetoeat,eattype=restaurant,area=X-area,near=X-near,food=Chinese)	6.0	6.0	0.0	1	5.0	4.568589687347412		6.0	6.0	0.0	1	5.0	4.5531816482543945	X-name is a chinese restaurant in the riverside area near X-near .	
inform(name=X-name,area=X-area,dogs_allowed=yes)	4.0	4.0	0.0	1	3.0	2.763165235519409		3.0	3.0	0.0	1	3.0	2.6962926387786865	yes there is the X-name and in the X-area area that allows dogs .	
inform(name=X-name,food=Chinese,eattype=restaurant,area=X-area)	2.0	2.0	0.0	1	4.0	4.323668479919434		6.0	6.0	0.0	1	4.0	4.114767551422119	X-name is a chinese restaurant in the riverside area .	
inform(name=X-name,accepts_credit_cards=yes)	6.0	6.0	0.0	1	4.0	4.3806610107421875		6.0	6.0	0.0	1	4.0	4.104742050170898	X-name accepts credit cards .	
inform(name=X-name,accepts_credit_cards=yes)	3.0	3.0	0.0	1	4.0	4.3806610107421875		3.0	3.0	0.0	1	4.0	4.104742050170898	X-name accepts credit cards .	
inform(name=X-name,area=X-area,phone=X-phone)	3.0	3.0	0.0	1	6.0	5.636836051940918		6.0	6.0	0.0	1	5.0	5.281257629394531	X-name is in the area of X-area and the number is X-phone .	
inform(name=X-name,type=restaurant)	5.0	5.0	0.0	1	5.0	5.15414571762085		4.0	4.0	0.0	1	5.0	4.837474822998047	X-name is a nice restaurant .	
inform(name=X-name,near=X-near,kids_allowed=no,good_for_meal=dinner)	5.0	5.0	0.0	1	4.0	4.031860828399658		4.0	4.0	0.0	1	4.0	3.7629454135894775	X-name is near X-near and does not allow kids for dinner .	
inform(type=restaurant,count=X-count,food=basque,kids_allowed=no,price_range=moderate)	6.0	6.0	0.0	1	6.0	5.606271266937256		6.0	6.0	0.0	1	5.0	5.220145225524902	there are X-count basque restaurants that are moderately priced and do not allow kids .	
inform(name=X-name,food='ethnic food or russian')	6.0	6.0	0.0	1	3.0	3.3189339637756348		5.0	5.0	0.0	1	3.0	3.2272138595581055	X-name serves ethnic food or russian food .	
inform(name=X-name,area=X-area,address=X-address)	3.0	3.0	0.0	1	4.0	4.201910972595215		2.0	2.0	0.0	1	4.0	4.058591365814209	X-name , is in the X-area area and it is address is X-address .	
inform(name=X-name,type=placetoeat,eattype=restaurant,pricerange=expensive,area=X-area,near=X-near)	6.0	6.0	0.0	1	4.0	4.297130584716797		6.0	6.0	0.0	1	4.0	4.113873481750488	X-name is an expensive restaurant , in the riverside area near X-near .	
inform(type=restaurant,count=X-count,good_for_meal=dinner,kids_allowed=yes)	6.0	6.0	0.0	1	5.0	5.326079368591309		5.0	5.0	0.0	1	5.0	5.028620719909668	there are X-count result for a place with a good dinner that allows kids .	
inform(name=X-name,kids_allowed=no)	6.0	6.0	0.0	1	5.0	4.9965996742248535		6.0	6.0	0.0	1	5.0	4.591657638549805	X-name is a nice restaurant that does not allow children .	
inform(name=X-name,type=hotel)	6.0	6.0	0.0	1	5.0	5.181740760803223		5.0	5.0	0.0	1	5.0	4.887684345245361	the X-name is a nice hotel .	
inform_no_match(area=X-area)	6.0	6.0	0.0	1	5.0	4.9426093101501465		6.0	6.0	0.0	1	5.0	4.569812297821045	i am sorry but there are no hotels in the area of X-area .	
inform(name=X-name,postcode=X-postcode)	6.0	6.0	0.0	1	5.0	5.436197757720947		5.0	5.0	0.0	1	5.0	5.060342311859131	the postcode of X-name is X-postcode .	
inform(name=X-name,type=placetoeat,eattype=restaurant,near=X-near,area=X-area)	3.0	3.0	0.0	1	4.0	4.139753341674805		2.0	2.0	0.0	1	4.0	3.982757568359375	X-name is a restaurant in the centre of town located near X-near .	
inform(type=restaurant,count=X-count,good_for_meal=dinner,near=X-near)	2.0	2.0	0.0	1	5.0	5.468786716461182		1.0	1.0	0.0	1	5.0	5.211097717285156	there are X-count restaurants a nice food near X-near which to good for dinner .	
inform(name=X-name,area=X-area)	6.0	6.0	0.0	1	5.0	5.108095645904541		6.0	6.0	0.0	1	5.0	4.748354434967041	X-name is a nice restaurant in the area of X-area .	
inform(name=X-name,phone=X-phone)	5.0	5.0	0.0	1	6.0	5.8973069190979		5.0	5.0	0.0	1	5.0	5.499774932861328	the phone number for X-name is X-phone .	
inform(name=X-name,phone=X-phone)	5.0	5.0	0.0	1	6.0	5.8973069190979		5.0	5.0	0.0	1	5.0	5.499774932861328	the phone number for X-name is X-phone .	
inform(name=X-name,has_internet=yes)	6.0	6.0	0.0	1	5.0	4.852818965911865		5.0	5.0	0.0	1	4.0	4.426893711090088	X-name has internet .	
inform(name=X-name,has_internet=yes)	5.0	5.0	0.0	1	5.0	4.852818965911865		1.0	1.0	0.0	1	4.0	4.426893711090088	X-name has internet .	
confirm(price_range=dont_care)	4.0	4.0	0.0	1	4.0	3.797055721282959		4.0	4.0	0.0	1	4.0	3.6615822315216064	can i confirm that you do not care about the price range ?	
confirm(price_range=dont_care)	4.0	4.0	0.0	1	4.0	3.797055721282959		4.0	4.0	0.0	1	4.0	3.6615822315216064	can i confirm that you do not care about the price range ?	
inform(name=X-name,type=restaurant)	6.0	6.0	0.0	1	5.0	4.639429569244385		6.0	6.0	0.0	1	4.0	4.386942386627197	the name of the restaurant is X-name .	
inform(name=X-name,food=vegetarian)	6.0	6.0	0.0	1	5.0	5.083639621734619		6.0	6.0	0.0	1	5.0	4.722476482391357	there is a vegetarian restaurant called X-name .	
inform(name=X-name,near=X-near)	4.0	4.0	0.0	1	3.0	3.095116376876831		3.0	3.0	0.0	1	3.0	2.7331759929656982	he X-name is located near X-near .	
inform(type=hotel,count=X-count,accepts_credit_cards=yes,price_range=pricey,area=X-area)	5.0	5.0	0.0	1	5.0	4.784154415130615		5.0	5.0	0.0	1	4.0	4.487765789031982	there are X-count hotels in the area of X-area , they are priceyly priced and accepts credit cards .	
inform(name=X-name,type=placetoeat,eattype=restaurant,area=X-area,food=Indian,food='Indian takeaway')	5.0	5.0	0.22489715	0	2.0	1.9413859844207764		2.0	2.0	0.31612313	0	2.0	1.9793933629989624	X-name is an indian restaurant that provides indian takeaway riverside .	
inform(name=X-name,phone=X-phone)	6.0	6.0	0.0	1	6.0	5.8973069190979		5.0	5.0	0.0	1	5.0	5.499774932861328	the phone number for X-name is X-phone .	
inform(name=X-name,price_range=moderate)	3.0	3.0	0.0	1	3.0	2.577008008956909		3.0	3.0	0.12982535	0	2.0	2.20644211769104	X-name , is moderate .	
inform(name=X-name,type=placetoeat,eattype=restaurant,area=X-area,area=X-area,food=Indian)	5.0	5.0	0.0	1	5.0	4.8341264724731445		5.0	5.0	0.0	1	5.0	4.620903491973877	X-name is an indian restaurant in X-area and X-area .	
inform_no_match(area=X-area)	5.0	5.0	0.0	1	5.0	4.9426093101501465		6.0	6.0	0.0	1	5.0	4.569812297821045	i am sorry but there are no hotels in the area of X-area .	
inform(name=X-name,good_for_meal=dinner)	5.0	5.0	0.0	1	4.0	4.089840888977051		4.0	4.0	0.0	1	4.0	3.7021260261535645	X-name , is good for dinner .	
inform(name=X-name,type=placetoeat,pricerange=expensive,near=X-near,near=X-near,area=X-area,eattype=restaurant)	3.0	3.0	0.0	1	5.0	4.771639347076416		3.0	3.0	0.0	1	5.0	4.59372091293335	X-name is an expensive restaurant in X-near near X-near and X-area .	
inform(name=X-name,kids_allowed=yes,food=pizza)	4.0	4.0	0.0	1	4.0	4.4133734703063965		2.0	2.0	0.0	1	4.0	4.206968307495117	X-name allows kids , and serves pizza food .	
inform(type=restaurant,count=X-count,price_range=cheap,area=X-area)	5.0	5.0	0.0	1	6.0	5.7297563552856445		5.0	5.0	0.0	1	5.0	5.323821544647217	there are X-count cheap restaurants in X-area .	
inform(name=X-name,area=X-area,address=X-address)	6.0	6.0	0.0	1	4.0	4.200429916381836		4.0	4.0	0.0	1	4.0	4.1301727294921875	X-name is in the X-area hill area and the address is X-address .	
inform(type=hotel,count=X-count,area=X-area)	6.0	6.0	0.0	1	6.0	5.624490737915039		5.0	5.0	0.0	1	5.0	5.24395227432251	there are X-count hotels in the X-area area .	
inform(name=X-name,phone=X-phone)	5.0	5.0	0.0	1	6.0	5.7778191566467285		5.0	5.0	0.0	1	5.0	5.4671173095703125	you may reach the X-name at X-phone .	
inform(name=X-name,address=X-address,phone=X-phone)	5.0	5.0	0.0	1	6.0	5.83721923828125		5.0	5.0	0.0	1	5.0	5.497217178344727	X-name 's address is X-address , and its phone number is X-phone .	
inform(name=X-name,postcode=X-postcode)	1.0	1.0	0.0	1	5.0	5.457610130310059		2.0	2.0	0.0	1	5.0	5.086413383483887	the postcode for X-name is X-postcode .	
inform(name=X-name,near=X-near)	6.0	6.0	0.0	1	3.0	3.095116376876831		2.0	2.0	0.0	1	3.0	2.7331759929656982	he X-name is located near X-near .	
inform(name=X-name,food='raw food')	6.0	6.0	0.0	1	5.0	4.567012786865234		6.0	6.0	0.0	1	4.0	4.205965042114258	there is a raw food restaurant called X-name .	
inform(name=X-name,area=X-area)	6.0	6.0	0.0	1	5.0	5.054844856262207		6.0	6.0	0.0	1	5.0	4.706775188446045	the X-name is in the X-area area .	
inform(name=X-name,kids_allowed=yes,food=pizza)	4.0	4.0	0.0	1	4.0	4.407868385314941		4.0	4.0	0.0	1	4.0	4.213072299957275	X-name allows kids and serves pizza food .	
inform(name=X-name,type=placetoeat,eattype=restaurant,area=X-area,food=Italian,food='Takeaway pizza')	6.0	6.0	0.25783837	0	2.0	1.8155776262283325		6.0	6.0	0.51612973	0	2.0	1.7795212268829346	X-name is an italian restaurant that provides takeaway pizza in the centre of town .	
inform(name=X-name,good_for_meal=dinner,area=X-area)	5.0	5.0	0.0	1	4.0	4.419544696807861		5.0	5.0	0.0	1	4.0	4.079066276550293	X-name , is good for dinner , and is in the X-area area .	
inform(name=X-name,food=pizza)	5.0	5.0	0.0	1	5.0	4.86283016204834		6.0	6.0	0.0	1	5.0	4.6334638595581055	there is a pizza restaurant called X-name .	
inform(name=X-name,type=placetoeat,eattype=restaurant)	6.0	6.0	0.0	1	5.0	5.179728031158447		6.0	6.0	0.0	1	5.0	4.932340621948242	X-name is a restaurant .	
inform(name=X-name,type=placetoeat,eattype=restaurant)	6.0	6.0	0.0	1	5.0	5.179728031158447		6.0	6.0	0.0	1	5.0	4.932340621948242	X-name is a restaurant .	
inform(name=X-name,area=X-area)	3.0	3.0	0.0	1	3.0	2.9046621322631836		3.0	3.0	0.0	1	3.0	2.7190377712249756	there is a hotel called in X-name and in the area of X-area .	
inform(name=X-name,address=X-address,phone=X-phone)	5.0	5.0	0.0	1	6.0	5.800821304321289		1.0	1.0	0.0	1	5.0	5.468519687652588	X-name is located at X-address and the phone number is X-phone .	
inform_no_match(area=X-area)	5.0	5.0	0.0	1	5.0	5.214570045471191		4.0	4.0	0.0	1	5.0	4.82533597946167	i am sorry but there are no hotels in the X-area area .	
inform(name=X-name,food=lebanese)	5.0	5.0	0.0	1	5.0	4.773926734924316		5.0	5.0	0.0	1	4.0	4.4981207847595215	there is a lebanese restaurant called X-name .	
inform_only_match(name=X-name,near=X-near)	4.0	4.0	0.0	1	5.0	4.625222206115723		3.0	3.0	0.0	1	4.0	4.416585445404053	X-name is the only hotel near X-near .	
inform(name=X-name,address=X-address,phone=X-phone)	4.0	4.0	0.0	1	6.0	5.737064361572266		4.0	4.0	0.0	1	5.0	5.438192844390869	the address of X-name is X-address and the phone number is X-phone .	
inform_no_match(food=steak,price_range=cheap)	3.0	3.0	0.0	1	3.0	3.1281650066375732		3.0	3.0	0.0	1	3.0	3.059556722640991	i am sorry , i can not find any restaurants that serve steak food and are cheap .	
inform(name=X-name,area=X-area,price_range=cheap)	6.0	6.0	0.0	1	4.0	3.758296489715576		6.0	6.0	0.0	1	3.0	3.49340558052063	X-name is in the area of X-area and it is in the cheap price range .	
inform(name=X-name,type=placetoeat,eattype=restaurant,near=X-near,food=Seafood)	6.0	6.0	0.0	1	5.0	5.2307353019714355		6.0	6.0	0.0	1	5.0	5.061811923980713	X-name is a seafood restaurant near X-near .	
inform(name=X-name,type=placetoeat,pricerange=expensive,area=X-area,near=X-near,near=X-near,eattype=restaurant)	5.0	5.0	0.0	1	5.0	4.8127241134643555		6.0	6.0	0.0	1	5.0	4.737364768981934	X-name is an expensive restaurant in X-area near X-near and X-near .	
request(good_for_meal)	6.0	6.0	0.0	1	5.0	5.328933238983154		5.0	5.0	0.0	1	5.0	4.978519916534424	are you looking for breakfast , brunch , lunch or dinner ?	
inform(name=X-name,address=X-address,postcode=X-postcode)	2.0	2.0	0.0	1	6.0	5.858883380889893		3.0	3.0	0.0	1	6.0	5.544100284576416	X-name , is located at X-address , X-postcode .	
inform(name=X-name,price_range=pricey,dogs_allowed=yes)	6.0	6.0	0.0	1	3.0	3.424119710922241		5.0	5.0	0.0	1	3.0	3.324633836746216	the X-name allows dogs and is in the pricey price range .	
inform(name=X-name,type=restaurant)	6.0	6.0	0.0	1	5.0	4.639429569244385		5.0	5.0	0.0	1	4.0	4.386942386627197	the name of the restaurant is X-name .	
inform(name=X-name,phone=X-phone)	5.0	5.0	0.0	1	6.0	5.7778191566467285		5.0	5.0	0.0	1	5.0	5.4671173095703125	you may reach the X-name at X-phone .	
inform(name=X-name,near=X-near)	5.0	5.0	0.0	1	5.0	4.636220455169678		4.0	4.0	0.0	1	4.0	4.259613990783691	X-name , is near the X-near .	
inform(name=X-name,type=placetoeat,pricerange=moderate,area=X-area,near=X-near,eattype=restaurant)	5.0	5.0	0.0	1	4.0	4.428584098815918		4.0	4.0	0.0	1	4.0	4.414506912231445	X-name is a restaurant in the moderate price range close to X-area in X-near .	
inform(type=restaurant,count=X-count,price_range=dont_care)	5.0	5.0	0.0	1	6.0	5.6512298583984375		5.0	5.0	0.0	1	5.0	5.259819030761719	there are X-count restaurants in any price range .	
inform_no_match(area=X-area)	3.0	3.0	0.0	1	5.0	5.0413737297058105		4.0	4.0	0.0	1	5.0	4.68095588684082	there are no restaurants in the X-area area .	
inform(name=X-name,accepts_credit_cards=yes)	5.0	5.0	0.0	1	4.0	4.3806610107421875		5.0	5.0	0.0	1	4.0	4.104742050170898	X-name accepts credit cards .	
inform(name=X-name,accepts_credit_cards=yes)	4.0	4.0	0.0	1	4.0	4.3806610107421875		3.0	3.0	0.0	1	4.0	4.104742050170898	X-name accepts credit cards .	
inform(name=X-name,price_range=moderate)	3.0	3.0	0.0	1	4.0	3.7109944820404053		3.0	3.0	0.0	1	3.0	3.465938091278076	the X-name is a moderate hotel .	
inform(name=X-name,type=placetoeat,eattype=restaurant,area=X-area,food=Indian,food='Indian takeaway')	6.0	6.0	0.0	1	4.0	3.6925623416900635		6.0	6.0	0.0	1	4.0	3.6178596019744873	X-name is an indian restaurant in the riverside area .	
inform(name=X-name,price_range='ultra high end',address=X-address)	4.0	4.0	0.0	1	5.0	5.080822944641113		5.0	5.0	0.0	1	5.0	4.923501968383789	X-name has a ultra high endly priced hotel located at X-address .	
inform(name=X-name,area=X-area)	4.0	4.0	0.0	1	5.0	5.054844856262207		4.0	4.0	0.0	1	5.0	4.706775188446045	the X-name is in the X-area area .	
inform(name=X-name,address=X-address)	6.0	6.0	0.0	1	5.0	5.426418781280518		5.0	5.0	0.0	1	5.0	5.134660720825195	the address for X-name is X-address .	
inform(name=X-name,phone=X-phone,postcode=X-postcode)	3.0	3.0	0.0	1	5.0	5.385477542877197		3.0	3.0	0.0	1	5.0	5.075154781341553	X-name , phone number is X-phone , and the postcode is X-postcode .	
inform(name=X-name,price_range=cheap)	6.0	6.0	0.0	1	5.0	4.589557647705078		4.0	4.0	0.0	1	4.0	4.22808313369751	X-name is in the cheap price range .	
inform(type=restaurant,count=X-count,good_for_meal=dont_care,food=pizza,kids_allowed=yes)	5.0	5.0	0.0	1	5.0	5.34382963180542		2.0	2.0	0.0	1	5.0	5.096619606018066	there are X-count restaurants that allow kids pizza are allowed for any meal .	
inform(name=X-name,good_for_meal=dinner,near=X-near,price_range=moderate)	3.0	3.0	0.0	1	4.0	3.7558703422546387		4.0	4.0	0.0	1	4.0	3.589076519012451	X-name is a good , moderate restaurant for dinner located near X-near .	
inform(name=X-name,food='peruvian or tapas')	4.0	4.0	0.0	1	5.0	4.690799236297607		4.0	4.0	0.0	1	4.0	4.468586444854736	X-name serves peruvian or tapas food .	
inform(name=X-name,kids_allowed=yes)	6.0	6.0	0.0	1	5.0	5.023921012878418		4.0	4.0	0.0	1	5.0	4.756092548370361	X-name is a nice restaurant that allows children .	
inform(name=X-name,price_range=moderate,address=X-address)	4.0	4.0	0.0	1	5.0	5.271003246307373		4.0	4.0	0.0	1	5.0	5.120314598083496	the X-name is moderate , and the address is X-address .	
inform(name=X-name,area=X-area)	2.0	2.0	0.0	1	3.0	2.831237554550171		4.0	4.0	0.0	1	3.0	2.6677582263946533	there is a hotel called in the X-name and in the area of X-area .	
inform(name=X-name,price_range=cheap,near=X-near,kids_allowed=no)	5.0	5.0	0.0	1	4.0	4.467596054077148		4.0	4.0	0.0	1	4.0	4.0959014892578125	X-name , is near X-near , does not allow kids , and is cheap .	
inform(name=X-name,good_for_meal=lunch)	4.0	4.0	0.0	1	5.0	5.0291242599487305		4.0	4.0	0.0	1	5.0	4.566651821136475	X-name , is good for lunch .	
inform(name=X-name,type=placetoeat,eattype=restaurant,near=X-near,pricerange=expensive,area=X-area)	5.0	5.0	0.0	1	3.0	2.879126787185669		5.0	5.0	0.0	1	3.0	2.776639461517334	X-name is an expensive restaurant near X-near and in the centre of town .	
inform(name=X-name,type=placetoeat,near=X-near,area=X-area,area=X-area,eattype=restaurant)	2.0	2.0	0.0	1	5.0	4.564018726348877		2.0	2.0	0.0	1	4.0	4.3538498878479	X-name is a restaurant in X-near on and to X-area .	
inform(name=X-name,price_range=moderate,near=X-near,good_for_meal=dinner)	4.0	4.0	0.0	1	3.0	2.915207624435425		4.0	4.0	0.0	1	3.0	2.7924842834472656	X-name , is near X-near , the is good for dinner , and it is in the moderate price range .	
inform(name=X-name,area=X-area,address=X-address)	5.0	5.0	0.0	1	4.0	4.201910972595215		5.0	5.0	0.0	1	4.0	4.058591365814209	X-name , is in the X-area area and it is address is X-address .	
inform(name=X-name,area=X-area,accepts_credit_cards=yes)	4.0	4.0	0.0	1	4.0	3.6498873233795166		4.0	4.0	0.0	1	3.0	3.4453125	repeats X-name , accepts credit cards , and in X-area .	
inform(name=X-name,area=X-area,address=X-address)	3.0	3.0	0.0	1	4.0	4.201910972595215		3.0	3.0	0.0	1	4.0	4.058591365814209	X-name , is in the X-area area and it is address is X-address .	
inform(name=X-name,type=restaurant)	4.0	4.0	0.0	1	5.0	4.639429569244385		5.0	5.0	0.0	1	4.0	4.386942386627197	the name of the restaurant is X-name .	
inform(name=X-name,area=X-area,price_range=expensive,food=japanese)	6.0	6.0	0.0	1	5.0	4.772077560424805		6.0	6.0	0.0	1	4.0	4.411466598510742	X-name is a expensive japanese restaurant in the X-area area .	
inform_no_match(near=X-near,price_range=expensive)	5.0	5.0	0.0	1	5.0	5.16446590423584		5.0	5.0	0.0	1	5.0	4.857846260070801	there are no expensively priced restaurants near X-near .	
inform(name=X-name,price_range=moderate)	5.0	5.0	0.0	1	5.0	5.058925628662109		5.0	5.0	0.0	1	5.0	4.725396633148193	the X-name is in the moderate price range .	
inform(name=X-name,type=restaurant)	4.0	4.0	0.0	1	5.0	4.639429569244385		4.0	4.0	0.0	1	4.0	4.386942386627197	the name of the restaurant is X-name .	
inform(name=X-name,area=X-area,phone=X-phone)	3.0	3.0	0.0	1	5.0	5.241747856140137		3.0	3.0	0.0	1	5.0	4.85523796081543	X-name , is in the X-area call X-phone .	
inform(name=X-name,type=restaurant)	5.0	5.0	0.0	1	5.0	5.15414571762085		5.0	5.0	0.0	1	5.0	4.837474822998047	X-name is a nice restaurant .	
inform(name=X-name,type=restaurant)	6.0	6.0	0.0	1	5.0	5.15414571762085		6.0	6.0	0.0	1	5.0	4.837474822998047	X-name is a nice restaurant .	
inform(name=X-name,food='comfort food',good_for_meal=dinner)	3.0	3.0	0.0	1	4.0	3.675971269607544		3.0	3.0	0.0	1	3.0	3.4137306213378906	X-name , is a good restaurant that serves comfort food food , especially for dinner .	
inform(name=X-name,price_range=pricey,phone=X-phone)	2.0	2.0	0.0	1	5.0	5.029233932495117		4.0	4.0	0.0	1	5.0	4.774799823760986	the X-name is in the pricey price range and the phone number is X-phone .	
inform(name=X-name,near=X-near,has_internet=yes)	4.0	4.0	0.0	1	4.0	4.228281497955322		3.0	3.0	0.0	1	4.0	3.964052200317383	the X-name , near the X-near does offer internet .	
inform_no_match(area=X-area)	5.0	5.0	0.0	1	5.0	5.214570045471191		5.0	5.0	0.0	1	5.0	4.82533597946167	i am sorry but there are no hotels in the X-area area .	
inform(name=X-name,price_range=pricey,area=X-area)	4.0	4.0	0.0	1	4.0	4.022305965423584		4.0	4.0	0.0	1	4.0	3.70463228225708	X-name is in the X-area area and it is pricey .	
inform(name=X-name,address=X-address,phone=X-phone)	5.0	5.0	0.0	1	6.0	5.835147857666016		5.0	5.0	0.0	1	6.0	5.515310287475586	X-name is located at X-address , and their phone number is X-phone .	
inform(name=X-name,type=restaurant)	5.0	5.0	0.0	1	5.0	4.639429569244385		5.0	5.0	0.0	1	4.0	4.386942386627197	the name of the restaurant is X-name .	
inform(name=X-name,near=X-near,has_internet=yes)	4.0	4.0	0.0	1	4.0	4.228281497955322		4.0	4.0	0.0	1	4.0	3.964052200317383	the X-name , near the X-near does offer internet .	
inform(name=X-name,postcode=X-postcode)	6.0	6.0	0.0	1	5.0	5.34194803237915		5.0	5.0	0.0	1	5.0	4.9836554527282715	the postcode for the X-name is X-postcode .	
inform(name=X-name,type=placetoeat,eattype=restaurant,area=X-area,area=X-area)	4.0	4.0	0.0	1	5.0	5.1946940422058105		4.0	4.0	0.0	1	5.0	4.908813953399658	X-name is a restaurant in X-area and X-area .	
inform(name=X-name,good_for_meal=breakfast,area=X-area,kids_allowed=no)	5.0	5.0	0.0	1	5.0	4.8674092292785645		5.0	5.0	0.0	1	5.0	4.502294540405273	X-name , is a nice restaurant in the X-area area that allows children , and is good for breakfast .	
inform(name=X-name,phone=X-phone)	6.0	6.0	0.0	1	6.0	5.8973069190979		6.0	6.0	0.0	1	5.0	5.499774932861328	the phone number for X-name is X-phone .	
inform(name=X-name,phone=X-phone)	6.0	6.0	0.0	1	6.0	5.8973069190979		5.0	5.0	0.0	1	5.0	5.499774932861328	the phone number for X-name is X-phone .	
inform(name=X-name,area=X-area,dogs_allowed=none)	6.0	6.0	0.0	1	4.0	4.021530628204346		6.0	6.0	0.0	1	4.0	3.6849887371063232	X-name is located near X-area and do not allow dogs .	
inform(name=X-name,has_internet=yes,near=X-near)	5.0	5.0	0.0	1	4.0	4.285943031311035		5.0	5.0	0.0	1	4.0	3.9740045070648193	X-name is near X-near and has internet .	
inform(name=X-name,type=placetoeat,eattype=restaurant,near=X-near,area=X-area)	3.0	3.0	0.0	1	2.0	2.1930887699127197		5.0	5.0	0.06430626	0	2.0	2.138533115386963	X-name is a restaurant located in X-near in the X-area area near x and x .	
inform(type=restaurant,count=X-count,kids_allowed=dont_care,area=X-area)	3.0	3.0	0.0	1	5.0	4.876022815704346		2.0	2.0	0.0	1	5.0	4.558524131774902	there are X-count restaurants in the X-area area do not care whether the kids are allowed .	
inform(name=X-name,food=afghan)	5.0	5.0	0.0	1	5.0	4.799234867095947		4.0	4.0	0.0	1	4.0	4.48244047164917	X-name serves afghan food .	
