2019-05-16 10:01:09,008 'pattern' package not found; tag filters are not available for English
Thu May 16 10:01:09 2019 INFO: Loading predictor from model_s1.pickle.gz...
2019-05-16 10:02:11.507383: I tensorflow/core/platform/cpu_feature_guard.cc:137] Your CPU supports instructions that this TensorFlow binary was not compiled to use: SSE4.1 SSE4.2 AVX FMA
Thu May 16 10:02:11 2019 INFO: Looking for TF saved session...
2019-05-16 10:02:11,621 Restoring parameters from /home/ksevegnani/ratpred/model_s1.tfsess
Thu May 16 10:02:18 2019 INFO: Loading test data from ../data/preproc_data/v3.3cv/noref_fs/cv00/test.tsv...
Thu May 16 10:02:18 2019 INFO: Loading data from ../data/preproc_data/v3.3cv/noref_fs/cv00/test.tsv...
Thu May 16 10:02:18 2019 INFO: Reading ../data/preproc_data/v3.3cv/noref_fs/cv00/test.tsv...
Thu May 16 10:02:18 2019 INFO: Loaded 492 instances.
Thu May 16 10:02:18 2019 INFO: Adapted refs data type.
Thu May 16 10:02:19 2019 INFO: Parsed DAs.
Thu May 16 10:02:20 2019 INFO: Preprocessed human refs.
Thu May 16 10:02:22 2019 INFO: Preprocessed system outputs.
Thu May 16 10:02:22 2019 INFO: Preprocessed 2nd system outputs.
Thu May 16 10:02:22 2019 INFO: Delexicalized DAs.
Thu May 16 10:02:22 2019 INFO: Retrieved is_real indications.
Thu May 16 10:02:22 2019 INFO: Built inputs list.
Thu May 16 10:02:22 2019 INFO: Built targets list.
Thu May 16 10:02:22 2019 INFO: Loaded 492 instances.
Thu May 16 10:02:22 2019 INFO: Rating 492 instances...
Thu May 16 10:03:03 2019 INFO: NATURALNESS Distance: 440.577 (avg: 0.895, std: 0.791)
Thu May 16 10:03:03 2019 INFO: NATURALNESS MAE: 0.891, RMSE: 1.200
Thu May 16 10:03:03 2019 INFO: NATURALNESS Accuracy: 0.171
Thu May 16 10:03:03 2019 INFO: NATURALNESS Pearson correlation: 0.369 (p-value 0.000)
Thu May 16 10:03:03 2019 INFO: NATURALNESS Spearman correlation: 0.370 (p-value 0.000)
Thu May 16 10:03:03 2019 INFO: NATURALNESS Pairwise rank accuracy: 0.000
Thu May 16 10:03:03 2019 INFO: NATURALNESS Pairwise rank loss: 0.000 (avg: 0.000)
Thu May 16 10:03:03 2019 INFO: QUALITY Distance: 494.805 (avg: 1.006, std: 0.817)
Thu May 16 10:03:03 2019 INFO: QUALITY MAE: 1.003, RMSE: 1.308
Thu May 16 10:03:03 2019 INFO: QUALITY Accuracy: 0.165
Thu May 16 10:03:03 2019 INFO: QUALITY Pearson correlation: 0.303 (p-value 0.000)
Thu May 16 10:03:03 2019 INFO: QUALITY Spearman correlation: 0.309 (p-value 0.000)
Thu May 16 10:03:03 2019 INFO: QUALITY Pairwise rank accuracy: 0.000
Thu May 16 10:03:03 2019 INFO: QUALITY Pairwise rank loss: 0.000 (avg: 0.000)
Running exp 1/5
2019-05-16 10:03:11,483 'pattern' package not found; tag filters are not available for English
Thu May 16 10:03:11 2019 INFO: Loading configuration from experiments/config/config.yaml...
./run_ratpred.py:30: YAMLLoadWarning: calling yaml.load() without Loader=... is deprecated, as the default Loader is unsafe. Please read https://msg.pyyaml.org/load for full details.
  cfg = yaml.load(fh)
Thu May 16 10:03:11 2019 INFO: Initializing...
Thu May 16 10:03:11 2019 INFO: Training...
Thu May 16 10:03:11 2019 INFO: Loading data from ../data/preproc_data/v3.3cv/noref_fs/cv01/train.tsv...
Thu May 16 10:03:11 2019 INFO: Reading ../data/preproc_data/v3.3cv/noref_fs/cv01/train.tsv...
Thu May 16 10:03:11 2019 INFO: Loaded 8856 instances.
Thu May 16 10:03:11 2019 INFO: Adapted refs data type.
Thu May 16 10:03:12 2019 INFO: Parsed DAs.
Thu May 16 10:03:21 2019 INFO: Preprocessed human refs.
Thu May 16 10:04:04 2019 INFO: Preprocessed system outputs.
Thu May 16 10:04:04 2019 INFO: Preprocessed 2nd system outputs.
Thu May 16 10:04:04 2019 INFO: Delexicalized DAs.
Thu May 16 10:04:04 2019 INFO: Retrieved is_real indications.
Thu May 16 10:04:04 2019 INFO: Built inputs list.
Thu May 16 10:04:04 2019 INFO: Built targets list.
Thu May 16 10:04:04 2019 INFO: Loaded 8856 instances.
Thu May 16 10:04:04 2019 INFO: Kept 8856 instances relevant for naturalness, quality
Thu May 16 10:04:04 2019 INFO: Training rating predictor...
Thu May 16 10:04:04 2019 INFO: Using 8756 training instances.
2019-05-16 10:05:20.770757: I tensorflow/core/platform/cpu_feature_guard.cc:137] Your CPU supports instructions that this TensorFlow binary was not compiled to use: SSE4.1 SSE4.2 AVX FMA
Thu May 16 10:05:27 2019 INFO: Starting passes...
/home/ksevegnani/ratpred/ratpred/predictor.py:1069: RuntimeWarning: invalid value encountered in divide
  rank_acc = ':'.join(['%.3f' % a for a in (rank_corr / rank_n_inst)])
Thu May 16 10:17:41 2019 INFO: PASS 001: duration 0:12:14.194116, cost 1455.863484, rcost 0.000000, acc 0.111:0.123, racc nan:nan, avg. dist 1.868:1.817
Thu May 16 10:17:52 2019 INFO: Validation distance: 241.965:182.060 (avg: 2.420:1.821), accuracy 0.060:0.070, pearson 0.139:0.050, spearman 0.150:0.104, combined cost -43.191
Thu May 16 10:17:52 2019 INFO: Storing in-memory checkpoint...
Thu May 16 10:18:10 2019 INFO: Done.
Thu May 16 10:29:55 2019 INFO: PASS 002: duration 0:11:45.129686, cost 729.433201, rcost 0.000000, acc 0.106:0.111, racc nan:nan, avg. dist 1.615:1.557
Thu May 16 10:30:04 2019 INFO: Validation distance: 148.545:119.601 (avg: 1.485:1.196), accuracy 0.050:0.120, pearson 0.404:0.195, spearman 0.434:0.156, combined cost -118.150
Thu May 16 10:30:04 2019 INFO: Storing in-memory checkpoint...
Thu May 16 10:30:04 2019 INFO: Done.
Thu May 16 10:42:02 2019 INFO: PASS 003: duration 0:11:58.007090, cost 543.936473, rcost 0.000000, acc 0.103:0.109, racc nan:nan, avg. dist 1.443:1.423
Thu May 16 10:42:10 2019 INFO: Validation distance: 126.229:136.830 (avg: 1.262:1.368), accuracy 0.110:0.100, pearson 0.264:0.191, spearman 0.174:0.207, combined cost -83.122
Thu May 16 10:53:44 2019 INFO: PASS 004: duration 0:11:34.300541, cost 455.388629, rcost 0.000000, acc 0.106:0.099, racc nan:nan, avg. dist 1.346:1.337
Thu May 16 10:53:52 2019 INFO: Validation distance: 113.021:122.726 (avg: 1.130:1.227), accuracy 0.110:0.140, pearson 0.418:0.311, spearman 0.386:0.264, combined cost -137.441
Thu May 16 10:53:52 2019 INFO: Storing in-memory checkpoint...
Thu May 16 10:53:52 2019 INFO: Done.
Thu May 16 11:05:16 2019 INFO: PASS 005: duration 0:11:23.457652, cost 431.697526, rcost 0.000000, acc 0.105:0.095, racc nan:nan, avg. dist 1.318:1.315
Thu May 16 11:05:23 2019 INFO: Validation distance: 132.905:133.165 (avg: 1.329:1.332), accuracy 0.090:0.100, pearson 0.379:0.292, spearman 0.332:0.274, combined cost -127.205
Thu May 16 11:16:48 2019 INFO: PASS 006: duration 0:11:24.498033, cost 421.481781, rcost 0.000000, acc 0.104:0.094, racc nan:nan, avg. dist 1.302:1.304
Thu May 16 11:16:56 2019 INFO: Validation distance: 179.611:180.868 (avg: 1.796:1.809), accuracy 0.030:0.070, pearson 0.454:0.319, spearman 0.400:0.308, combined cost -147.479
Thu May 16 11:16:56 2019 INFO: Storing in-memory checkpoint...
Thu May 16 11:16:57 2019 INFO: Done.
Thu May 16 11:28:45 2019 INFO: PASS 007: duration 0:11:48.054788, cost 413.431615, rcost 0.000000, acc 0.105:0.102, racc nan:nan, avg. dist 1.288:1.288
Thu May 16 11:28:52 2019 INFO: Validation distance: 130.321:125.480 (avg: 1.303:1.255), accuracy 0.090:0.120, pearson 0.403:0.364, spearman 0.368:0.360, combined cost -148.963
Thu May 16 11:28:52 2019 INFO: Storing in-memory checkpoint...
Thu May 16 11:28:52 2019 INFO: Done.
Thu May 16 11:40:09 2019 INFO: PASS 008: duration 0:11:17.415603, cost 404.208122, rcost 0.000000, acc 0.113:0.103, racc nan:nan, avg. dist 1.265:1.274
Thu May 16 11:40:17 2019 INFO: Validation distance: 130.408:130.658 (avg: 1.304:1.307), accuracy 0.070:0.100, pearson 0.542:0.399, spearman 0.519:0.410, combined cost -186.543
Thu May 16 11:40:17 2019 INFO: Storing in-memory checkpoint...
Thu May 16 11:40:17 2019 INFO: Done.
Thu May 16 11:51:49 2019 INFO: PASS 009: duration 0:11:32.386387, cost 399.481990, rcost 0.000000, acc 0.111:0.104, racc nan:nan, avg. dist 1.264:1.266
Thu May 16 11:51:58 2019 INFO: Validation distance: 128.684:125.673 (avg: 1.287:1.257), accuracy 0.070:0.120, pearson 0.460:0.255, spearman 0.431:0.235, combined cost -137.677
Thu May 16 12:03:32 2019 INFO: PASS 010: duration 0:11:34.144759, cost 395.928611, rcost 0.000000, acc 0.109:0.103, racc nan:nan, avg. dist 1.252:1.262
Thu May 16 12:03:39 2019 INFO: Validation distance: 156.990:161.842 (avg: 1.570:1.618), accuracy 0.030:0.040, pearson 0.484:0.295, spearman 0.424:0.240, combined cost -143.716
Thu May 16 12:15:01 2019 INFO: PASS 011: duration 0:11:21.956352, cost 391.415890, rcost 0.000000, acc 0.116:0.103, racc nan:nan, avg. dist 1.250:1.253
Thu May 16 12:15:08 2019 INFO: Validation distance: 119.955:122.166 (avg: 1.200:1.222), accuracy 0.070:0.100, pearson 0.427:0.346, spearman 0.415:0.338, combined cost -152.128
Thu May 16 12:26:24 2019 INFO: PASS 012: duration 0:11:16.058836, cost 385.386300, rcost 0.000000, acc 0.111:0.105, racc nan:nan, avg. dist 1.235:1.242
Thu May 16 12:26:32 2019 INFO: Validation distance: 109.536:116.288 (avg: 1.095:1.163), accuracy 0.100:0.110, pearson 0.397:0.326, spearman 0.329:0.339, combined cost -138.659
Thu May 16 12:37:45 2019 INFO: PASS 013: duration 0:11:13.410471, cost 379.864877, rcost 0.000000, acc 0.111:0.107, racc nan:nan, avg. dist 1.229:1.231
Thu May 16 12:37:53 2019 INFO: Validation distance: 128.018:124.129 (avg: 1.280:1.241), accuracy 0.120:0.100, pearson 0.467:0.364, spearman 0.454:0.380, combined cost -166.059
Thu May 16 12:49:03 2019 INFO: PASS 014: duration 0:11:10.018075, cost 368.271214, rcost 0.000000, acc 0.112:0.105, racc nan:nan, avg. dist 1.207:1.214
Thu May 16 12:49:10 2019 INFO: Validation distance: 123.207:125.868 (avg: 1.232:1.259), accuracy 0.100:0.110, pearson 0.474:0.345, spearman 0.468:0.393, combined cost -167.580
Thu May 16 13:00:19 2019 INFO: PASS 015: duration 0:11:08.178773, cost 364.132810, rcost 0.000000, acc 0.119:0.107, racc nan:nan, avg. dist 1.192:1.203
Thu May 16 13:00:26 2019 INFO: Validation distance: 126.057:130.458 (avg: 1.261:1.305), accuracy 0.110:0.090, pearson 0.471:0.325, spearman 0.478:0.364, combined cost -163.385
Thu May 16 13:11:43 2019 INFO: PASS 016: duration 0:11:17.002272, cost 357.826895, rcost 0.000000, acc 0.113:0.108, racc nan:nan, avg. dist 1.191:1.194
Thu May 16 13:11:51 2019 INFO: Validation distance: 111.705:119.227 (avg: 1.117:1.192), accuracy 0.130:0.120, pearson 0.447:0.379, spearman 0.393:0.373, combined cost -158.746
Thu May 16 13:22:58 2019 INFO: PASS 017: duration 0:11:06.878774, cost 360.975163, rcost 0.000000, acc 0.117:0.115, racc nan:nan, avg. dist 1.185:1.193
Thu May 16 13:23:07 2019 INFO: Validation distance: 154.824:147.651 (avg: 1.548:1.477), accuracy 0.020:0.080, pearson 0.485:0.362, spearman 0.448:0.333, combined cost -162.394
Thu May 16 13:34:26 2019 INFO: PASS 018: duration 0:11:19.409907, cost 353.254841, rcost 0.000000, acc 0.113:0.116, racc nan:nan, avg. dist 1.178:1.179
Thu May 16 13:34:34 2019 INFO: Validation distance: 104.342:108.025 (avg: 1.043:1.080), accuracy 0.120:0.150, pearson 0.469:0.364, spearman 0.471:0.355, combined cost -165.539
Thu May 16 13:45:55 2019 INFO: PASS 019: duration 0:11:20.876818, cost 343.648265, rcost 0.000000, acc 0.126:0.116, racc nan:nan, avg. dist 1.158:1.162
Thu May 16 13:46:02 2019 INFO: Validation distance: 85.342:98.521 (avg: 0.853:0.985), accuracy 0.250:0.160, pearson 0.443:0.354, spearman 0.400:0.374, combined cost -156.716
Thu May 16 13:57:37 2019 INFO: PASS 020: duration 0:11:35.596438, cost 344.735560, rcost 0.000000, acc 0.124:0.115, racc nan:nan, avg. dist 1.161:1.161
Thu May 16 13:57:45 2019 INFO: Validation distance: 92.449:97.318 (avg: 0.924:0.973), accuracy 0.170:0.180, pearson 0.474:0.403, spearman 0.465:0.398, combined cost -173.591
Thu May 16 14:09:10 2019 INFO: PASS 021: duration 0:11:25.336870, cost 335.236179, rcost 0.000000, acc 0.114:0.108, racc nan:nan, avg. dist 1.147:1.154
Thu May 16 14:09:17 2019 INFO: Validation distance: 122.342:137.127 (avg: 1.223:1.371), accuracy 0.100:0.080, pearson 0.472:0.407, spearman 0.424:0.387, combined cost -168.481
Thu May 16 14:09:17 2019 INFO: Storing last checkpoint to disk...
Thu May 16 14:09:27 2019 INFO: Done.
Thu May 16 14:20:40 2019 INFO: PASS 022: duration 0:11:12.205694, cost 328.664879, rcost 0.000000, acc 0.128:0.124, racc nan:nan, avg. dist 1.129:1.133
Thu May 16 14:20:48 2019 INFO: Validation distance: 94.019:95.789 (avg: 0.940:0.958), accuracy 0.210:0.170, pearson 0.498:0.411, spearman 0.436:0.371, combined cost -171.217
Thu May 16 14:32:08 2019 INFO: PASS 023: duration 0:11:20.173903, cost 325.262210, rcost 0.000000, acc 0.123:0.125, racc nan:nan, avg. dist 1.126:1.124
Thu May 16 14:32:16 2019 INFO: Validation distance: 107.403:112.227 (avg: 1.074:1.122), accuracy 0.080:0.160, pearson 0.527:0.456, spearman 0.500:0.438, combined cost -191.715
Thu May 16 14:32:16 2019 INFO: Storing in-memory checkpoint...
Thu May 16 14:32:16 2019 INFO: Done.
Thu May 16 14:32:16 2019 INFO: Storing last checkpoint to disk...
Thu May 16 14:32:26 2019 INFO: Done.
Thu May 16 14:43:45 2019 INFO: PASS 024: duration 0:11:18.914554, cost 315.326126, rcost 0.000000, acc 0.127:0.123, racc nan:nan, avg. dist 1.103:1.110
Thu May 16 14:43:53 2019 INFO: Validation distance: 82.830:87.443 (avg: 0.828:0.874), accuracy 0.220:0.120, pearson 0.593:0.507, spearman 0.555:0.473, combined cost -212.499
Thu May 16 14:43:53 2019 INFO: Storing in-memory checkpoint...
Thu May 16 14:43:53 2019 INFO: Done.
Thu May 16 14:43:53 2019 INFO: Storing last checkpoint to disk...
Thu May 16 14:44:03 2019 INFO: Done.
Thu May 16 14:55:21 2019 INFO: PASS 025: duration 0:11:17.360719, cost 314.844120, rcost 0.000000, acc 0.131:0.124, racc nan:nan, avg. dist 1.097:1.102
Thu May 16 14:55:29 2019 INFO: Validation distance: 136.806:107.177 (avg: 1.368:1.072), accuracy 0.040:0.160, pearson 0.591:0.490, spearman 0.553:0.455, combined cost -208.511
Thu May 16 15:06:44 2019 INFO: PASS 026: duration 0:11:15.635206, cost 310.695778, rcost 0.000000, acc 0.130:0.127, racc nan:nan, avg. dist 1.093:1.097
Thu May 16 15:06:52 2019 INFO: Validation distance: 84.291:93.153 (avg: 0.843:0.932), accuracy 0.220:0.160, pearson 0.561:0.506, spearman 0.464:0.466, combined cost -199.331
Thu May 16 15:18:09 2019 INFO: PASS 027: duration 0:11:17.238908, cost 303.390320, rcost 0.000000, acc 0.132:0.129, racc nan:nan, avg. dist 1.079:1.087
Thu May 16 15:18:17 2019 INFO: Validation distance: 88.856:94.433 (avg: 0.889:0.944), accuracy 0.150:0.180, pearson 0.565:0.483, spearman 0.473:0.432, combined cost -194.919
Thu May 16 15:29:56 2019 INFO: PASS 028: duration 0:11:39.388737, cost 300.160412, rcost 0.000000, acc 0.131:0.133, racc nan:nan, avg. dist 1.068:1.078
Thu May 16 15:30:05 2019 INFO: Validation distance: 80.500:87.235 (avg: 0.805:0.872), accuracy 0.210:0.220, pearson 0.618:0.535, spearman 0.518:0.494, combined cost -216.117
Thu May 16 15:30:05 2019 INFO: Storing in-memory checkpoint...
Thu May 16 15:30:05 2019 INFO: Done.
Thu May 16 15:30:05 2019 INFO: Storing last checkpoint to disk...
Thu May 16 15:30:16 2019 INFO: Done.
Thu May 16 15:41:42 2019 INFO: PASS 029: duration 0:11:26.057192, cost 294.077929, rcost 0.000000, acc 0.135:0.135, racc nan:nan, avg. dist 1.055:1.062
Thu May 16 15:41:50 2019 INFO: Validation distance: 79.497:86.610 (avg: 0.795:0.866), accuracy 0.220:0.240, pearson 0.535:0.419, spearman 0.421:0.355, combined cost -172.578
Thu May 16 15:53:05 2019 INFO: PASS 030: duration 0:11:14.660631, cost 294.450674, rcost 0.000000, acc 0.138:0.130, racc nan:nan, avg. dist 1.055:1.069
Thu May 16 15:53:12 2019 INFO: Validation distance: 76.154:85.064 (avg: 0.762:0.851), accuracy 0.170:0.170, pearson 0.550:0.504, spearman 0.409:0.437, combined cost -189.723
Thu May 16 16:04:28 2019 INFO: PASS 031: duration 0:11:15.413410, cost 285.418323, rcost 0.000000, acc 0.132:0.138, racc nan:nan, avg. dist 1.038:1.044
Thu May 16 16:04:36 2019 INFO: Validation distance: 92.082:91.189 (avg: 0.921:0.912), accuracy 0.150:0.240, pearson 0.564:0.501, spearman 0.452:0.470, combined cost -198.421
Thu May 16 16:16:03 2019 INFO: PASS 032: duration 0:11:27.658304, cost 280.592462, rcost 0.000000, acc 0.145:0.143, racc nan:nan, avg. dist 1.026:1.032
Thu May 16 16:16:11 2019 INFO: Validation distance: 74.988:79.150 (avg: 0.750:0.792), accuracy 0.150:0.260, pearson 0.645:0.571, spearman 0.512:0.516, combined cost -224.116
Thu May 16 16:16:11 2019 INFO: Storing in-memory checkpoint...
Thu May 16 16:16:11 2019 INFO: Done.
Thu May 16 16:16:11 2019 INFO: Storing last checkpoint to disk...
Thu May 16 16:16:21 2019 INFO: Done.
Thu May 16 16:27:37 2019 INFO: PASS 033: duration 0:11:15.885841, cost 272.395383, rcost 0.000000, acc 0.142:0.144, racc nan:nan, avg. dist 1.016:1.017
Thu May 16 16:27:44 2019 INFO: Validation distance: 74.883:80.573 (avg: 0.749:0.806), accuracy 0.200:0.160, pearson 0.601:0.515, spearman 0.484:0.450, combined cost -204.752
Thu May 16 16:39:01 2019 INFO: PASS 034: duration 0:11:17.015205, cost 273.624086, rcost 0.000000, acc 0.142:0.148, racc nan:nan, avg. dist 1.013:1.015
Thu May 16 16:39:08 2019 INFO: Validation distance: 92.338:87.006 (avg: 0.923:0.870), accuracy 0.120:0.210, pearson 0.599:0.575, spearman 0.483:0.510, combined cost -216.512
Thu May 16 16:50:25 2019 INFO: PASS 035: duration 0:11:16.151131, cost 267.253712, rcost 0.000000, acc 0.142:0.149, racc nan:nan, avg. dist 1.002:1.003
Thu May 16 16:50:32 2019 INFO: Validation distance: 76.077:76.891 (avg: 0.761:0.769), accuracy 0.190:0.190, pearson 0.621:0.549, spearman 0.492:0.464, combined cost -212.323
Thu May 16 17:01:39 2019 INFO: PASS 036: duration 0:11:07.224147, cost 260.373519, rcost 0.000000, acc 0.145:0.150, racc nan:nan, avg. dist 0.985:0.989
Thu May 16 17:01:46 2019 INFO: Validation distance: 70.199:78.017 (avg: 0.702:0.780), accuracy 0.210:0.130, pearson 0.661:0.547, spearman 0.546:0.486, combined cost -223.721
Thu May 16 17:12:53 2019 INFO: PASS 037: duration 0:11:06.865054, cost 257.224092, rcost 0.000000, acc 0.149:0.148, racc nan:nan, avg. dist 0.977:0.990
Thu May 16 17:13:00 2019 INFO: Validation distance: 67.742:73.792 (avg: 0.677:0.738), accuracy 0.200:0.270, pearson 0.672:0.574, spearman 0.567:0.484, combined cost -229.441
Thu May 16 17:13:00 2019 INFO: Storing in-memory checkpoint...
Thu May 16 17:13:00 2019 INFO: Done.
Thu May 16 17:13:00 2019 INFO: Storing last checkpoint to disk...
Thu May 16 17:13:10 2019 INFO: Done.
Thu May 16 17:24:21 2019 INFO: PASS 038: duration 0:11:11.102982, cost 256.280153, rcost 0.000000, acc 0.144:0.148, racc nan:nan, avg. dist 0.978:0.983
Thu May 16 17:24:28 2019 INFO: Validation distance: 70.863:79.816 (avg: 0.709:0.798), accuracy 0.220:0.170, pearson 0.668:0.573, spearman 0.531:0.505, combined cost -227.411
Thu May 16 17:35:31 2019 INFO: PASS 039: duration 0:11:03.276266, cost 249.426533, rcost 0.000000, acc 0.151:0.153, racc nan:nan, avg. dist 0.966:0.972
Thu May 16 17:35:38 2019 INFO: Validation distance: 78.257:75.526 (avg: 0.783:0.755), accuracy 0.150:0.240, pearson 0.645:0.569, spearman 0.516:0.494, combined cost -221.995
Thu May 16 17:46:41 2019 INFO: PASS 040: duration 0:11:02.557833, cost 246.038623, rcost 0.000000, acc 0.157:0.152, racc nan:nan, avg. dist 0.952:0.960
Thu May 16 17:46:48 2019 INFO: Validation distance: 70.971:73.218 (avg: 0.710:0.732), accuracy 0.210:0.220, pearson 0.675:0.599, spearman 0.545:0.532, combined cost -234.768
Thu May 16 17:46:48 2019 INFO: Storing in-memory checkpoint...
Thu May 16 17:46:48 2019 INFO: Done.
Thu May 16 17:46:48 2019 INFO: Storing last checkpoint to disk...
Thu May 16 17:46:58 2019 INFO: Done.
Thu May 16 17:58:13 2019 INFO: PASS 041: duration 0:11:14.393522, cost 243.464512, rcost 0.000000, acc 0.153:0.151, racc nan:nan, avg. dist 0.950:0.950
Thu May 16 17:58:20 2019 INFO: Validation distance: 79.309:81.705 (avg: 0.793:0.817), accuracy 0.200:0.190, pearson 0.636:0.571, spearman 0.500:0.517, combined cost -222.252
Thu May 16 18:10:20 2019 INFO: PASS 042: duration 0:12:00.473485, cost 240.834056, rcost 0.000000, acc 0.160:0.159, racc nan:nan, avg. dist 0.945:0.947
Thu May 16 18:10:28 2019 INFO: Validation distance: 72.858:72.932 (avg: 0.729:0.729), accuracy 0.170:0.230, pearson 0.680:0.639, spearman 0.543:0.562, combined cost -242.067
Thu May 16 18:10:28 2019 INFO: Storing in-memory checkpoint...
Thu May 16 18:10:29 2019 INFO: Done.
Thu May 16 18:10:29 2019 INFO: Storing last checkpoint to disk...
Thu May 16 18:10:40 2019 INFO: Done.
Thu May 16 18:22:46 2019 INFO: PASS 043: duration 0:12:05.710856, cost 234.558578, rcost 0.000000, acc 0.161:0.159, racc nan:nan, avg. dist 0.932:0.931
Thu May 16 18:22:54 2019 INFO: Validation distance: 76.559:79.361 (avg: 0.766:0.794), accuracy 0.190:0.180, pearson 0.619:0.573, spearman 0.470:0.479, combined cost -213.852
Thu May 16 18:35:44 2019 INFO: PASS 044: duration 0:12:49.936765, cost 232.168309, rcost 0.000000, acc 0.157:0.160, racc nan:nan, avg. dist 0.932:0.927
Thu May 16 18:35:53 2019 INFO: Validation distance: 67.982:74.881 (avg: 0.680:0.749), accuracy 0.250:0.240, pearson 0.716:0.631, spearman 0.578:0.537, combined cost -246.019
Thu May 16 18:35:53 2019 INFO: Storing in-memory checkpoint...
Thu May 16 18:35:54 2019 INFO: Done.
Thu May 16 18:35:54 2019 INFO: Storing last checkpoint to disk...
Thu May 16 18:36:06 2019 INFO: Done.
Thu May 16 18:49:30 2019 INFO: PASS 045: duration 0:13:23.599190, cost 232.192356, rcost 0.000000, acc 0.164:0.166, racc nan:nan, avg. dist 0.922:0.925
Thu May 16 18:49:40 2019 INFO: Validation distance: 65.725:71.491 (avg: 0.657:0.715), accuracy 0.240:0.230, pearson 0.719:0.628, spearman 0.632:0.551, combined cost -252.621
Thu May 16 18:49:40 2019 INFO: Storing in-memory checkpoint...
Thu May 16 18:49:40 2019 INFO: Done.
Thu May 16 18:49:40 2019 INFO: Storing last checkpoint to disk...
Thu May 16 18:49:51 2019 INFO: Done.
Thu May 16 19:03:06 2019 INFO: PASS 046: duration 0:13:14.669330, cost 228.162351, rcost 0.000000, acc 0.159:0.158, racc nan:nan, avg. dist 0.916:0.918
Thu May 16 19:03:14 2019 INFO: Validation distance: 97.730:95.112 (avg: 0.977:0.951), accuracy 0.120:0.140, pearson 0.674:0.583, spearman 0.556:0.522, combined cost -233.162
Thu May 16 19:15:51 2019 INFO: PASS 047: duration 0:12:36.723374, cost 227.331803, rcost 0.000000, acc 0.164:0.163, racc nan:nan, avg. dist 0.916:0.920
Thu May 16 19:15:59 2019 INFO: Validation distance: 75.475:78.253 (avg: 0.755:0.783), accuracy 0.130:0.180, pearson 0.651:0.653, spearman 0.517:0.571, combined cost -239.068
Thu May 16 19:28:23 2019 INFO: PASS 048: duration 0:12:23.871263, cost 220.848117, rcost 0.000000, acc 0.158:0.166, racc nan:nan, avg. dist 0.903:0.904
Thu May 16 19:28:32 2019 INFO: Validation distance: 65.464:66.049 (avg: 0.655:0.660), accuracy 0.250:0.260, pearson 0.707:0.674, spearman 0.611:0.608, combined cost -259.696
Thu May 16 19:28:32 2019 INFO: Storing in-memory checkpoint...
Thu May 16 19:28:32 2019 INFO: Done.
Thu May 16 19:28:32 2019 INFO: Storing last checkpoint to disk...
Thu May 16 19:28:44 2019 INFO: Done.
Thu May 16 19:40:54 2019 INFO: PASS 049: duration 0:12:10.042833, cost 220.663802, rcost 0.000000, acc 0.159:0.168, racc nan:nan, avg. dist 0.906:0.902
Thu May 16 19:41:02 2019 INFO: Validation distance: 73.499:79.050 (avg: 0.735:0.791), accuracy 0.260:0.180, pearson 0.658:0.598, spearman 0.530:0.506, combined cost -229.083
Thu May 16 19:53:13 2019 INFO: PASS 050: duration 0:12:10.846884, cost 215.208774, rcost 0.000000, acc 0.160:0.169, racc nan:nan, avg. dist 0.896:0.892
Thu May 16 19:53:22 2019 INFO: Validation distance: 70.897:71.688 (avg: 0.709:0.717), accuracy 0.190:0.220, pearson 0.691:0.662, spearman 0.550:0.581, combined cost -248.187
Thu May 16 20:05:31 2019 INFO: PASS 051: duration 0:12:09.753963, cost 209.176486, rcost 0.000000, acc 0.161:0.168, racc nan:nan, avg. dist 0.875:0.876
Thu May 16 20:05:40 2019 INFO: Validation distance: 71.337:76.963 (avg: 0.713:0.770), accuracy 0.220:0.160, pearson 0.680:0.664, spearman 0.571:0.575, combined cost -248.759
Thu May 16 20:18:03 2019 INFO: PASS 052: duration 0:12:23.007400, cost 212.252043, rcost 0.000000, acc 0.161:0.166, racc nan:nan, avg. dist 0.887:0.888
Thu May 16 20:18:11 2019 INFO: Validation distance: 68.074:71.847 (avg: 0.681:0.718), accuracy 0.250:0.240, pearson 0.693:0.612, spearman 0.610:0.538, combined cost -245.091
Thu May 16 20:30:34 2019 INFO: PASS 053: duration 0:12:23.077953, cost 213.580482, rcost 0.000000, acc 0.165:0.164, racc nan:nan, avg. dist 0.887:0.883
Thu May 16 20:30:43 2019 INFO: Validation distance: 63.857:68.471 (avg: 0.639:0.685), accuracy 0.240:0.280, pearson 0.693:0.640, spearman 0.556:0.577, combined cost -246.399
Thu May 16 20:43:11 2019 INFO: PASS 054: duration 0:12:28.256640, cost 204.378548, rcost 0.000000, acc 0.164:0.167, racc nan:nan, avg. dist 0.868:0.872
Thu May 16 20:43:19 2019 INFO: Validation distance: 67.741:70.800 (avg: 0.677:0.708), accuracy 0.230:0.200, pearson 0.707:0.656, spearman 0.602:0.593, combined cost -255.529
Thu May 16 20:55:26 2019 INFO: PASS 055: duration 0:12:07.067868, cost 201.532119, rcost 0.000000, acc 0.163:0.173, racc nan:nan, avg. dist 0.867:0.861
Thu May 16 20:55:34 2019 INFO: Validation distance: 65.956:70.752 (avg: 0.660:0.708), accuracy 0.180:0.220, pearson 0.663:0.627, spearman 0.532:0.539, combined cost -235.926
Thu May 16 21:07:51 2019 INFO: PASS 056: duration 0:12:16.113204, cost 202.130681, rcost 0.000000, acc 0.174:0.169, racc nan:nan, avg. dist 0.857:0.861
Thu May 16 21:07:59 2019 INFO: Validation distance: 67.762:69.067 (avg: 0.678:0.691), accuracy 0.200:0.230, pearson 0.694:0.654, spearman 0.609:0.591, combined cost -254.509
Thu May 16 21:20:13 2019 INFO: PASS 057: duration 0:12:13.354949, cost 196.309724, rcost 0.000000, acc 0.180:0.169, racc nan:nan, avg. dist 0.843:0.852
Thu May 16 21:20:21 2019 INFO: Validation distance: 89.265:90.454 (avg: 0.893:0.905), accuracy 0.150:0.110, pearson 0.702:0.670, spearman 0.619:0.598, combined cost -258.663
Thu May 16 21:32:25 2019 INFO: PASS 058: duration 0:12:04.587963, cost 201.505705, rcost 0.000000, acc 0.175:0.180, racc nan:nan, avg. dist 0.855:0.861
Thu May 16 21:32:33 2019 INFO: Validation distance: 62.946:68.519 (avg: 0.629:0.685), accuracy 0.210:0.230, pearson 0.689:0.666, spearman 0.578:0.578, combined cost -250.923
Thu May 16 21:44:37 2019 INFO: PASS 059: duration 0:12:04.150186, cost 193.665235, rcost 0.000000, acc 0.174:0.176, racc nan:nan, avg. dist 0.844:0.840
Thu May 16 21:44:45 2019 INFO: Validation distance: 65.012:68.862 (avg: 0.650:0.689), accuracy 0.220:0.250, pearson 0.699:0.679, spearman 0.560:0.609, combined cost -254.482
Thu May 16 21:57:28 2019 INFO: PASS 060: duration 0:12:42.688461, cost 193.711404, rcost 0.000000, acc 0.173:0.183, racc nan:nan, avg. dist 0.841:0.841
Thu May 16 21:57:39 2019 INFO: Validation distance: 73.030:73.035 (avg: 0.730:0.730), accuracy 0.160:0.210, pearson 0.736:0.657, spearman 0.622:0.546, combined cost -255.876
Thu May 16 22:12:20 2019 INFO: PASS 061: duration 0:14:40.692728, cost 193.065798, rcost 0.000000, acc 0.176:0.185, racc nan:nan, avg. dist 0.836:0.837
Thu May 16 22:12:30 2019 INFO: Validation distance: 70.939:75.526 (avg: 0.709:0.755), accuracy 0.220:0.180, pearson 0.688:0.633, spearman 0.538:0.550, combined cost -240.614
Thu May 16 22:26:30 2019 INFO: PASS 062: duration 0:13:59.596627, cost 190.842247, rcost 0.000000, acc 0.169:0.175, racc nan:nan, avg. dist 0.835:0.839
Thu May 16 22:26:39 2019 INFO: Validation distance: 63.474:67.670 (avg: 0.635:0.677), accuracy 0.200:0.220, pearson 0.734:0.671, spearman 0.614:0.583, combined cost -259.979
Thu May 16 22:26:39 2019 INFO: Storing in-memory checkpoint...
Thu May 16 22:26:39 2019 INFO: Done.
Thu May 16 22:26:39 2019 INFO: Storing last checkpoint to disk...
Thu May 16 22:26:50 2019 INFO: Done.
Thu May 16 22:40:35 2019 INFO: PASS 063: duration 0:13:44.679311, cost 183.362401, rcost 0.000000, acc 0.190:0.184, racc nan:nan, avg. dist 0.810:0.820
Thu May 16 22:40:45 2019 INFO: Validation distance: 60.462:66.221 (avg: 0.605:0.662), accuracy 0.220:0.240, pearson 0.723:0.680, spearman 0.591:0.574, combined cost -256.492
Thu May 16 22:54:43 2019 INFO: PASS 064: duration 0:13:57.496748, cost 184.032379, rcost 0.000000, acc 0.180:0.182, racc nan:nan, avg. dist 0.821:0.818
Thu May 16 22:54:52 2019 INFO: Validation distance: 61.165:67.548 (avg: 0.612:0.675), accuracy 0.210:0.220, pearson 0.716:0.695, spearman 0.604:0.611, combined cost -262.527
Thu May 16 22:54:52 2019 INFO: Storing in-memory checkpoint...
Thu May 16 22:54:52 2019 INFO: Done.
Thu May 16 22:54:52 2019 INFO: Storing last checkpoint to disk...
Thu May 16 22:55:04 2019 INFO: Done.
Thu May 16 23:09:22 2019 INFO: PASS 065: duration 0:14:18.324424, cost 177.175444, rcost 0.000000, acc 0.178:0.185, racc nan:nan, avg. dist 0.802:0.803
Thu May 16 23:09:31 2019 INFO: Validation distance: 64.277:67.008 (avg: 0.643:0.670), accuracy 0.160:0.250, pearson 0.716:0.691, spearman 0.609:0.586, combined cost -260.048
Thu May 16 23:23:49 2019 INFO: PASS 066: duration 0:14:17.758425, cost 182.673096, rcost 0.000000, acc 0.169:0.181, racc nan:nan, avg. dist 0.814:0.818
Thu May 16 23:23:58 2019 INFO: Validation distance: 62.331:64.235 (avg: 0.623:0.642), accuracy 0.250:0.290, pearson 0.726:0.699, spearman 0.612:0.587, combined cost -262.178
Thu May 16 23:38:05 2019 INFO: PASS 067: duration 0:14:07.396286, cost 177.368533, rcost 0.000000, acc 0.188:0.191, racc nan:nan, avg. dist 0.796:0.801
Thu May 16 23:38:14 2019 INFO: Validation distance: 61.784:68.908 (avg: 0.618:0.689), accuracy 0.240:0.220, pearson 0.718:0.663, spearman 0.591:0.577, combined cost -254.718
Thu May 16 23:51:55 2019 INFO: PASS 068: duration 0:13:41.086207, cost 176.665039, rcost 0.000000, acc 0.190:0.186, racc nan:nan, avg. dist 0.796:0.798
Thu May 16 23:52:04 2019 INFO: Validation distance: 63.476:66.553 (avg: 0.635:0.666), accuracy 0.210:0.270, pearson 0.743:0.688, spearman 0.601:0.608, combined cost -263.869
Thu May 16 23:52:04 2019 INFO: Storing in-memory checkpoint...
Thu May 16 23:52:04 2019 INFO: Done.
Thu May 16 23:52:04 2019 INFO: Storing last checkpoint to disk...
Thu May 16 23:52:16 2019 INFO: Done.
Fri May 17 00:04:27 2019 INFO: PASS 069: duration 0:12:10.858655, cost 174.730000, rcost 0.000000, acc 0.189:0.186, racc nan:nan, avg. dist 0.794:0.798
Fri May 17 00:04:35 2019 INFO: Validation distance: 74.103:70.979 (avg: 0.741:0.710), accuracy 0.220:0.260, pearson 0.719:0.661, spearman 0.589:0.575, combined cost -254.216
Fri May 17 00:16:28 2019 INFO: PASS 070: duration 0:11:53.094753, cost 171.515287, rcost 0.000000, acc 0.181:0.189, racc nan:nan, avg. dist 0.788:0.788
Fri May 17 00:16:36 2019 INFO: Validation distance: 62.439:66.245 (avg: 0.624:0.662), accuracy 0.250:0.240, pearson 0.708:0.702, spearman 0.584:0.582, combined cost -257.353
Fri May 17 00:28:27 2019 INFO: PASS 071: duration 0:11:51.659282, cost 169.577374, rcost 0.000000, acc 0.184:0.198, racc nan:nan, avg. dist 0.784:0.780
Fri May 17 00:28:35 2019 INFO: Validation distance: 67.145:69.658 (avg: 0.671:0.697), accuracy 0.190:0.270, pearson 0.687:0.612, spearman 0.570:0.451, combined cost -231.664
Fri May 17 00:40:40 2019 INFO: PASS 072: duration 0:12:04.814236, cost 170.207965, rcost 0.000000, acc 0.177:0.193, racc nan:nan, avg. dist 0.784:0.788
Fri May 17 00:40:48 2019 INFO: Validation distance: 65.723:67.618 (avg: 0.657:0.676), accuracy 0.190:0.220, pearson 0.681:0.661, spearman 0.511:0.558, combined cost -240.945
Fri May 17 00:52:45 2019 INFO: PASS 073: duration 0:11:56.754847, cost 173.318536, rcost 0.000000, acc 0.193:0.205, racc nan:nan, avg. dist 0.787:0.786
Fri May 17 00:52:52 2019 INFO: Validation distance: 67.467:67.914 (avg: 0.675:0.679), accuracy 0.160:0.250, pearson 0.711:0.720, spearman 0.608:0.624, combined cost -266.058
Fri May 17 00:52:52 2019 INFO: Storing in-memory checkpoint...
Fri May 17 00:52:52 2019 INFO: Done.
Fri May 17 00:52:52 2019 INFO: Storing last checkpoint to disk...
Fri May 17 00:53:03 2019 INFO: Done.
Fri May 17 01:05:02 2019 INFO: PASS 074: duration 0:11:58.821915, cost 172.104414, rcost 0.000000, acc 0.182:0.197, racc nan:nan, avg. dist 0.787:0.790
Fri May 17 01:05:10 2019 INFO: Validation distance: 68.551:66.244 (avg: 0.686:0.662), accuracy 0.210:0.240, pearson 0.667:0.679, spearman 0.546:0.563, combined cost -245.315
Fri May 17 01:17:13 2019 INFO: PASS 075: duration 0:12:02.607344, cost 166.357457, rcost 0.000000, acc 0.188:0.196, racc nan:nan, avg. dist 0.773:0.777
Fri May 17 01:17:21 2019 INFO: Validation distance: 61.560:64.779 (avg: 0.616:0.648), accuracy 0.220:0.240, pearson 0.750:0.723, spearman 0.641:0.619, combined cost -273.120
Fri May 17 01:17:21 2019 INFO: Storing in-memory checkpoint...
Fri May 17 01:17:21 2019 INFO: Done.
Fri May 17 01:17:21 2019 INFO: Storing last checkpoint to disk...
Fri May 17 01:17:33 2019 INFO: Done.
Fri May 17 01:29:30 2019 INFO: PASS 076: duration 0:11:56.946554, cost 163.210028, rcost 0.000000, acc 0.193:0.203, racc nan:nan, avg. dist 0.768:0.766
Fri May 17 01:29:38 2019 INFO: Validation distance: 58.731:66.031 (avg: 0.587:0.660), accuracy 0.290:0.270, pearson 0.762:0.699, spearman 0.660:0.584, combined cost -270.325
Fri May 17 01:41:42 2019 INFO: PASS 077: duration 0:12:04.220727, cost 165.395755, rcost 0.000000, acc 0.195:0.205, racc nan:nan, avg. dist 0.767:0.773
Fri May 17 01:41:50 2019 INFO: Validation distance: 65.302:67.669 (avg: 0.653:0.677), accuracy 0.200:0.250, pearson 0.753:0.707, spearman 0.661:0.600, combined cost -271.854
Fri May 17 01:53:45 2019 INFO: PASS 078: duration 0:11:55.333657, cost 159.319146, rcost 0.000000, acc 0.184:0.197, racc nan:nan, avg. dist 0.759:0.762
Fri May 17 01:53:54 2019 INFO: Validation distance: 68.060:67.322 (avg: 0.681:0.673), accuracy 0.220:0.240, pearson 0.735:0.696, spearman 0.657:0.604, combined cost -269.019
Fri May 17 02:05:50 2019 INFO: PASS 079: duration 0:11:56.404634, cost 160.626103, rcost 0.000000, acc 0.193:0.207, racc nan:nan, avg. dist 0.761:0.761
Fri May 17 02:05:58 2019 INFO: Validation distance: 61.056:64.608 (avg: 0.611:0.646), accuracy 0.240:0.280, pearson 0.707:0.720, spearman 0.555:0.601, combined cost -258.116
Fri May 17 02:17:48 2019 INFO: PASS 080: duration 0:11:49.991741, cost 156.808824, rcost 0.000000, acc 0.194:0.215, racc nan:nan, avg. dist 0.748:0.747
Fri May 17 02:17:57 2019 INFO: Validation distance: 57.284:64.221 (avg: 0.573:0.642), accuracy 0.250:0.270, pearson 0.757:0.734, spearman 0.640:0.618, combined cost -274.692
Fri May 17 02:17:57 2019 INFO: Storing in-memory checkpoint...
Fri May 17 02:17:57 2019 INFO: Done.
Fri May 17 02:17:57 2019 INFO: Storing last checkpoint to disk...
Fri May 17 02:18:07 2019 INFO: Done.
Fri May 17 02:30:06 2019 INFO: PASS 081: duration 0:11:58.744986, cost 158.095182, rcost 0.000000, acc 0.199:0.220, racc nan:nan, avg. dist 0.750:0.748
Fri May 17 02:30:14 2019 INFO: Validation distance: 60.920:65.669 (avg: 0.609:0.657), accuracy 0.240:0.320, pearson 0.739:0.713, spearman 0.642:0.605, combined cost -269.673
Fri May 17 02:42:11 2019 INFO: PASS 082: duration 0:11:56.725667, cost 155.093477, rcost 0.000000, acc 0.197:0.214, racc nan:nan, avg. dist 0.745:0.747
Fri May 17 02:42:19 2019 INFO: Validation distance: 60.171:64.497 (avg: 0.602:0.645), accuracy 0.210:0.280, pearson 0.739:0.692, spearman 0.602:0.573, combined cost -260.445
Fri May 17 02:54:09 2019 INFO: PASS 083: duration 0:11:50.504296, cost 151.854034, rcost 0.000000, acc 0.201:0.204, racc nan:nan, avg. dist 0.735:0.740
Fri May 17 02:54:18 2019 INFO: Validation distance: 59.923:64.013 (avg: 0.599:0.640), accuracy 0.270:0.250, pearson 0.748:0.729, spearman 0.618:0.645, combined cost -273.855
Fri May 17 03:06:08 2019 INFO: PASS 084: duration 0:11:50.231401, cost 153.932146, rcost 0.000000, acc 0.197:0.208, racc nan:nan, avg. dist 0.744:0.742
Fri May 17 03:06:15 2019 INFO: Validation distance: 59.248:63.984 (avg: 0.592:0.640), accuracy 0.320:0.270, pearson 0.751:0.713, spearman 0.650:0.610, combined cost -272.232
Fri May 17 03:18:07 2019 INFO: PASS 085: duration 0:11:52.159846, cost 152.279749, rcost 0.000000, acc 0.193:0.215, racc nan:nan, avg. dist 0.737:0.738
Fri May 17 03:18:15 2019 INFO: Validation distance: 60.447:64.929 (avg: 0.604:0.649), accuracy 0.240:0.270, pearson 0.766:0.703, spearman 0.647:0.611, combined cost -272.458
Fri May 17 03:30:10 2019 INFO: PASS 086: duration 0:11:54.625566, cost 150.183541, rcost 0.000000, acc 0.202:0.213, racc nan:nan, avg. dist 0.729:0.735
Fri May 17 03:30:18 2019 INFO: Validation distance: 56.802:64.909 (avg: 0.568:0.649), accuracy 0.240:0.220, pearson 0.770:0.712, spearman 0.675:0.649, combined cost -280.400
Fri May 17 03:30:18 2019 INFO: Storing in-memory checkpoint...
Fri May 17 03:30:18 2019 INFO: Done.
Fri May 17 03:30:18 2019 INFO: Storing last checkpoint to disk...
Fri May 17 03:30:29 2019 INFO: Done.
Fri May 17 03:41:54 2019 INFO: PASS 087: duration 0:11:24.775589, cost 148.292452, rcost 0.000000, acc 0.196:0.215, racc nan:nan, avg. dist 0.728:0.727
Fri May 17 03:42:02 2019 INFO: Validation distance: 66.742:71.810 (avg: 0.667:0.718), accuracy 0.220:0.140, pearson 0.775:0.715, spearman 0.708:0.600, combined cost -279.550
Fri May 17 03:53:15 2019 INFO: PASS 088: duration 0:11:13.562502, cost 148.146103, rcost 0.000000, acc 0.190:0.215, racc nan:nan, avg. dist 0.733:0.726
Fri May 17 03:53:23 2019 INFO: Validation distance: 56.228:61.571 (avg: 0.562:0.616), accuracy 0.280:0.250, pearson 0.780:0.751, spearman 0.678:0.674, combined cost -288.222
Fri May 17 03:53:23 2019 INFO: Storing in-memory checkpoint...
Fri May 17 03:53:23 2019 INFO: Done.
Fri May 17 03:53:23 2019 INFO: Storing last checkpoint to disk...
Fri May 17 03:53:33 2019 INFO: Done.
Fri May 17 04:04:40 2019 INFO: PASS 089: duration 0:11:06.351264, cost 144.880574, rcost 0.000000, acc 0.204:0.215, racc nan:nan, avg. dist 0.716:0.721
Fri May 17 04:04:47 2019 INFO: Validation distance: 66.771:66.231 (avg: 0.668:0.662), accuracy 0.230:0.240, pearson 0.751:0.735, spearman 0.651:0.670, combined cost -280.550
Fri May 17 04:15:41 2019 INFO: PASS 090: duration 0:10:54.068140, cost 148.362166, rcost 0.000000, acc 0.202:0.214, racc nan:nan, avg. dist 0.728:0.729
Fri May 17 04:15:49 2019 INFO: Validation distance: 62.794:60.250 (avg: 0.628:0.602), accuracy 0.200:0.330, pearson 0.763:0.733, spearman 0.680:0.651, combined cost -282.431
Fri May 17 04:27:10 2019 INFO: PASS 091: duration 0:11:21.033126, cost 142.079771, rcost 0.000000, acc 0.211:0.229, racc nan:nan, avg. dist 0.709:0.711
Fri May 17 04:27:17 2019 INFO: Validation distance: 57.264:60.602 (avg: 0.573:0.606), accuracy 0.270:0.270, pearson 0.757:0.741, spearman 0.633:0.643, combined cost -277.262
Fri May 17 04:38:33 2019 INFO: PASS 092: duration 0:11:15.333987, cost 142.485810, rcost 0.000000, acc 0.211:0.222, racc nan:nan, avg. dist 0.713:0.715
Fri May 17 04:38:40 2019 INFO: Validation distance: 56.567:63.734 (avg: 0.566:0.637), accuracy 0.260:0.290, pearson 0.766:0.731, spearman 0.656:0.655, combined cost -280.649
Fri May 17 04:50:02 2019 INFO: PASS 093: duration 0:11:21.596454, cost 142.287508, rcost 0.000000, acc 0.210:0.220, racc nan:nan, avg. dist 0.708:0.712
Fri May 17 04:50:09 2019 INFO: Validation distance: 64.167:64.459 (avg: 0.642:0.645), accuracy 0.210:0.210, pearson 0.775:0.720, spearman 0.669:0.605, combined cost -276.738
Fri May 17 05:01:22 2019 INFO: PASS 094: duration 0:11:12.610763, cost 140.299257, rcost 0.000000, acc 0.202:0.225, racc nan:nan, avg. dist 0.707:0.706
Fri May 17 05:01:29 2019 INFO: Validation distance: 59.077:63.461 (avg: 0.591:0.635), accuracy 0.220:0.230, pearson 0.766:0.721, spearman 0.651:0.606, combined cost -274.177
Fri May 17 05:12:34 2019 INFO: PASS 095: duration 0:11:04.509213, cost 140.893898, rcost 0.000000, acc 0.216:0.236, racc nan:nan, avg. dist 0.700:0.707
Fri May 17 05:12:42 2019 INFO: Validation distance: 58.342:60.900 (avg: 0.583:0.609), accuracy 0.270:0.300, pearson 0.750:0.735, spearman 0.674:0.651, combined cost -280.878
Fri May 17 05:23:44 2019 INFO: PASS 096: duration 0:11:01.922942, cost 139.380663, rcost 0.000000, acc 0.215:0.224, racc nan:nan, avg. dist 0.701:0.705
Fri May 17 05:23:52 2019 INFO: Validation distance: 61.218:67.880 (avg: 0.612:0.679), accuracy 0.240:0.190, pearson 0.756:0.742, spearman 0.633:0.656, combined cost -278.463
Fri May 17 05:35:03 2019 INFO: PASS 097: duration 0:11:10.659208, cost 136.844116, rcost 0.000000, acc 0.228:0.226, racc nan:nan, avg. dist 0.689:0.701
Fri May 17 05:35:11 2019 INFO: Validation distance: 58.760:61.612 (avg: 0.588:0.616), accuracy 0.240:0.210, pearson 0.744:0.741, spearman 0.642:0.639, combined cost -276.335
Fri May 17 05:46:38 2019 INFO: PASS 098: duration 0:11:26.897684, cost 136.604822, rcost 0.000000, acc 0.217:0.233, racc nan:nan, avg. dist 0.693:0.694
Fri May 17 05:46:45 2019 INFO: Validation distance: 60.272:62.927 (avg: 0.603:0.629), accuracy 0.270:0.250, pearson 0.744:0.717, spearman 0.608:0.608, combined cost -267.595
Fri May 17 05:58:17 2019 INFO: PASS 099: duration 0:11:32.006209, cost 137.988835, rcost 0.000000, acc 0.216:0.226, racc nan:nan, avg. dist 0.695:0.698
Fri May 17 05:58:25 2019 INFO: Validation distance: 63.322:61.579 (avg: 0.633:0.616), accuracy 0.270:0.250, pearson 0.746:0.748, spearman 0.631:0.674, combined cost -279.808
Fri May 17 06:09:41 2019 INFO: PASS 100: duration 0:11:15.393557, cost 134.819686, rcost 0.000000, acc 0.207:0.234, racc nan:nan, avg. dist 0.697:0.691
Fri May 17 06:09:49 2019 INFO: Validation distance: 56.220:63.542 (avg: 0.562:0.635), accuracy 0.280:0.290, pearson 0.773:0.732, spearman 0.689:0.623, combined cost -281.511
Fri May 17 06:09:49 2019 INFO: Restoring in-memory checkpoint...
Fri May 17 06:11:11 2019 INFO: Saving model to model_s1.pickle.gz...
Fri May 17 06:11:11 2019 INFO: Saving model settings to model_s1.pickle.gz...
Fri May 17 06:11:11 2019 INFO: Saving model parameters to model_s1.tfsess...
Fri May 17 06:11:23 2019 INFO: Done.
2019-05-17 06:11:33,519 'pattern' package not found; tag filters are not available for English
Fri May 17 06:11:33 2019 INFO: Loading predictor from model_s1.pickle.gz...
2019-05-17 06:12:36.241381: I tensorflow/core/platform/cpu_feature_guard.cc:137] Your CPU supports instructions that this TensorFlow binary was not compiled to use: SSE4.1 SSE4.2 AVX FMA
Fri May 17 06:12:36 2019 INFO: Looking for TF saved session...
2019-05-17 06:12:36,358 Restoring parameters from /home/ksevegnani/ratpred/model_s1.tfsess
Fri May 17 06:12:43 2019 INFO: Loading test data from ../data/preproc_data/v3.3cv/noref_fs/cv01/test.tsv...
Fri May 17 06:12:43 2019 INFO: Loading data from ../data/preproc_data/v3.3cv/noref_fs/cv01/test.tsv...
Fri May 17 06:12:43 2019 INFO: Reading ../data/preproc_data/v3.3cv/noref_fs/cv01/test.tsv...
Fri May 17 06:12:43 2019 INFO: Loaded 492 instances.
Fri May 17 06:12:43 2019 INFO: Adapted refs data type.
Fri May 17 06:12:44 2019 INFO: Parsed DAs.
Fri May 17 06:12:45 2019 INFO: Preprocessed human refs.
Fri May 17 06:12:46 2019 INFO: Preprocessed system outputs.
Fri May 17 06:12:46 2019 INFO: Preprocessed 2nd system outputs.
Fri May 17 06:12:47 2019 INFO: Delexicalized DAs.
Fri May 17 06:12:47 2019 INFO: Retrieved is_real indications.
Fri May 17 06:12:47 2019 INFO: Built inputs list.
Fri May 17 06:12:47 2019 INFO: Built targets list.
Fri May 17 06:12:47 2019 INFO: Loaded 492 instances.
Fri May 17 06:12:47 2019 INFO: Rating 492 instances...
Fri May 17 06:13:25 2019 INFO: NATURALNESS Distance: 424.986 (avg: 0.864, std: 0.780)
Fri May 17 06:13:25 2019 INFO: NATURALNESS MAE: 0.860, RMSE: 1.167
Fri May 17 06:13:25 2019 INFO: NATURALNESS Accuracy: 0.171
Fri May 17 06:13:25 2019 INFO: NATURALNESS Pearson correlation: 0.364 (p-value 0.000)
Fri May 17 06:13:25 2019 INFO: NATURALNESS Spearman correlation: 0.304 (p-value 0.000)
Fri May 17 06:13:25 2019 INFO: NATURALNESS Pairwise rank accuracy: 0.000
Fri May 17 06:13:25 2019 INFO: NATURALNESS Pairwise rank loss: 0.000 (avg: 0.000)
Fri May 17 06:13:25 2019 INFO: QUALITY Distance: 437.790 (avg: 0.890, std: 0.789)
Fri May 17 06:13:25 2019 INFO: QUALITY MAE: 0.890, RMSE: 1.201
Fri May 17 06:13:25 2019 INFO: QUALITY Accuracy: 0.203
Fri May 17 06:13:25 2019 INFO: QUALITY Pearson correlation: 0.334 (p-value 0.000)
Fri May 17 06:13:25 2019 INFO: QUALITY Spearman correlation: 0.294 (p-value 0.000)
Fri May 17 06:13:25 2019 INFO: QUALITY Pairwise rank accuracy: 0.000
Fri May 17 06:13:25 2019 INFO: QUALITY Pairwise rank loss: 0.000 (avg: 0.000)