mr	naturalness_human_rating	naturalness_human_rating_raw	naturalness_rank_loss	naturalness_rank_ok	naturalness_system_rating	naturalness_system_rating_raw	orig_ref	quality_human_rating	quality_human_rating_raw	quality_rank_loss	quality_rank_ok	quality_system_rating	quality_system_rating_raw	system_output	system_output2
inform(name=X-name,type=hotel)	4.5	4.5	0.6329484	0	5.0	5.087571620941162		5.0	5.0	0.10493708	0	5.0	4.787124156951904	the name is X-name and it is a nice hotel .	
inform(name=X-name,kids_allowed=yes,good_for_meal=dinner,area=X-area)	5.0	5.0	0.0	1	5.0	4.885136604309082		5.0	5.0	0.0	1	4.5	4.590603351593018	X-name is a nice restaurant in the X-area areas , allows kids , and is good for dinner .	
inform(name=X-name,kids_allowed=no)	2.0	2.0	0.4503622	0	5.5	5.398418426513672		4.0	4.0	0.0	1	5.0	5.228114128112793	X-name is a nice restaurant that does not allow children .	
inform(name=X-name,area=X-area,dogs_allowed=no)	6.0	6.0	0.26124763	0	5.0	5.146600246429443		6.0	6.0	0.0	1	5.0	4.84476900100708	X-name is in X-area and does not allow dogs .	
inform(name=X-name,type=placetoeat,area=X-area,near=X-near,near=X-near,eattype=restaurant)	2.5	2.5	0.0	1	5.5	5.267239093780518		3.0	3.0	0.0	1	5.0	5.097113609313965	X-name is a restaurant in X-area on and to X-near .	
inform(name=X-name,accepts_credit_cards=yes)	5.0	5.0	0.20962095	0	5.5	5.382697105407715		5.0	5.0	0.0	1	5.0	5.02621603012085	X-name accepts credit cards .	
inform(name=X-name,accepts_credit_cards=yes)	5.0	5.0	0.20962095	0	5.5	5.382697105407715		5.0	5.0	0.0	1	5.0	5.02621603012085	X-name accepts credit cards .	
inform(name=X-name,area=X-area,dogs_allowed=yes)	3.0	3.0	0.0	1	5.0	5.248875141143799		2.0	2.0	0.0	1	5.0	4.884280204772949	the X-name is near X-area and allows dogs .	
inform(type=restaurant,count=X-count,kids_allowed=dont_care,good_for_meal=dont_care)	1.0	1.0	0.0	1	4.5	4.609151363372803		1.0	1.0	0.0	1	4.5	4.503451347351074	there are X-count restaurant if you do not care the price meal and various the food do not care whether the kids are allowed .	
inform(name=X-name,address=X-address,postcode=X-postcode)	5.0	5.0	0.0	1	5.5	5.600955486297607		4.0	4.0	0.0	1	5.5	5.272487640380859	the address of the X-name is X-address , X-postcode .	
inform_no_match(area=X-area)	6.0	6.0	0.24897146	0	5.5	5.3193206787109375		5.0	5.0	0.0	1	5.0	4.967363357543945	there are no restaurants in the X-area area .	
inform(name=X-name,postcode=X-postcode)	4.0	4.0	0.0	1	5.5	5.666234493255615		4.0	4.0	0.0	1	5.0	5.246365547180176	the postcode for X-name is X-postcode .	
inform(name=X-name,type=placetoeat,eattype=restaurant,pricerange=cheap,area=X-area,food=Fastfood)	6.0	6.0	0.0	1	5.0	5.156264781951904		6.0	6.0	0.0	1	5.0	4.8008928298950195	X-name is a cheap fast food restaurant near the river .	
inform(name=X-name,price=X-price,phone=X-phone)	4.0	4.0	0.16185474	0	5.5	5.467334747314453		4.0	4.0	0.0	1	5.0	5.10479736328125	the name of the restaurant is X-name . the price is X-price . their phone number is X-phone .	
inform(name=X-name,type=hotel)	3.0	3.0	0.2754898	0	5.5	5.445030212402344		2.0	2.0	0.0	1	5.0	4.971181392669678	the X-name is a nice hotel .	
inform(name=X-name,food=lounge,good_for_meal=dinner)	1.0	1.0	0.40109062	0	5.0	4.909926414489746		1.0	1.0	0.0	1	4.5	4.565683364868164	X-name serves lounge and is good for dinner .	
inform(name=X-name,food=chinese,near=X-near,good_for_meal=dinner,kids_allowed=yes)	4.0	4.0	0.5449991	0	5.0	4.765742778778076		5.0	5.0	0.21019888	0	4.5	4.409130096435547	X-name , is near X-near , it serves chinese food for dinner , and allows kids .	
inform(name=X-name,area=X-area,food=Chinese,eattype=restaurant)	3.0	3.0	0.0	1	5.5	5.346538543701172		3.0	3.0	0.0	1	5.0	5.080036640167236	X-name is a chinese restaurant near the river and i serve food .	
inform(name=none,area=X-area,near=X-near)	3.0	3.0	0.1708703	0	5.5	5.394789218902588		3.0	3.0	0.0	1	5.0	5.033145427703857	i 'm X-name venues in the X-area area near X-near .	
inform(name=X-name,price_range=expensive,food=vietnamese)	4.0	4.0	0.0	1	5.5	5.284849643707275		4.0	4.0	0.0	1	5.0	4.945025444030762	X-name is a nice restaurant that serves vietnamese food in the expensive price range .	
inform(name=X-name,area=X-area,phone=X-phone)	5.0	5.0	0.0	1	5.5	5.4012451171875		4.0	4.0	0.0	1	5.0	4.931652545928955	the phone number for X-name is X-phone and it is located in the X-area heights area .	
inform(name=X-name,type=placetoeat,near=X-near,area=X-area,eattype=restaurant)	5.5	5.5	0.0	1	5.5	5.265845775604248		5.5	5.5	0.0	1	5.0	5.014564514160156	X-name is a high - end restaurant located in riverside near X-near .	
inform(name=X-name,type=placetoeat,eattype=restaurant,near=X-near,area=X-area,food=Italian)	5.0	5.0	0.0	1	5.0	5.155523300170898		5.0	5.0	0.0	1	5.0	4.8091912269592285	X-name is an italian restaurant in the riverside area near X-near .	
inform(name=X-name,address=X-address,phone=X-phone)	5.0	5.0	0.0	1	5.5	5.5039963722229		4.0	4.0	0.0	1	5.0	5.0913238525390625	the address of X-name is X-address and the phone number is X-phone .	
inform(name=X-name,price_range=moderate,food='gluten free')	4.0	4.0	0.06396866	0	5.0	5.139755725860596		4.0	4.0	0.0	1	5.0	4.892383098602295	X-name is a moderate gluten free restaurant .	
inform_no_match(area=X-area)	6.0	6.0	0.15085268	0	5.5	5.4174394607543945		5.0	5.0	0.0	1	5.0	4.924850940704346	there are no hotels near X-area .	
inform(name=X-name,type=placetoeat,eattype=restaurant,area=X-area,near=X-near,near=X-near)	6.0	6.0	0.05683422	0	5.0	5.127748966217041		6.0	6.0	0.0	1	5.0	4.913016319274902	X-name is a restaurant in the city centre near X-near and X-near .	
request(food)	6.0	6.0	0.45404243	0	5.5	5.389903545379639		6.0	6.0	0.18035555	0	5.0	5.074779033660889	what type of food are you looking for ?	
inform(name=X-name,accepts_credit_cards=yes,area=X-area)	5.0	5.0	0.094222546	0	5.0	4.8831610679626465		5.0	5.0	0.02884674	0	4.5	4.559107780456543	well there is a hotel in the area of X-area called X-name and they accept credit cards .	
inform(name=X-name,kids_allowed=no,good_for_meal=breakfast)	4.0	4.0	0.15001774	0	5.5	5.293722152709961		5.0	5.0	0.0	1	5.0	5.050849437713623	X-name does not allow kids and is good for breakfast .	
inform(name=X-name,area=X-area)	3.5	3.5	0.35588884	0	5.0	4.949911117553711		4.0	4.0	0.057016373	0	4.5	4.656034469604492	there is a hotel called in the X-name and in the area of X-area .	
inform(name=X-name,address=X-address)	5.0	5.0	0.0	1	5.5	5.4848222732543945		5.0	5.0	0.0	1	5.0	5.158531188964844	the address for X-name is X-address .	
inform(name=X-name,type=placetoeat,eattype=restaurant,food=Chinese)	3.0	3.0	0.0	1	5.5	5.376997947692871		3.0	3.0	0.0	1	5.0	5.1098761558532715	me i suggest X-name , chinese restaurant .	
inform_only_match(name=X-name,area=X-area)	4.0	4.0	0.28507853	0	5.0	5.013941287994385		4.0	4.0	0.0	1	5.0	4.807793140411377	the only match i have for you is the X-name in the X-area area .	
inform_no_match(area=X-area)	5.0	5.0	0.16251087	0	5.5	5.405781269073486		5.0	5.0	0.0	1	5.0	4.950105667114258	i am sorry but there are no hotels in the X-area area .	
inform(name=X-name,price_range=moderate)	6.0	6.0	0.0	1	5.0	4.959354400634766		4.0	4.0	0.0	1	4.5	4.606078624725342	X-name is in the moderate price range .	
inform(name=X-name,area=X-area)	4.0	4.0	0.3197403	0	5.0	4.986059665679932		4.0	4.0	0.09673023	0	4.5	4.616320610046387	X-name is located in the X-area area .	
inform(name=X-name,type=placetoeat,eattype=restaurant,pricerange=expensive,area=X-area,near=X-near)	6.0	6.0	0.0	1	5.0	5.221194267272949		6.0	6.0	0.0	1	5.0	4.851817607879639	X-name is an expensive restaurant in the X-area area near X-near .	
inform(name=X-name,area=X-area,phone=X-phone)	6.0	6.0	0.031318665	0	5.5	5.3018975257873535		6.0	6.0	0.0	1	5.0	4.847984313964844	X-name is in the area of X-area hill , its phone number is X-phone .	
inform(name=X-name,address=X-address,phone=X-phone)	6.0	6.0	0.0	1	5.5	5.408106803894043		3.0	3.0	0.0	1	5.0	5.016666889190674	X-name is located at X-address and the phone number is X-phone .	
inform(name=X-name,food=arabian,good_for_meal=dinner)	4.5	4.5	0.47514534	0	5.0	4.94821834564209		4.5	4.5	0.0	1	4.5	4.663520812988281	X-name , is a good restaurant that serves arabian food , especially for dinner .	
inform(name=X-name,phone=X-phone)	5.0	5.0	0.0	1	6.0	5.7756547927856445		6.0	6.0	0.0	1	5.5	5.292907238006592	the phone number for X-name is X-phone .	
inform_no_match(dogs_allowed=yes,area=X-area)	6.0	6.0	0.0	1	5.5	5.309601306915283		4.0	4.0	0.0	1	5.0	4.8710103034973145	i am sorry but there are no hotels near X-area that allow dogs .	
inform(name=X-name,area=X-area,price_range=moderate)	3.5	3.5	0.0	1	5.0	5.024041652679443		4.5	4.5	0.0	1	4.5	4.732815742492676	X-name has a moderate price range in the area of X-area .	
inform(name=X-name,area=X-area)	3.0	3.0	0.1663537	0	5.0	5.139446258544922		4.0	4.0	0.0	1	5.0	4.864363193511963	the X-name is in the X-area area .	
inform(name=X-name,near=X-near,price_range=moderate)	4.0	4.0	0.0	1	5.0	5.004599571228027		5.0	5.0	0.0	1	4.5	4.6544671058654785	X-name is a moderate restaurant near X-near .	
inform(name=X-name,area=X-area,address=X-address,phone=X-phone)	6.0	6.0	0.0	1	5.5	5.285516738891602		5.0	5.0	0.0	1	5.0	4.940857887268066	X-name has 2 locations in X-area , the address is X-address , and the phone number is X-phone .	
inform_no_match(area=X-area)	3.0	3.0	0.16251087	0	5.5	5.405781269073486		4.0	4.0	0.0	1	5.0	4.950105667114258	i am sorry but there are no hotels in the X-area area .	
inform(name=X-name,area=X-area,kids_allowed=no)	5.0	5.0	0.4557371	0	5.0	4.997067451477051		3.0	3.0	0.06569862	0	4.5	4.726068496704102	X-name is in the area of X-area and it does not allow children .	
inform(name=X-name,type=placetoeat,eattype=restaurant,area=X-area,near=X-near,food=Chinese)	6.0	6.0	0.0	1	5.0	5.081697463989258		6.0	6.0	0.0	1	5.0	4.885986328125	X-name is a restaurant in X-area near X-near and x .	
inform_only_match(name=X-name,near=X-near)	3.5	3.5	0.42054558	0	5.0	5.2492475509643555		4.5	4.5	0.0	1	4.5	4.546308517456055	just X-name near X-near .	
inform(name=X-name,type=placetoeat,eattype=restaurant,area=X-area,pricerange=cheap,near=X-near,near=X-near)	5.0	5.0	0.0	1	5.5	5.271230697631836		6.0	6.0	0.0	1	5.0	5.016416072845459	X-name is a restaurant in the centre of town near X-near .	
inform(name=X-name,area=X-area,address=X-address,phone=X-phone)	4.0	4.0	0.0	1	5.5	5.299061298370361		3.0	3.0	0.0	1	5.0	4.870026111602783	X-name is in X-area south at the address is X-address , and the phone number is X-phone .	
inform_no_match(area=X-area,dogs_allowed=yes)	6.0	6.0	0.0	1	5.5	5.42274284362793		4.0	4.0	0.0	1	5.0	4.9823689460754395	i am sorry but there are no hotels near X-area that allow dogs .	
inform(name=X-name,area=X-area,address=X-address)	5.0	5.0	0.0	1	5.0	4.966634750366211		5.0	5.0	0.0111551285	0	4.5	4.644336700439453	X-name is in the X-area hill area and the address is X-address .	
inform(name=X-name,area=X-area)	3.0	3.0	0.35588884	0	5.0	4.949911117553711		2.5	2.5	0.057016373	0	4.5	4.656034469604492	there is a hotel called in the X-name and in the area of X-area .	
inform(name=X-name,type=placetoeat,eattype=restaurant,pricerange=moderate,area=X-area,food=Indian,food='Indian takeaway')	5.0	5.0	0.0	1	5.0	5.063732147216797		5.0	5.0	0.0	1	4.5	4.742709159851074	X-name is an indian restaurant in the moderate price range that offers indian takeaway and riverside .	
inform(type=hotel,count=X-count,area=dont_care)	6.0	6.0	0.0	1	5.0	5.22744083404541		6.0	6.0	0.0	1	5.0	5.096485137939453	there are X-count hotels available if its locations does not matter .	
inform(name=X-name,has_internet=yes,accepts_credit_cards=yes)	6.0	6.0	0.11995888	0	5.0	5.195705413818359		5.0	5.0	0.0	1	5.0	4.820789813995361	X-name has internet and accepts credit cards .	
inform(name=X-name,price_range=moderate,kids_allowed=no,food=tapas)	4.0	4.0	0.10609436	0	5.0	5.2271013259887695		4.0	4.0	0.0	1	5.0	5.012667655944824	the restaurant i recommend is X-name , it serves tapas moderately priced and does not allow children .	
confirm(area=dont_care)	4.0	4.0	0.28905392	0	5.0	4.988518714904785		6.0	6.0	0.0	1	4.5	4.619107723236084	you do not care about the area ?	
inform_no_match(near=X-near,dogs_allowed=yes)	4.0	4.0	0.0	1	5.5	5.515295505523682		5.0	5.0	0.0	1	5.0	4.860066890716553	i am sorry there is no match near X-near that allows dogs .	
inform(name=X-name,near=X-near,kids_allowed=yes,price_range=moderate,food='new american')	5.0	5.0	0.0	1	5.0	4.979795455932617		5.0	5.0	0.0	1	4.5	4.673673629760742	X-name is a moderate new american near X-near and allows children .	
inform(name=X-name,price_range=cheap,food=vegetarian)	5.0	5.0	0.051560402	0	5.5	5.259772300720215		2.0	2.0	0.0	1	5.0	4.935031414031982	X-name is a cheap vegetarian restaurant .	
inform(name=X-name,good_for_meal=dinner,near=X-near,price_range=cheap)	2.5	2.5	0.5568738	0	4.0	4.238785266876221		1.5	1.5	0.09743881	0	4.0	3.9094181060791016	X-name , is near X-near , the is good for dinner , and it is in the cheap price range .	
inform(name=X-name,type=placetoeat,near=X-near,pricerange=expensive,eattype=restaurant)	6.0	6.0	0.0	1	5.5	5.433117866516113		6.0	6.0	0.0	1	5.0	5.159258842468262	X-name is an expensive restaurant near X-near .	
inform(name=X-name,price_range=expensive)	6.0	6.0	0.0	1	5.0	5.128808498382568		6.0	6.0	0.0	1	5.0	4.789052486419678	X-name is in the expensive price range .	
inform(name=X-name,type=placetoeat,eattype=restaurant,area=X-area,near=X-near,food=Contemporary,food=English)	6.0	6.0	0.0	1	5.0	5.198554992675781		5.0	5.0	0.0	1	5.0	4.892256259918213	X-name is an english restaurant in X-area .	
inform(name=X-name,phone=X-phone)	6.0	6.0	0.0	1	6.0	5.7756547927856445		5.0	5.0	0.0	1	5.5	5.292907238006592	the phone number for X-name is X-phone .	
inform(name=X-name,kids_allowed=yes)	5.5	5.5	0.13600874	0	5.5	5.5011162757873535		6.0	6.0	0.0	1	5.0	5.144883632659912	X-name allows children .	
inform(name=X-name,area=X-area,phone=X-phone)	3.0	3.0	0.031318665	0	5.5	5.3018975257873535		3.0	3.0	0.0	1	5.0	4.847984313964844	X-name is in the area of X-area hill , its phone number is X-phone .	
inform(name=X-name,kids_allowed=yes,good_for_meal=dinner)	5.5	5.5	0.3977065	0	5.0	4.922378063201904		4.0	4.0	0.0	1	4.5	4.571423530578613	X-name allows kids , and is good for dinner .	
inform(name=X-name,type=placetoeat,eattype=restaurant,pricerange=moderate,area=X-area,food=Indian)	6.0	6.0	0.0	1	5.0	5.186380386352539		6.0	6.0	0.0	1	5.0	4.798089981079102	X-name is a moderately priced indian restaurant located in the X-area area .	
inform(name=X-name,has_internet=yes)	6.0	6.0	0.071932316	0	5.5	5.445601940155029		5.5	5.5	0.097858906	0	5.0	4.815144062042236	X-name has internet .	
inform(name=X-name,type=restaurant)	6.0	6.0	0.044201374	0	5.5	5.622269630432129		6.0	6.0	0.0	1	5.0	5.113467693328857	X-name is a nice restaurant .	
inform(name=none,area=X-area,near=X-near)	5.0	5.0	0.12771797	0	5.5	5.437941551208496		6.0	6.0	0.0	1	5.0	5.015453338623047	i am sorry but there is X-name information about a venue in X-area near X-near .	
inform(name=X-name,price_range=moderate)	4.5	4.5	0.0	1	5.0	5.117795944213867		5.0	5.0	0.0	1	5.0	4.852328300476074	the X-name is a moderate hotel .	
inform(name=X-name,type=placetoeat,eattype=restaurant,near=X-near,area=X-area,food=Indian)	4.0	4.0	0.0	1	5.0	5.1587395668029785		3.0	3.0	0.0	1	5.0	4.791750431060791	X-name is an indian restaurant in the riverside near X-near .	
inform(name=X-name,type=placetoeat,eattype=restaurant,pricerange=expensive,near=X-near,near=X-near)	3.0	3.0	0.0	1	5.5	5.337254524230957		4.0	4.0	0.0	1	5.0	5.032918453216553	X-name is an expensive restaurant in the expensive price range .	
inform_no_match(area=X-area)	5.0	5.0	0.19882679	0	5.5	5.369465351104736		6.0	6.0	0.0	1	5.0	5.228714942932129	i am sorry i am not finding any hotels in the X-area area .	
inform(type=hotel,count=X-count,price_range=dont_care)	5.0	5.0	0.0	1	5.0	5.204779624938965		4.0	4.0	0.0	1	5.0	4.934966087341309	there are X-count hotels if you do not care the price range .	
confirm(area=X-area)	4.0	4.0	0.26978302	0	5.0	5.219748497009277		4.5	4.5	0.0	1	5.0	4.865503311157227	you would like to search X-area ?	
inform_no_match(area=X-area,dogs_allowed=yes)	5.0	5.0	0.0	1	5.5	5.326539039611816		5.5	5.5	0.0	1	5.0	4.906434535980225	i am sorry but there are no hotels in the X-area area that match those requirements allows dogs .	
inform(name=X-name,area=X-area,address=X-address)	5.0	5.0	0.10721016	0	5.0	4.847009658813477		6.0	6.0	0.13561535	0	4.5	4.519876480102539	X-name , is located in X-area its address is 925 cortland ave .	
inform(name=X-name,food=indian)	6.0	6.0	0.17391491	0	5.5	5.4898247718811035		6.0	6.0	0.0	1	5.0	5.156529426574707	X-name serves indian food .	
inform(name=X-name,price_range=moderate,phone=X-phone)	4.0	4.0	0.0	1	5.5	5.387943744659424		5.0	5.0	0.0	1	5.0	4.961827754974365	X-name is in the moderate price range and the phone number is X-phone .	
inform(name=X-name,type=placetoeat,area=X-area,eattype=restaurant,pricerange=moderate)	6.0	6.0	0.0	1	5.0	5.221780776977539		5.5	5.5	0.0	1	5.0	5.034233570098877	X-name is a moderately priced indian restaurant in X-area .	
inform_no_match(good_for_meal=lunch,food=afghan)	4.5	4.5	0.37541962	0	5.0	5.018538951873779		5.0	5.0	0.0	1	4.5	4.644387245178223	unfortunately 0 restaurants serve afghan for lunch .	
confirm(near=X-near)	4.0	4.0	0.38100004	0	5.5	5.33425760269165		2.0	2.0	0.0	1	5.0	5.12184476852417	can i confirm you want X-near with internet connection ?	
inform_only_match(name=X-name,near=X-near,kids_allowed=yes,price_range=moderate)	5.5	5.5	0.0	1	4.5	4.44443416595459		5.0	5.0	0.0	1	4.0	3.8120856285095215	just X-name near X-near that allow kids , and are moderately priced .	
inform(name=X-name,dogs_allowed=yes)	6.0	6.0	0.0	1	5.5	5.729153633117676		5.0	5.0	0.0	1	5.0	5.2419819831848145	the X-name allows dogs .	
inform(name=X-name,food=asian)	6.0	6.0	0.21147108	0	5.5	5.528898239135742		5.0	5.0	0.0	1	5.0	5.2357330322265625	X-name serves asian food .	
inform(name=X-name,type=placetoeat,eattype=restaurant,near=X-near,area=X-area,area=X-area)	4.0	4.0	0.0	1	4.5	4.749680519104004		4.5	4.5	0.0	1	4.5	4.432168483734131	X-name is a restaurant in the centre of town and riverside area near X-near .	
inform(name=X-name,address=X-address,phone=X-phone)	3.0	3.0	0.0	1	5.5	5.5039963722229		3.0	3.0	0.0	1	5.0	5.0913238525390625	the address of X-name is X-address and the phone number is X-phone .	
inform(name=X-name,food=persian,good_for_meal=dinner)	6.0	6.0	0.41456747	0	5.0	4.907116889953613		5.5	5.5	0.0	1	4.5	4.522061824798584	X-name , is a good restaurant that serves persian food , especially for dinner .	
inform(name=X-name,price_range=moderate)	3.0	3.0	0.0	1	5.0	4.959354400634766		3.0	3.0	0.0	1	4.5	4.606078624725342	X-name is in the moderate price range .	
inform(name=X-name,kids_allowed=yes)	3.0	3.0	0.13600874	0	5.5	5.5011162757873535		4.0	4.0	0.0	1	5.0	5.144883632659912	X-name allows children .	
inform(name=X-name,area=X-area)	5.0	5.0	0.1663537	0	5.0	5.139446258544922		4.0	4.0	0.0	1	5.0	4.864363193511963	the X-name is in the X-area area .	
inform(name=X-name,type=restaurant)	6.0	6.0	0.044201374	0	5.5	5.622269630432129		4.0	4.0	0.0	1	5.0	5.113467693328857	X-name is a nice restaurant .	
inform_only_match(name=X-name,near=X-near)	4.0	4.0	0.32036924	0	5.5	5.349423885345459		5.0	5.0	0.0	1	5.0	4.93785285949707	X-name is the only restaurant listed near X-near .	
inform(name=X-name,area=X-area)	3.0	3.0	0.28190804	0	5.0	5.023891925811768		4.0	4.0	0.0	1	4.5	4.72869873046875	there is a hotel called in X-name and in the area of X-area .	
inform(name=X-name,type=placetoeat,eattype=restaurant,pricerange=expensive,area=X-area)	6.0	6.0	0.0	1	5.0	5.028883934020996		6.0	6.0	0.0	1	4.5	4.694408893585205	X-name is an expensive restaurant in the X-area area .	
inform(type=hotel,count=X-count,near=X-near)	6.0	6.0	0.0040607452	0	5.5	5.589107036590576		5.0	5.0	0.0	1	5.5	5.371579647064209	there are X-count hotels near X-near .	
inform(name=X-name,type=restaurant)	5.0	5.0	0.044201374	0	5.5	5.622269630432129		5.0	5.0	0.0	1	5.0	5.113467693328857	X-name is a nice restaurant .	
inform_no_match(area=X-area)	5.0	5.0	0.16251087	0	5.5	5.405781269073486		4.0	4.0	0.0	1	5.0	4.950105667114258	i am sorry but there are no hotels in the X-area area .	
inform_no_match(area=X-area)	5.0	5.0	0.19882679	0	5.5	5.369465351104736		5.5	5.5	0.0	1	5.0	5.228714942932129	i am sorry i am not finding any hotels in the X-area area .	
inform_no_match(area=X-area,near=X-near)	6.0	6.0	0.344419	0	5.0	5.091259956359863		6.0	6.0	0.0	1	4.5	4.586630821228027	there is no match for a hotel in the X-area area near the X-near .	
inform_no_match(area=X-area)	5.5	5.5	0.19882679	0	5.5	5.369465351104736		5.5	5.5	0.0	1	5.0	5.228714942932129	i am sorry i am not finding any hotels in the X-area area .	
inform(name=X-name,type=restaurant)	6.0	6.0	0.044201374	0	5.5	5.622269630432129		6.0	6.0	0.0	1	5.0	5.113467693328857	X-name is a nice restaurant .	
inform(name=X-name,type=placetoeat,pricerange=expensive,area=X-area,eattype=restaurant)	5.0	5.0	0.0	1	5.5	5.288763523101807		5.0	5.0	0.0	1	5.0	5.006897449493408	X-name is an expensive restaurant , in the riverside area .	
inform(name=X-name,price_range=cheap,near=X-near)	6.0	6.0	0.21922159	0	5.0	5.243889331817627		5.5	5.5	0.0	1	5.0	4.867209434509277	X-name near X-near offers cheap food .	
inform(name=X-name,area=X-area)	2.0	2.0	0.56302786	0	4.5	4.742772102355957		1.5	1.5	0.34876156	0	4.5	4.364289283752441	X-name , is in the are of X-area .	
inform(name=X-name,area=X-area,kids_allowed=no,good_for_meal=dinner)	5.0	5.0	0.5910258	0	4.5	4.541415691375732		5.0	5.0	0.0	1	4.0	4.231472969055176	X-name , is a nice restaurant in the X-area area that allows children , and is good for dinner .	
inform(name=X-name,kids_allowed=yes,price_range=cheap,good_for_meal=breakfast)	2.0	2.0	0.0	1	5.0	5.240168571472168		2.0	2.0	0.0	1	5.0	5.018584728240967	X-name has a cheap allows kids , and is good for breakfast .	
inform(name=X-name,price_range=moderate)	4.5	4.5	0.16597223	0	4.5	4.650421619415283		3.5	3.5	0.14528084	0	4.0	4.145063877105713	X-name , is moderate .	
inform(name=X-name,type=placetoeat,eattype=restaurant,area=X-area,food=Fastfood)	6.0	6.0	0.0	1	5.0	5.147490978240967		6.0	6.0	0.0	1	5.0	4.812343597412109	X-name is a fast food restaurant in the riverside area .	
inform(name=X-name,area=X-area,dogs_allowed=yes,has_internet=yes)	4.5	4.5	0.09365749	0	5.0	4.811935901641846		5.0	5.0	0.074388504	0	4.5	4.380125999450684	X-name has internet , is in the X-area area and does allow dogs .	
inform_no_match(price_range=pricey,near=X-near)	4.5	4.5	0.30558014	0	5.0	5.032732009887695		5.0	5.0	0.0	1	4.5	4.582736492156982	okay well there are no hotels that are in the pricey range in the X-near area .	
inform(name=X-name,type=placetoeat,area=X-area,near=X-near,eattype=restaurant)	5.5	5.5	0.0	1	5.5	5.273373126983643		5.5	5.5	0.0	1	5.0	5.080037593841553	X-name is a restaurant in X-area , near to X-near .	
inform(name=X-name,food=malaysian)	5.0	5.0	0.13606644	0	5.5	5.37803840637207		3.0	3.0	0.0	1	5.0	4.9667534828186035	X-name serves malaysian food .	
inform(name=X-name,good_for_meal=dinner,food=basque)	6.0	6.0	0.47862244	0	5.0	5.088656425476074		5.5	5.5	0.20611858	0	4.5	4.725262641906738	X-name , is a good restaurant that serves basque food , especially for dinner .	
inform(name=X-name,area=X-area)	6.0	6.0	0.32069254	0	5.0	4.985107421875		5.0	5.0	0.062634945	0	4.5	4.650415897369385	X-name is in the area of X-area .	
inform_no_match(price_range=expensive,food=cambodian)	1.5	1.5	0.81918335	0	4.5	4.736138820648193		2.0	2.0	0.54330444	0	4.5	4.503039836883545	unfortunately 0 restaurants serve cambodian are expensive .	
inform(name=X-name,address=X-address)	5.5	5.5	0.039308548	0	5.5	5.370401859283447		5.5	5.5	0.0	1	5.0	5.168982982635498	X-name 's address is X-address .	
inform(name=X-name,accepts_credit_cards=yes,dogs_allowed=no,near=X-near)	2.0	2.0	0.090519905	0	5.5	5.4391069412231445		2.0	2.0	0.0	1	5.0	5.11114501953125	the X-name accepts credit cards in X-near does not allow dogs .	
inform_no_match(area=X-area,price_range='ultra high end')	6.0	6.0	0.0	1	5.5	5.261996269226074		6.0	6.0	0.0	1	5.0	4.8968658447265625	there are no ultra high end hotels in X-area .	
inform_only_match(name=X-name,price_range=cheap,good_for_meal=brunch)	3.5	3.5	0.009776592	0	5.0	4.7955522537231445		4.0	4.0	0.0	1	4.0	4.222774505615234	there is no place other than X-name that is cheap and a good for brunch .	
inform(name=X-name,area=X-area,address=X-address)	5.0	5.0	0.14866877	0	5.0	4.805551052093506		5.0	5.0	0.15568829	0	4.5	4.49980354309082	X-name , is in the X-area area and it is address is X-address .	
inform(name=X-name,near=X-near,good_for_meal=dinner)	5.0	5.0	0.5860467	0	5.0	4.789195537567139		6.0	6.0	0.0	1	4.5	4.423534393310547	X-name , is a nice restaurant near X-near , and is good for dinner .	
inform(name=X-name,address=X-address,phone=X-phone)	5.0	5.0	0.0	1	5.5	5.386600017547607		5.0	5.0	0.0	1	5.0	5.014148235321045	X-name is located at X-address , and their phone number is X-phone .	
inform(name=X-name,type=placetoeat,eattype=restaurant,area=X-area,near=X-near,food=Chinese)	5.0	5.0	0.2884159	0	4.5	4.662981986999512		5.0	5.0	0.0	1	4.5	4.476384162902832	X-name is a chinese food restaurant and is located in the centre of town area city .	
inform_no_match(area=X-area,good_for_meal=brunch)	6.0	6.0	0.0006709099	0	5.0	5.12186861038208		5.0	5.0	0.0	1	4.5	4.725475311279297	there are no restaurants in X-area that are good for brunch .	
inform(name=X-name,address=X-address,phone=X-phone)	4.0	4.0	0.0	1	5.5	5.582502841949463		4.0	4.0	0.0	1	5.0	5.119896411895752	the address for X-name is X-address . the phone number is X-phone .	
inform(name=X-name,type=restaurant)	6.0	6.0	0.044201374	0	5.5	5.622269630432129		6.0	6.0	0.0	1	5.0	5.113467693328857	X-name is a nice restaurant .	
inform_no_match(area=X-area)	5.0	5.0	0.19882679	0	5.5	5.369465351104736		4.0	4.0	0.0	1	5.0	5.228714942932129	i am sorry i am not finding any hotels in the X-area area .	
inform(name=X-name,price_range=cheap,food=taiwanese,good_for_meal=lunch)	5.0	5.0	0.0	1	5.0	5.221196174621582		5.5	5.5	0.0	1	5.0	4.95831823348999	the X-name provides taiwanese lunch for a cheap price range .	
inform(name=X-name,kids_allowed=no,near=X-near)	6.0	6.0	0.3785634	0	5.5	5.401742935180664		6.0	6.0	0.0	1	5.0	5.127360820770264	X-name is a nice restaurant near X-near that does not allow children .	
inform(name=X-name,address=X-address,phone=X-phone)	6.0	6.0	0.0	1	5.5	5.386600017547607		6.0	6.0	0.0	1	5.0	5.014148235321045	X-name is located at X-address , and their phone number is X-phone .	
inform(name=X-name,address=X-address)	5.0	5.0	0.0	1	5.5	5.4848222732543945		4.0	4.0	0.0	1	5.0	5.158531188964844	the address for X-name is X-address .	
inform(name=X-name,type=placetoeat,area=X-area,pricerange=moderate,eattype=restaurant)	6.0	6.0	0.0	1	5.5	5.380500793457031		5.0	5.0	0.0	1	5.0	5.091583251953125	X-name is a restaurant in the X-area area .	
inform(name=X-name,type=placetoeat,eattype=restaurant,near=X-near,area=X-area,area=X-area)	3.5	3.5	0.0	1	5.0	4.878608703613281		3.0	3.0	0.0	1	4.5	4.569626808166504	X-name is a restaurant in X-near on the river near to X-area .	
inform(name=X-name,type=placetoeat,eattype=restaurant,pricerange=moderate,area=X-area,food=Indian,food='Indian takeaway')	4.0	4.0	0.047593594	0	5.0	4.757452964782715		4.0	4.0	0.0	1	4.5	4.474138259887695	X-name is a moderately priced indian restaurant in the riverside area which serves indian food in the moderate price range in the riverside area .	
inform(name=X-name,near=X-near,price_range=cheap)	4.0	4.0	0.0	1	5.0	5.130364894866943		3.0	3.0	0.0	1	5.0	4.785210609436035	X-name is a cheap restaurant near X-near .	
inform(name=X-name,area=X-area,accepts_credit_cards=yes)	6.0	6.0	0.13768578	0	5.0	5.042597770690918		6.0	6.0	0.020308495	0	4.5	4.680088520050049	X-name is in the area of X-area and accepts credit cards .	
inform(name=X-name,type=placetoeat,eattype=restaurant,area=X-area)	6.0	6.0	0.0	1	5.0	5.119344234466553		6.0	6.0	0.0	1	5.0	4.8038249015808105	X-name is a restaurant in the city centre .	
inform(name=X-name,type=placetoeat,eattype=restaurant,area=X-area)	6.0	6.0	0.0	1	5.0	5.119344234466553		6.0	6.0	0.0	1	5.0	4.8038249015808105	X-name is a restaurant in the city centre .	
inform(name=X-name,eattype=restaurant,addr=X-addr)	6.0	6.0	0.0	1	5.5	5.351253509521484		5.0	5.0	0.0	1	5.0	5.050755977630615	X-name is a restaurant located at X-addr .	
inform(name=X-name,price_range=moderate,kids_allowed=yes,food='new american')	6.0	6.0	0.0	1	5.0	5.185171604156494		5.0	5.0	0.0	1	5.0	4.912558555603027	X-name is a moderately priced new american restaurant that allows children .	
select(food='new american or thai')	6.0	6.0	0.33834076	0	5.5	5.630581855773926		6.0	6.0	0.0	1	5.5	5.501436233520508	would you prefer new american or thai food ?	
inform(name=X-name,food=thai,near=X-near)	4.5	4.5	0.38747263	0	5.5	5.327434539794922		5.0	5.0	0.0	1	5.0	5.136693954467773	X-name near X-near serves thai .	
inform(name=X-name,kids_allowed=no,price_range=moderate)	5.0	5.0	0.0	1	5.0	5.001676559448242		5.0	5.0	0.0	1	4.5	4.6669721603393555	X-name is an moderate restaurant that does not allow children .	
inform(name=X-name,type=placetoeat,area=X-area,pricerange=expensive,eattype=restaurant)	5.5	5.5	0.0	1	5.5	5.332971096038818		6.0	6.0	0.0	1	5.0	5.09317684173584	X-name is a restaurant in X-area if you are seeking something expensive .	
inform(name=X-name,address=X-address,postcode=X-postcode)	4.0	4.0	0.0	1	5.5	5.583840370178223		4.5	4.5	0.0	1	5.5	5.2522053718566895	the address for X-name is X-address , X-postcode .	
inform(name=X-name,type=placetoeat,eattype=restaurant,near=X-near,pricerange=expensive)	4.0	4.0	0.0	1	5.0	5.248747825622559		5.0	5.0	0.0	1	5.0	5.052838325500488	X-name is a restaurant near X-near in the expensive price range .	
inform(name=X-name,has_internet=yes,dogs_allowed=no)	6.0	6.0	0.14489937	0	5.5	5.337276458740234		6.0	6.0	0.0	1	5.0	5.083863258361816	X-name does not allow dogs , has internet access .	
inform(name=X-name,food='comfort food')	2.0	2.0	0.19460583	0	5.5	5.440203666687012		3.0	3.0	0.0	1	5.0	5.139100074768066	X-name serves comfort food .	
inform(name=X-name,price_range=cheap,kids_allowed=yes)	5.5	5.5	0.20608473	0	5.0	5.103544235229492		5.0	5.0	0.0	1	5.0	4.783454895019531	X-name , is cheaply priced and allows kids .	
inform(name=X-name,kids_allowed=no,price_range=expensive)	6.0	6.0	0.0	1	5.0	5.1255083084106445		5.0	5.0	0.0	1	5.0	4.889956951141357	X-name is an expensive restaurant that does not allow children .	
inform(name=X-name,price_range=cheap)	6.0	6.0	0.27252197	0	5.0	4.900030136108398		4.0	4.0	0.08488035	0	4.5	4.385942459106445	X-name , is cheap .	
inform(name=X-name,price_range=moderate,address=X-address,phone=X-phone)	6.0	6.0	0.0	1	5.0	5.235668182373047		6.0	6.0	0.0	1	5.0	4.850094795227051	X-name is located at X-address , and the phone number is X-phone . it is moderately priced .	
inform(name=X-name,type=restaurant)	5.5	5.5	0.104012966	0	5.5	5.562458038330078		5.5	5.5	0.0	1	5.0	5.191867351531982	the name of the restaurant is X-name .	
inform(name=X-name,address=X-address,postcode=X-postcode)	4.0	4.0	0.0	1	5.5	5.554149627685547		4.0	4.0	0.0	1	5.0	5.220833778381348	the address of the X-name is X-address and the postcode is X-postcode .	
inform_no_match(area=X-area)	6.0	6.0	0.19507551	0	5.5	5.37321662902832		5.0	5.0	0.021801949	0	5.0	4.89496374130249	i am sorry but there are no hotels in the area of X-area .	
inform(name=X-name,type=placetoeat,eattype=restaurant,area=X-area,pricerange=moderate,food=Indian)	5.0	5.0	0.0	1	5.5	5.284976959228516		5.0	5.0	0.0	1	5.0	4.960997104644775	X-name is a moderately priced indian restaurant in X-area .	
inform(name=X-name,kids_allowed=yes)	6.0	6.0	0.1959238	0	5.5	5.441201210021973		4.0	4.0	0.0	1	5.0	5.211282730102539	X-name is a nice restaurant that allows children .	
inform(name=X-name,dogs_allowed=none,accepts_credit_cards=yes)	5.0	5.0	0.0	1	5.5	5.3840837478637695		5.0	5.0	0.0	1	5.0	5.107482433319092	the X-name allows dogs and accepts credit cards .	
inform(name=X-name,dogs_allowed=none,accepts_credit_cards=yes)	6.0	6.0	0.0	1	5.5	5.3840837478637695		6.0	6.0	0.0	1	5.0	5.107482433319092	the X-name allows dogs and accepts credit cards .	
inform(name=X-name,type=placetoeat,eattype=restaurant,pricerange=expensive,near=X-near)	4.0	4.0	0.0	1	5.5	5.355197906494141		4.0	4.0	0.0	1	5.0	5.0509233474731445	X-name is an expensive restaurant in the expensive price range .	
inform_no_match(area=X-area)	5.5	5.5	0.19882679	0	5.5	5.369465351104736		5.5	5.5	0.0	1	5.0	5.228714942932129	i am sorry i am not finding any hotels in the X-area area .	
inform(name=X-name,type=placetoeat,eattype=restaurant,area=X-area,near=X-near,near=X-near,food=French)	6.0	6.0	0.02801609	0	5.0	5.177267074584961		4.0	4.0	0.0	1	5.0	4.870231628417969	X-name is a french restaurant in the riverside area near X-near , and X-near .	
inform(name=X-name,near=X-near)	5.0	5.0	0.5643015	0	5.5	5.260520935058594		3.0	3.0	0.10407257	0	5.0	4.817359447479248	X-name is near X-near .	
inform(name=X-name,type=placetoeat,eattype=restaurant,near=X-near,pricerange=cheap)	2.5	2.5	0.0	1	5.5	5.328293800354004		1.0	1.0	0.0	1	5.0	5.145465850830078	X-name is a restaurant near X-near which offers cheap price range .	
inform(name=X-name,type=placetoeat,eattype=restaurant,pricerange=expensive,area=X-area,area=X-area,food=Italian)	6.0	6.0	0.0	1	5.0	5.097111701965332		5.0	5.0	0.0	1	4.5	4.731542110443115	X-name is an italian restaurant near X-area .	
inform_no_match(area=X-area)	5.0	5.0	0.16251087	0	5.5	5.405781269073486		5.0	5.0	0.0	1	5.0	4.950105667114258	i am sorry but there are no hotels in the X-area area .	
inform_no_match(price_range=pricey,near=X-near)	5.0	5.0	0.25759935	0	5.0	5.080712795257568		3.0	3.0	0.0	1	4.5	4.472474575042725	there is no pricey hotel near the X-near .	
inform(name=X-name,kids_allowed=no,near=X-near,good_for_meal=dinner)	3.0	3.0	0.48416042	0	5.0	4.8163604736328125		2.0	2.0	0.0	1	4.5	4.45173454284668	X-name is near X-near and does not allow kids for dinner .	
inform(name=X-name,type=placetoeat,pricerange=expensive,near=X-near,near=X-near,eattype=restaurant)	4.0	4.0	0.0	1	5.5	5.37600040435791		5.0	5.0	0.0	1	5.0	5.171079158782959	X-name is a restaurant near X-near in the expensive price range .	
inform(name=X-name,address=X-address,phone=X-phone)	6.0	6.0	0.0	1	5.5	5.386600017547607		6.0	6.0	0.0	1	5.0	5.014148235321045	X-name is located at X-address , and their phone number is X-phone .	
inform(name=X-name,near=X-near)	5.0	5.0	0.3510599	0	5.5	5.473762512207031		5.0	5.0	0.0	1	5.0	5.073853492736816	the X-name is near X-near .	
inform(name=X-name,price_range=inexpensive)	5.5	5.5	0.091178894	0	5.5	5.31364631652832		5.5	5.5	0.0	1	5.0	5.053184509277344	the X-name is a inexpensive hotel .	
inform(name=X-name,price_range=moderate,kids_allowed=no)	4.5	4.5	0.42328405	0	5.0	4.842015266418457		4.5	4.5	0.20517826	0	4.5	4.4846086502075195	X-name , is moderately prices and does not allow children .	
inform(name=X-name,type=hotel)	6.0	6.0	0.2754898	0	5.5	5.445030212402344		4.0	4.0	0.0	1	5.0	4.971181392669678	the X-name is a nice hotel .	
inform(name=X-name,type=placetoeat,eattype=restaurant,near=X-near,pricerange=moderate,food=Indian,food='Indian takeaway')	6.0	6.0	0.0	1	5.5	5.278907775878906		6.0	6.0	0.0	1	5.0	4.9871602058410645	X-name is an indian restaurant near X-near .	
inform(name=X-name,area=X-area,food='new american')	2.0	2.0	0.30991316	0	5.0	5.013363838195801		2.5	2.5	0.20351124	0	4.5	4.557607173919678	X-name , is in X-area serves new american food .	
inform(name=X-name,type=placetoeat,eattype=restaurant,pricerange=moderate,area=X-area,food=Italian)	5.0	5.0	0.0	1	5.0	5.074997425079346		5.0	5.0	0.0	1	4.5	4.709664821624756	X-name is an italian restaurant in the moderate price range located in the X-area area .	
inform(name=X-name,address=X-address,phone=X-phone)	6.0	6.0	0.0	1	5.5	5.430093288421631		6.0	6.0	0.0	1	5.0	5.128546237945557	X-name 's address is X-address , and its phone number is X-phone .	
inform(name=X-name,near=X-near)	2.0	2.0	1.0019965	0	5.0	4.822825908660889		2.5	2.5	0.51593924	0	4.5	4.405492782592773	he X-name is located near X-near .	
confirm(area=X-area)	6.0	6.0	0.59020424	0	5.0	4.899327278137207		4.0	4.0	0.0	1	4.5	4.7315497398376465	to confirm , you are looking for a hotel in the X-area area ?	
inform(name=X-name,kids_allowed=no,good_for_meal=brunch)	6.0	6.0	0.25410128	0	5.0	5.2350544929504395		5.0	5.0	0.0	1	5.0	5.011584281921387	X-name does not allow kids and is good for brunch .	
inform(name=X-name,area=X-area)	4.0	4.0	0.1663537	0	5.0	5.139446258544922		4.0	4.0	0.0	1	5.0	4.864363193511963	the X-name is in the X-area area .	
inform(name=X-name,type=placetoeat,area=X-area,near=X-near,near=X-near,eattype=restaurant)	4.0	4.0	0.0	1	5.0	5.210468292236328		4.5	4.5	0.0	1	5.0	4.9868483543396	X-name is a restaurant in the centre of town located near X-near and X-near .	
inform(name=X-name,address=X-address,postcode=X-postcode)	6.0	6.0	0.0	1	5.5	5.583840370178223		5.0	5.0	0.0	1	5.5	5.2522053718566895	the address for X-name is X-address , X-postcode .	
inform(name=X-name,price_range=cheap)	5.0	5.0	0.04100275	0	5.0	5.13154935836792		6.0	6.0	0.0	1	4.5	4.731118679046631	X-name is in the cheap price range .	
inform(name=X-name,food=basque,kids_allowed=no)	5.0	5.0	0.3857422	0	5.0	5.229457855224609		5.0	5.0	0.0	1	5.0	4.977216720581055	X-name , is a nice restaurant that serves basque food and does not allow children .	
inform(name=X-name,dogs_allowed=no,near=X-near)	6.0	6.0	0.39590788	0	5.5	5.401334762573242		6.0	6.0	0.0	1	5.0	5.140298843383789	X-name near X-near does not allow dogs .	
inform(name=X-name,phone=X-phone)	6.0	6.0	0.0	1	6.0	5.7756547927856445		6.0	6.0	0.0	1	5.5	5.292907238006592	the phone number for X-name is X-phone .	
inform(name=X-name,phone=X-phone)	6.0	6.0	0.0	1	6.0	5.7756547927856445		5.0	5.0	0.0	1	5.5	5.292907238006592	the phone number for X-name is X-phone .	
inform(name=X-name,dogs_allowed=yes)	6.0	6.0	0.0	1	5.5	5.729153633117676		5.0	5.0	0.0	1	5.0	5.2419819831848145	the X-name allows dogs .	
inform(name=X-name,type=placetoeat,eattype=restaurant,pricerange=expensive,near=X-near,food=Italian)	6.0	6.0	0.0056438446	0	5.5	5.299589157104492		4.0	4.0	0.0	1	5.0	5.033175468444824	X-name is an expensive restaurant near X-near .	
confirm(area=X-area)	6.0	6.0	0.25164604	0	5.0	5.237885475158691		5.0	5.0	0.0	1	5.0	5.00416374206543	are you looking for a restaurant in the area of X-area ?	
inform(name=X-name,phone=X-phone)	4.0	4.0	0.0	1	6.0	5.7756547927856445		4.0	4.0	0.0	1	5.5	5.292907238006592	the phone number for X-name is X-phone .	
inform(name=X-name,area=X-area,address=X-address)	5.0	5.0	0.0	1	5.0	4.966634750366211		5.0	5.0	0.0111551285	0	4.5	4.644336700439453	X-name is in the X-area hill area and the address is X-address .	
inform(name=X-name,type=placetoeat,eattype=restaurant,pricerange=expensive,area=X-area)	4.0	4.0	0.0	1	5.0	4.994582653045654		4.0	4.0	0.0	1	4.5	4.676424026489258	X-name is a restaurant in the expensive price range in the X-area area .	
inform_no_match(price_range=expensive,food=cambodian)	4.0	4.0	0.31858492	0	5.0	5.236737251281738		3.0	3.0	0.05251789	0	5.0	4.993826389312744	i am sorry , i can not find any restaurants that serve cambodian food and are expensive .	
inform(name=X-name,type=placetoeat,eattype=restaurant,near=X-near,food=Chinese)	6.0	6.0	0.0	1	5.0	5.113126754760742		6.0	6.0	0.0	1	5.0	4.915773868560791	X-name is a chinese restaurant near X-near .	
inform(name=X-name,type=placetoeat,eattype=restaurant,pricerange=expensive,near=X-near,near=X-near)	4.0	4.0	0.0	1	5.0	5.244500637054443		5.0	5.0	0.0	1	5.0	4.9838433265686035	X-name is a restaurant in the expensive price range near X-near and X-near .	
inform(name=X-name,type=placetoeat,eattype=restaurant,pricerange=moderate)	6.0	6.0	0.0	1	5.5	5.339544773101807		6.0	6.0	0.0	1	5.0	5.113187313079834	X-name is a restaurant in the moderate price range .	
inform(name=X-name,type=placetoeat,eattype=restaurant,pricerange=moderate)	6.0	6.0	0.0	1	5.5	5.339544773101807		5.5	5.5	0.0	1	5.0	5.113187313079834	X-name is a restaurant in the moderate price range .	
inform(name=X-name,kids_allowed=no)	5.5	5.5	0.39226913	0	5.5	5.456511497497559		5.5	5.5	0.0	1	5.0	5.234063625335693	there are no children allowed at X-name .	
inform(name=X-name,price_range=expensive)	5.0	5.0	0.015626907	0	5.0	5.019942283630371		4.0	4.0	0.0	1	4.5	4.478740692138672	X-name , is expensive .	
inform(name=X-name,price_range=expensive,near=X-near)	5.0	5.0	0.001709938	0	5.5	5.280240535736084		5.0	5.0	0.0	1	5.0	4.987495422363281	X-name is a expensive restaurant near X-near .	
inform(name=X-name,type=placetoeat,near=X-near,pricerange=moderate,eattype=restaurant)	6.0	6.0	0.0	1	5.5	5.367334365844727		2.0	2.0	0.0	1	5.0	5.151086807250977	X-name is a moderately priced indian restaurant near X-near .	
inform(name=X-name,price_range=moderate)	5.0	5.0	0.0	1	5.0	4.959354400634766		5.0	5.0	0.0	1	4.5	4.606078624725342	X-name is in the moderate price range .	
inform(name=X-name,type=restaurant)	6.0	6.0	0.104012966	0	5.5	5.562458038330078		5.0	5.0	0.0	1	5.0	5.191867351531982	the name of the restaurant is X-name .	
inform(name=X-name,dogs_allowed=yes)	3.5	3.5	0.012407303	0	5.5	5.615795135498047		4.0	4.0	0.0	1	5.0	5.172520160675049	thank you the X-name allows dogs .	
inform(name=X-name,near=X-near)	6.0	6.0	0.5643015	0	5.5	5.260520935058594		5.0	5.0	0.10407257	0	5.0	4.817359447479248	X-name is near X-near .	
inform(name=X-name,address=X-address,phone=X-phone,postcode=X-postcode)	6.0	6.0	0.0	1	5.5	5.455624103546143		6.0	6.0	0.0	1	5.5	5.307433128356934	you may find the X-name at X-address , X-postcode , and the phone number is X-phone .	
inform(name=X-name,good_for_meal='lunch or dinner')	5.0	5.0	0.2358799	0	5.5	5.287213325500488		5.0	5.0	0.0	1	5.0	5.020557403564453	X-name is a good restaurant for lunch or dinner .	
inform(name=X-name,phone=X-phone)	6.0	6.0	0.0	1	6.0	5.7756547927856445		5.0	5.0	0.0	1	5.5	5.292907238006592	the phone number for X-name is X-phone .	
inform(name=X-name,type=placetoeat,eattype=restaurant,area=X-area,near=X-near,food='Chinese takeaway',food=Japanese)	4.0	4.0	0.0	1	5.0	5.064716339111328		2.0	2.0	0.0	1	4.5	4.659623146057129	X-name is a japanese food and chinese takeaway restaurant in the city centre area near X-near .	
confirm(price_range=dont_care)	5.0	5.0	0.42126513	0	4.5	4.563365459442139		2.0	2.0	0.028112888	0	4.0	4.066475868225098	do you mean that you do not care which price range ?	
inform(name=X-name,type=placetoeat,eattype=restaurant,pricerange=cheap,area=X-area,near=X-near)	6.0	6.0	0.0	1	5.5	5.299710750579834		4.0	4.0	0.0	1	5.0	5.036556243896484	X-name is a cheap restaurant in the riverside near X-near .	
confirm(area=X-area)	3.5	3.5	0.25916004	0	5.0	5.230371475219727		4.0	4.0	0.0	1	5.0	5.084681987762451	you want a hotel in the X-area ?	
inform(name=X-name,address=X-address)	5.0	5.0	0.0	1	5.5	5.4848222732543945		3.0	3.0	0.0	1	5.0	5.158531188964844	the address for X-name is X-address .	
inform(name=X-name,good_for_meal=breakfast,food=mexican,kids_allowed=yes)	6.0	6.0	0.0	1	5.5	5.320589065551758		5.0	5.0	0.0	1	5.0	4.991702079772949	X-name serves mexican food for breakfast and allows kids .	
inform(name=X-name,area=X-area)	3.5	3.5	0.56302786	0	4.5	4.742772102355957		3.0	3.0	0.34876156	0	4.5	4.364289283752441	X-name , is in the are of X-area .	
inform(name=X-name,address=X-address,phone=X-phone,postcode=X-postcode)	3.0	3.0	0.0	1	5.5	5.465632915496826		4.0	4.0	0.0	1	5.0	5.12808895111084	X-name is located at X-address . the postcode is X-postcode . the phone number is X-phone .	
inform(name=X-name,near=X-near)	6.0	6.0	0.5643015	0	5.5	5.260520935058594		3.0	3.0	0.10407257	0	5.0	4.817359447479248	X-name is near X-near .	
inform(name=X-name,kids_allowed=no,good_for_meal=breakfast)	4.5	4.5	0.4059391	0	5.0	5.0378007888793945		4.0	4.0	0.19275188	0	5.0	4.752157211303711	X-name , is good for breakfast , and no children are allowed .	
inform(name=X-name,area=X-area)	4.0	4.0	0.35588884	0	5.0	4.949911117553711		3.0	3.0	0.057016373	0	4.5	4.656034469604492	there is a hotel called in the X-name and in the area of X-area .	
inform(name=X-name,phone=X-phone)	4.5	4.5	0.115225315	0	5.5	5.632020473480225		4.5	4.5	0.0	1	5.5	5.336857795715332	you may reach the X-name at X-phone .	
inform(type=restaurant,count=X-count,good_for_meal=dont_care,kids_allowed=yes,price_range=expensive)	3.0	3.0	0.0	1	5.0	5.103167533874512		6.0	6.0	0.0	1	5.0	4.921093463897705	there are X-count restaurants that are expensive and allow children good for any meal .	
inform(name=X-name,food=basque,kids_allowed=no)	4.0	4.0	0.27931118	0	5.5	5.335888862609863		2.0	2.0	0.0	1	5.0	5.091948986053467	X-name is a nice restaurant that serves basque food and does not allow children .	
inform(name=X-name,price_range=moderate)	3.0	3.0	0.0	1	5.0	5.135133743286133		4.0	4.0	0.0	1	5.0	4.8744893074035645	the X-name is in the moderate price range .	
inform(name=X-name,kids_allowed=no)	6.0	6.0	0.4503622	0	5.5	5.398418426513672		6.0	6.0	0.0	1	5.0	5.228114128112793	X-name is a nice restaurant that does not allow children .	
inform(name=X-name,food=brasseries)	6.0	6.0	0.25299597	0	5.5	5.529127597808838		4.0	4.0	0.0	1	5.0	5.176758289337158	X-name serves brasseries food .	
inform(type=restaurant,count=X-count,kids_allowed=no,area=X-area)	4.0	4.0	0.0	1	5.0	5.171113014221191		1.0	1.0	0.0	1	5.0	4.865380764007568	there are X-count restaurants that does not allow the s in the X-area area .	
inform(name=X-name,near=X-near)	4.5	4.5	0.709054	0	5.0	5.1157684326171875		1.5	1.5	0.17171574	0	4.5	4.749716281890869	X-name , is near the X-near .	
inform(name=X-name,type=placetoeat,eattype=restaurant,area=X-area,food='Chinese takeaway',food=Takeaway)	5.0	5.0	0.0	1	5.0	5.127915382385254		4.0	4.0	0.0	1	5.0	4.791192531585693	X-name is a chinese food takeaway restaurant with restaurant on the riverside .	
inform(name=X-name,area=X-area)	5.0	5.0	0.32069254	0	5.0	4.985107421875		2.0	2.0	0.062634945	0	4.5	4.650415897369385	X-name is in the area of X-area .	
inform_no_match(near=X-near,good_for_meal=lunch,kids_allowed=no)	6.0	6.0	0.0	1	5.0	5.132167816162109		6.0	6.0	0.0	1	5.0	4.8679680824279785	i am sorry i did not find any restaurants that does not allow children near the X-near good for lunch .	
inform(name=X-name,food=burgers,price_range=expensive,good_for_meal=dinner)	4.0	4.0	0.0	1	5.0	4.893285274505615		4.0	4.0	0.0	1	4.5	4.59300422668457	the X-name provides burgers dinner for a expensive price range .	
inform(name=X-name,price_range=moderate,address=X-address,phone=X-phone)	5.0	5.0	0.0	1	5.5	5.359901428222656		5.0	5.0	0.0	1	5.0	4.9240570068359375	X-name is in the moderate price range . they are located at X-address and their phone number is X-phone .	
inform(name=X-name,type=hotel)	3.5	3.5	0.6329484	0	5.0	5.087571620941162		3.5	3.5	0.10493708	0	5.0	4.787124156951904	the name is X-name and it is a nice hotel .	
inform(name=X-name,address=X-address,phone=X-phone)	4.0	4.0	0.0	1	5.5	5.524744033813477		5.0	5.0	0.0	1	5.0	5.108611106872559	the address of X-name is X-address . the phone number is X-phone .	
inform_no_match(near=X-near,area=X-area)	4.0	4.0	0.388206	0	5.0	4.836061477661133		4.0	4.0	0.13889885	0	4.5	4.352402210235596	there is no hotel near the X-near and in the X-area area .	
inform(name=X-name,type=placetoeat,eattype=restaurant,area=X-area,food=Indian)	5.0	5.0	0.0	1	5.0	5.086101531982422		5.0	5.0	0.0	1	4.5	4.679393291473389	X-name is an indian restaurant in the riverside area serves both indian food indian takeaway .	
inform(name=X-name,eattype=coffeeshop,eattype=restaurant)	5.0	5.0	0.0	1	5.5	5.4386138916015625		5.0	5.0	0.0	1	5.0	5.117201805114746	X-name is a restaurant .	
inform(type=restaurant,count=X-count,food=japanese,price_range=cheap)	4.0	4.0	0.0	1	5.5	5.514033317565918		3.0	3.0	0.0	1	5.0	5.20299768447876	there are X-count cheaply priced japanese restaurants .	
inform(name=X-name,address=X-address)	5.0	5.0	0.0	1	5.5	5.4848222732543945		3.0	3.0	0.0	1	5.0	5.158531188964844	the address for X-name is X-address .	
inform(name=X-name,address=X-address,phone=X-phone,postcode=X-postcode)	5.5	5.5	0.0	1	5.5	5.411068439483643		5.5	5.5	0.0	1	5.0	5.1814141273498535	X-name , is at X-address , phone number is X-phone , and the postcode is X-postcode .	
inform(name=X-name,address=X-address,postcode=X-postcode)	5.0	5.0	0.0	1	5.5	5.554149627685547		5.0	5.0	0.0	1	5.0	5.220833778381348	the address of the X-name is X-address and the postcode is X-postcode .	
inform(name=X-name,type=placetoeat,area=X-area,pricerange=moderate,eattype=restaurant)	5.5	5.5	0.0	1	5.5	5.3497748374938965		5.5	5.5	0.0	1	5.0	5.130993843078613	X-name is a restaurant in X-area with a moderately priced menu .	
inform_no_match(area=X-area)	5.0	5.0	0.16251087	0	5.5	5.405781269073486		5.0	5.0	0.0	1	5.0	4.950105667114258	i am sorry but there are no hotels in the X-area area .	
inform(name=X-name,type=placetoeat,pricerange=expensive,near=X-near,near=X-near,eattype=restaurant)	5.0	5.0	0.0	1	5.5	5.358078479766846		5.5	5.5	0.0	1	5.0	5.0867509841918945	X-name is an expensive restaurant near X-near and X-near .	
inform(name=X-name,phone=X-phone)	5.0	5.0	0.16154718	0	5.5	5.58569860458374		4.0	4.0	0.0	1	5.5	5.322747707366943	you may reach X-name at X-phone .	
inform(type=restaurant,count=X-count,food=french)	6.0	6.0	0.0	1	5.5	5.511501312255859		5.0	5.0	0.0	1	5.5	5.255898952484131	there are X-count restaurants that serve french food .	
inform(name=X-name,type=placetoeat,pricerange=moderate,eattype=restaurant)	6.0	6.0	0.0	1	5.5	5.453555107116699		5.0	5.0	0.0	1	5.0	5.167361736297607	X-name is a restaurant in the moderate price range .	
inform(name=X-name,accepts_credit_cards=yes)	5.5	5.5	0.20962095	0	5.5	5.382697105407715		6.0	6.0	0.0	1	5.0	5.02621603012085	X-name accepts credit cards .	
inform(name=X-name,accepts_credit_cards=yes)	5.0	5.0	0.20962095	0	5.5	5.382697105407715		3.0	3.0	0.0	1	5.0	5.02621603012085	X-name accepts credit cards .	
inform(name=X-name,near=X-near,address=X-address,phone=X-phone)	5.0	5.0	0.13091135	0	5.0	5.068295001983643		3.0	3.0	0.0	1	5.0	4.772266387939453	X-name , is near the X-near , it is address is X-address , and the phone number is X-phone .	
inform(name=X-name,area=X-area,dogs_allowed=yes)	5.0	5.0	0.04887247	0	5.0	5.126538276672363		5.0	5.0	0.0	1	5.0	4.7540178298950195	X-name is near X-area and allows dogs .	
inform(type=restaurant,count=X-count,good_for_meal=dinner,price_range=expensive)	6.0	6.0	0.0	1	5.0	5.094901084899902		6.0	6.0	0.0	1	5.0	4.8981709480285645	there are X-count restaurants in the expensive price range that are good for dinner .	
inform(name=X-name,address=X-address,phone=X-phone)	6.0	6.0	0.0	1	5.5	5.430093288421631		6.0	6.0	0.0	1	5.0	5.128546237945557	X-name 's address is X-address , and its phone number is X-phone .	
inform(name=X-name,has_internet=no)	5.0	5.0	0.27229214	0	5.5	5.4877610206604		5.0	5.0	0.0	1	5.0	5.095475196838379	we 're sorry the X-name does not have internet .	
inform(name=X-name,area=X-area)	3.0	3.0	0.35588884	0	5.0	4.949911117553711		4.0	4.0	0.057016373	0	4.5	4.656034469604492	there is a hotel called in the X-name and in the area of X-area .	
inform(type=restaurant,count=X-count,kids_allowed=yes,price_range=expensive)	5.0	5.0	0.0	1	5.5	5.2811150550842285		6.0	6.0	0.0	1	5.0	5.0724358558654785	there are X-count restaurants that allow children and are expensive .	
inform(name=X-name,accepts_credit_cards=yes,near=X-near,price_range=inexpensive)	5.0	5.0	0.0	1	5.0	5.193294048309326		4.0	4.0	0.0	1	5.0	4.994787216186523	i found a X-name near the X-near area that and inexpensive hotel and it accepts credit cards .	
inform(name=X-name,area=X-area)	1.0	1.0	0.56302786	0	4.5	4.742772102355957		1.0	1.0	0.34876156	0	4.5	4.364289283752441	X-name , is in the are of X-area .	
inform(name=X-name,near=X-near,kids_allowed=yes,price_range=moderate)	3.0	3.0	0.10856485	0	4.5	4.314807891845703		2.0	2.0	0.017774343	0	4.0	3.9042608737945557	X-name , is near X-near , is moderate range and allows children .	
inform(name=X-name,address=X-address,phone=X-phone)	6.0	6.0	0.0	1	5.5	5.551724910736084		4.0	4.0	0.0	1	5.0	5.056550979614258	the X-name is located at X-address . the phone number is X-phone .	
inform(name=X-name,area=X-area,price_range=moderate)	4.0	4.0	0.0	1	5.0	4.790634632110596		4.0	4.0	0.0	1	4.5	4.391817092895508	X-name is in the X-area area and it is moderate .	
inform(name=X-name,has_internet=yes)	5.0	5.0	0.071932316	0	5.5	5.445601940155029		3.0	3.0	0.097858906	0	5.0	4.815144062042236	X-name has internet .	
inform(name=X-name,has_internet=yes)	5.0	5.0	0.071932316	0	5.5	5.445601940155029		2.0	2.0	0.097858906	0	5.0	4.815144062042236	X-name has internet .	
inform_no_match(good_for_meal=breakfast,food=shanghainese)	5.0	5.0	0.3564334	0	5.0	5.059219837188721		3.0	3.0	9.536743e-05	0	5.0	4.859539985656738	unfortunately 0 restaurants serve shanghainese for breakfast .	
inform(name=X-name,address=X-address,postcode=X-postcode)	5.0	5.0	0.0	1	5.5	5.583840370178223		5.0	5.0	0.0	1	5.5	5.2522053718566895	the address for X-name is X-address , X-postcode .	
inform(name=X-name,phone=X-phone)	5.0	5.0	0.0	1	6.0	5.7756547927856445		5.0	5.0	0.0	1	5.5	5.292907238006592	the phone number for X-name is X-phone .	
inform(name=X-name,eattype=restaurant,addr=X-addr,phone=X-phone)	5.0	5.0	0.0	1	5.5	5.540942192077637		5.0	5.0	0.0	1	5.0	5.131128787994385	i suggest X-name restaurant .	
inform(name=X-name,type=placetoeat,eattype=restaurant,near=X-near,near=X-near,food=Chinese)	3.0	3.0	0.0	1	5.0	5.03848123550415		4.0	4.0	0.0	1	5.0	4.846004009246826	X-name is a chinese food restaurant near X-near and X-near .	
inform(name=X-name,near=X-near)	1.0	1.0	1.0019965	0	5.0	4.822825908660889		1.5	1.5	0.51593924	0	4.5	4.405492782592773	he X-name is located near X-near .	
inform(name=X-name,type=placetoeat,near=X-near,area=X-area,area=X-area,eattype=restaurant)	6.0	6.0	0.0	1	5.0	5.229658603668213		6.0	6.0	0.0	1	5.0	5.005634307861328	X-name is a restaurant in X-near near X-area and X-area .	
inform(type=hotel,count=X-count,dogs_allowed=yes)	6.0	6.0	0.0	1	5.5	5.552172660827637		6.0	6.0	0.0	1	5.0	5.2381815910339355	there are X-count hotels that allow dogs .	
inform(type=hotel,count=X-count,dogs_allowed=yes)	6.0	6.0	0.0	1	5.5	5.552172660827637		6.0	6.0	0.0	1	5.0	5.2381815910339355	there are X-count hotels that allow dogs .	
inform_no_match(area=X-area)	6.0	6.0	0.19882679	0	5.5	5.369465351104736		5.0	5.0	0.0	1	5.0	5.228714942932129	i am sorry i am not finding any hotels in the X-area area .	
inform(name=X-name,address=X-address,phone=X-phone)	6.0	6.0	0.0	1	5.5	5.582502841949463		5.0	5.0	0.0	1	5.0	5.119896411895752	the address for X-name is X-address . the phone number is X-phone .	
inform_no_match(area=X-area)	5.0	5.0	0.19882679	0	5.5	5.369465351104736		5.0	5.0	0.0	1	5.0	5.228714942932129	i am sorry i am not finding any hotels in the X-area area .	
inform(name=X-name,address=X-address,phone=X-phone)	5.0	5.0	0.0	1	5.5	5.430093288421631		5.0	5.0	0.0	1	5.0	5.128546237945557	X-name 's address is X-address , and its phone number is X-phone .	
inform(name=X-name,type=placetoeat,eattype=restaurant,area=X-area,near=X-near,near=X-near,food=Italian)	5.0	5.0	0.039715767	0	5.5	5.25054931640625		4.0	4.0	0.0	1	5.0	4.93239688873291	X-name is an italian restaurant in the riverside area near X-near and X-near .	
inform(name=X-name,kids_allowed=yes)	5.0	5.0	0.1959238	0	5.5	5.441201210021973		5.0	5.0	0.0	1	5.0	5.211282730102539	X-name is a nice restaurant that allows children .	
inform(name=X-name,area=X-area,food=korean)	5.0	5.0	0.17182922	0	5.0	5.006330490112305		5.0	5.0	0.30467224	0	4.5	4.551671504974365	X-name , is in X-area serves korean food .	
inform_no_match(near=X-near,area=X-area)	5.0	5.0	0.3738904	0	5.0	4.850377082824707		6.0	6.0	0.08861494	0	4.5	4.40268611907959	there is no match for a hotel in the X-area area near the X-near .	
inform(name=X-name,area=X-area,price_range=moderate)	2.0	2.0	0.0	1	5.0	4.895330905914307		4.0	4.0	0.0	1	4.5	4.573017120361328	the X-name is in the X-area area and it is moderate .	
inform(name=X-name,good_for_meal=dinner)	5.0	5.0	0.3028388	0	5.0	5.174616813659668		2.0	2.0	0.0	1	5.0	4.827699661254883	X-name is a good restaurant for dinner .	
confirm(price_range=pricey)	5.0	5.0	0.23348236	0	5.0	5.0390214920043945		4.0	4.0	0.0	1	5.0	4.785356044769287	do you want a hotel in the pricey price range ?	
inform(name=X-name,phone=X-phone)	6.0	6.0	0.0	1	6.0	5.7756547927856445		5.5	5.5	0.0	1	5.5	5.292907238006592	the phone number for X-name is X-phone .	
inform(name=X-name,phone=X-phone)	6.0	6.0	0.0	1	6.0	5.7756547927856445		5.0	5.0	0.0	1	5.5	5.292907238006592	the phone number for X-name is X-phone .	
inform(name=X-name,address=X-address)	5.5	5.5	0.039308548	0	5.5	5.370401859283447		5.5	5.5	0.0	1	5.0	5.168982982635498	X-name 's address is X-address .	
inform(name=X-name,has_internet=yes,near=X-near)	6.0	6.0	0.39116192	0	5.0	5.172549247741699		4.0	4.0	0.0	1	5.0	4.856695175170898	X-name is near X-near and has internet .	
inform(name=X-name,food=french,good_for_meal=lunch)	6.0	6.0	0.0	1	5.5	5.263293266296387		5.0	5.0	0.0	1	5.0	4.939059257507324	X-name serves french and is good for lunch .	
inform(name=X-name,kids_allowed=yes)	6.0	6.0	0.1959238	0	5.5	5.441201210021973		5.0	5.0	0.0	1	5.0	5.211282730102539	X-name is a nice restaurant that allows children .	
inform(name=X-name,food=spanish)	6.0	6.0	0.063108444	0	5.5	5.595374584197998		6.0	6.0	0.0	1	5.0	5.087845802307129	X-name serves spanish food .	
inform(name=X-name,price_range=cheap,good_for_meal=dinner)	2.0	2.0	0.07617903	0	5.0	4.948715686798096		2.0	2.0	0.0	1	4.5	4.562239170074463	X-name is a cheap restaurant that is good for dinner .	
inform_no_match(area=X-area)	5.0	5.0	0.16877127	0	5.5	5.3995208740234375		4.0	4.0	0.0	1	5.0	4.978116989135742	there are no hotels in the X-area area .	
inform(name=X-name,area=X-area)	4.0	4.0	0.35588884	0	5.0	4.949911117553711		5.5	5.5	0.057016373	0	4.5	4.656034469604492	there is a hotel called in the X-name and in the area of X-area .	
inform(name=X-name,address=X-address)	5.0	5.0	0.0	1	5.5	5.4848222732543945		2.0	2.0	0.0	1	5.0	5.158531188964844	the address for X-name is X-address .	
inform_no_match(area=X-area)	5.0	5.0	0.19507551	0	5.5	5.37321662902832		5.0	5.0	0.021801949	0	5.0	4.89496374130249	i am sorry but there are no hotels in the area of X-area .	
inform(name=X-name,type=placetoeat,eattype=restaurant,pricerange=cheap,area=X-area,near=X-near)	6.0	6.0	0.016862392	0	5.5	5.259974479675293		6.0	6.0	0.0	1	5.0	4.962388515472412	X-name is a cheap restaurant in the city centre near X-near .	
inform(name=X-name,area=X-area,dogs_allowed=yes)	6.0	6.0	0.037992	0	5.0	5.137418746948242		6.0	6.0	0.0	1	5.0	4.800662994384766	yes there is the X-name and in the X-area area that allows dogs .	
inform(name=X-name,price_range=cheap)	5.0	5.0	0.27252197	0	5.0	4.900030136108398		4.0	4.0	0.08488035	0	4.5	4.385942459106445	X-name , is cheap .	
inform(name=X-name,near=X-near)	3.5	3.5	1.0019965	0	5.0	4.822825908660889		3.5	3.5	0.51593924	0	4.5	4.405492782592773	he X-name is located near X-near .	
inform(name=X-name,type=restaurant)	6.0	6.0	0.044201374	0	5.5	5.622269630432129		5.0	5.0	0.0	1	5.0	5.113467693328857	X-name is a nice restaurant .	
inform(name=X-name,near=X-near)	4.0	4.0	0.3510599	0	5.5	5.473762512207031		4.0	4.0	0.0	1	5.0	5.073853492736816	the X-name is near X-near .	
inform(name=X-name,type=placetoeat,eattype=restaurant,area=X-area,near=X-near,food='Cafe food',food=English)	3.0	3.0	0.13521576	0	5.0	5.0167131423950195		2.5	2.5	0.0	1	4.5	4.595757961273193	X-name is an english cafe food restaurant in the city centre area and .	
inform(name=X-name,postcode=X-postcode)	5.0	5.0	0.0	1	5.5	5.720614910125732		5.0	5.0	0.0	1	5.5	5.279270172119141	the postcode for the X-name is X-postcode .	
inform(name=X-name,area=X-area)	6.0	6.0	0.1663537	0	5.0	5.139446258544922		6.0	6.0	0.0	1	5.0	4.864363193511963	the X-name is in the X-area area .	
inform(name=X-name,accepts_credit_cards=yes,near=X-near)	5.0	5.0	0.5466957	0	5.0	5.027074813842773		5.0	5.0	0.20592976	0	4.5	4.679912090301514	X-name is located near X-near and they accept credit cards .	
inform(name=X-name,type=placetoeat,pricerange=moderate,area=X-area,eattype=restaurant)	6.0	6.0	0.0	1	5.5	5.339478492736816		5.0	5.0	0.0	1	5.0	5.075919151306152	X-name is a moderately priced restaurant in the X-area area .	
inform(name=X-name,price_range=moderate)	4.0	4.0	0.16597223	0	4.5	4.650421619415283		4.0	4.0	0.14528084	0	4.0	4.145063877105713	X-name , is moderate .	
inform(name=X-name,dogs_allowed=none,has_internet=yes,near=X-near,accepts_credit_cards=yes)	5.0	5.0	0.0	1	5.0	5.161094665527344		4.0	4.0	0.0	1	5.0	4.843188285827637	the X-name allows dogs and near X-near , has internet and accepts credit cards .	
inform(name=X-name,area=X-area,price_range=moderate)	5.0	5.0	0.0	1	5.0	5.024041652679443		5.0	5.0	0.0	1	4.5	4.732815742492676	X-name has a moderate price range in the area of X-area .	
inform_no_match(kids_allowed=yes,food=moroccan)	5.0	5.0	0.26785946	0	5.5	5.278145790100098		5.0	5.0	0.0	1	5.0	5.050989627838135	i am sorry , i did not find any restaurants that allows kids and serve moroccan .	
inform(name=X-name,has_internet=yes,phone=X-phone)	5.0	5.0	0.0	1	5.5	5.5545244216918945		4.5	4.5	0.0	1	5.0	5.133857727050781	the X-name does have internet service , and the phone number is X-phone .	
inform_no_match(area=X-area)	4.0	4.0	0.16877127	0	5.5	5.3995208740234375		4.0	4.0	0.0	1	5.0	4.978116989135742	there are no hotels in the X-area area .	
inform_no_match(area=X-area,kids_allowed=yes,price_range=expensive)	6.0	6.0	0.0	1	5.0	4.890483379364014		6.0	6.0	0.0	1	4.5	4.47433614730835	there are no expensively priced restaurants in the X-area area which allow children .	
inform(name=X-name,area=X-area)	3.0	3.0	0.28190804	0	5.0	5.023891925811768		3.0	3.0	0.0	1	4.5	4.72869873046875	there is a hotel called in X-name and in the area of X-area .	
inform(name=X-name,type=placetoeat,eattype=restaurant,near=X-near,area=X-area)	5.0	5.0	0.0	1	5.0	5.031976222991943		6.0	6.0	0.0	1	4.5	4.709965229034424	X-name is a restaurant in the city centre near X-near .	
inform(name=X-name,area=X-area,food=indian,good_for_meal=dinner)	2.0	2.0	0.5177121	0	4.5	4.547672271728516		3.0	3.0	0.0	1	4.0	4.143221378326416	X-name , is good for dinner that serves indian food in the X-area area .	
inform(name=X-name,food=vegetarian)	6.0	6.0	0.24515915	0	5.5	5.497932434082031		6.0	6.0	0.0008916855	0	5.0	5.078087329864502	X-name serves vegetarian food .	
inform(name=X-name,address=X-address,phone=X-phone)	5.0	5.0	0.0	1	5.5	5.524744033813477		4.0	4.0	0.0	1	5.0	5.108611106872559	the address of X-name is X-address . the phone number is X-phone .	
inform(name=X-name,price_range=cheap,kids_allowed=yes)	5.0	5.0	0.118186	0	5.0	5.191442966461182		4.0	4.0	0.0	1	5.0	4.916485786437988	X-name is cheap and allows children .	
inform(name=X-name,price_range=expensive,near=X-near)	4.5	4.5	0.0	1	5.5	5.295592308044434		5.5	5.5	0.0	1	5.0	4.940814018249512	X-name near X-near offers expensive food .	
inform(name=X-name,address=X-address)	5.0	5.0	0.0	1	5.5	5.4848222732543945		3.0	3.0	0.0	1	5.0	5.158531188964844	the address for X-name is X-address .	
inform(name=X-name,dogs_allowed=none,phone=X-phone)	6.0	6.0	0.0	1	5.5	5.6625590324401855		6.0	6.0	0.0	1	5.0	5.1697211265563965	the phone number for X-name is X-phone no dogs are allowed there .	
inform(type=restaurant,count=X-count,area=X-area)	6.0	6.0	0.0	1	5.5	5.353828430175781		6.0	6.0	0.0	1	5.0	4.993809700012207	we have X-count restaurants listed in the X-area area .	
inform(name=X-name,kids_allowed=no,good_for_meal=brunch,near=X-near)	5.0	5.0	0.25283623	0	5.5	5.27641487121582		4.0	4.0	0.0	1	5.0	4.985052585601807	X-name is near X-near and does not allow kids for brunch .	
inform(name=X-name,food=mexican,kids_allowed=yes)	5.0	5.0	0.20084286	0	5.5	5.29594612121582		5.0	5.0	0.0	1	5.0	4.980964660644531	X-name allows kids , and serves mexican food .	
inform(name=X-name,price_range=moderate)	5.0	5.0	0.0	1	5.0	4.959354400634766		5.0	5.0	0.0	1	4.5	4.606078624725342	X-name is in the moderate price range .	
inform(name=X-name,address=X-address,price=X-price)	2.0	2.0	0.41931105	0	5.0	5.1721110343933105		2.0	2.0	0.0	1	5.0	4.876743316650391	it is located at X-address it is price X-name is X-price .	
inform(name=X-name,food=lounge,price_range=expensive)	4.0	4.0	0.0	1	5.0	5.205545902252197		4.0	4.0	0.0	1	5.0	4.921929359436035	X-name serves lounge food at a expensive price range .	
inform(name=X-name,address=X-address)	6.0	6.0	0.0	1	5.5	5.4848222732543945		5.0	5.0	0.0	1	5.0	5.158531188964844	the address for X-name is X-address .	
inform(name=X-name,area=X-area)	5.0	5.0	0.32069254	0	5.0	4.985107421875		4.0	4.0	0.062634945	0	4.5	4.650415897369385	X-name is in the area of X-area .	
inform(name=X-name,area=X-area,price_range=cheap)	5.0	5.0	0.0	1	4.5	4.7338995933532715		4.0	4.0	0.0	1	4.0	4.223208427429199	X-name , is in the X-area area with a cheap price range .	
inform(name=X-name,price_range=expensive)	5.0	5.0	0.0	1	5.0	5.128808498382568		5.0	5.0	0.0	1	5.0	4.789052486419678	X-name is in the expensive price range .	
confirm(near=X-near)	4.0	4.0	0.6417489	0	5.0	5.0735087394714355		4.5	4.5	0.0	1	5.0	4.943702220916748	do you want it near X-near ?	
confirm(price_range=pricey)	6.0	6.0	0.23561335	0	5.0	5.036890506744385		3.0	3.0	0.0	1	4.5	4.724598407745361	please confirm you are looking for the pricey range ?	
inform(name=X-name,type=restaurant)	6.0	6.0	0.104012966	0	5.5	5.562458038330078		5.5	5.5	0.0	1	5.0	5.191867351531982	the name of the restaurant is X-name .	
inform(name=X-name,accepts_credit_cards=yes,near=X-near)	4.0	4.0	0.3716612	0	5.0	5.202109336853027		2.0	2.0	0.0	1	5.0	4.930731296539307	X-name is near X-near and accepts credit cards .	
inform(name=X-name,type=restaurant)	6.0	6.0	0.044201374	0	5.5	5.622269630432129		5.0	5.0	0.0	1	5.0	5.113467693328857	X-name is a nice restaurant .	
inform(name=X-name,accepts_credit_cards=yes,dogs_allowed=no,near=X-near)	3.0	3.0	0.12006903	0	5.5	5.409557819366455		3.0	3.0	0.0	1	5.0	5.060862064361572	the X-name accepts credit cards in the X-near area does not allow dogs .	
inform(name=X-name,type=placetoeat,eattype=restaurant,area=X-area,food='Chinese takeaway',food=Japanese)	5.0	5.0	0.0	1	5.0	5.156580448150635		5.0	5.0	0.0	1	5.0	4.841126918792725	X-name is a japanese restaurant in the city centre .	
inform(type=hotel,count=X-count,has_internet=yes,near=X-near)	6.0	6.0	0.0	1	5.5	5.4939470291137695		6.0	6.0	0.0	1	5.0	5.247450351715088	there are X-count hotels with internet near the X-near .	
inform(name=X-name,area=X-area)	6.0	6.0	0.27751684	0	5.0	5.02828311920166		4.0	4.0	0.017971039	0	4.5	4.695079803466797	X-name is in the X-area hill area .	
select(accepts_credit_cards='yes or no')	4.0	4.0	0.0	1	5.5	5.635381698608398		5.0	5.0	0.0	1	5.5	5.574761867523193	would you like a hotel that accepts credit cards or is that not an issue ?	
inform(name=X-name,price_range=moderate)	4.0	4.0	0.0	1	5.0	5.117795944213867		4.0	4.0	0.0	1	5.0	4.852328300476074	the X-name is a moderate hotel .	
inform(name=X-name,kids_allowed=no,near=X-near)	6.0	6.0	0.49947166	0	5.5	5.280834674835205		6.0	6.0	0.0	1	5.0	4.996967792510986	X-name , is a nice restaurant near X-near that does not allow children .	
inform(name=X-name,type=placetoeat,eattype=restaurant,near=X-near,area=X-area,area=X-area)	3.0	3.0	0.0	1	5.0	4.890317916870117		2.0	2.0	0.0	1	4.5	4.588360786437988	X-name is a restaurant in X-near near X-area and .	
inform(name=X-name,address=X-address)	4.0	4.0	0.0	1	5.5	5.4848222732543945		5.0	5.0	0.0	1	5.0	5.158531188964844	the address for X-name is X-address .	
inform(name=X-name,type=placetoeat,eattype=restaurant,near=X-near,area=X-area,food=Indian)	5.0	5.0	0.0	1	5.0	5.134052753448486		5.0	5.0	0.0	1	4.5	4.727695465087891	X-name is an indian restaurant in the X-near area near X-area .	
inform(name=X-name,has_internet=yes)	6.0	6.0	0.071932316	0	5.5	5.445601940155029		6.0	6.0	0.097858906	0	5.0	4.815144062042236	X-name has internet .	
inform(name=X-name,has_internet=yes)	6.0	6.0	0.071932316	0	5.5	5.445601940155029		4.0	4.0	0.097858906	0	5.0	4.815144062042236	X-name has internet .	
inform(name=X-name,type=placetoeat,eattype=restaurant,pricerange=expensive,near=X-near)	5.0	5.0	0.0	1	5.5	5.351199626922607		5.0	5.0	0.0	1	5.0	5.07532262802124	X-name is an expensive restaurant near X-near .	
inform(name=X-name,area=X-area,dogs_allowed=none)	2.0	2.0	0.04595089	0	5.5	5.303726673126221		3.0	3.0	0.0	1	5.0	4.8986334800720215	there is not any information if the X-name in the X-area area allows dogs .	
inform(name=X-name,near=X-near,price_range=moderate)	2.0	2.0	0.0	1	5.0	5.004599571228027		2.0	2.0	0.0	1	4.5	4.6544671058654785	X-name is a moderate restaurant near X-near .	
select(kids_allowed='yes or no')	5.0	5.0	0.10669994	0	5.5	5.572762489318848		5.0	5.0	0.0	1	5.5	5.449773788452148	are you looking for a restaurant that allows kids , or does not allow kids ?	
inform(name=X-name,area=X-area,kids_allowed=no,price_range=expensive)	2.0	2.0	0.0	1	4.5	4.701199531555176		3.0	3.0	0.0	1	4.5	4.395975112915039	X-name is expensively priced in the X-area area and does not allow kids .	
inform(name=X-name,good_for_meal=lunch,kids_allowed=no,price_range=cheap)	4.0	4.0	0.0	1	5.0	4.886430263519287		4.0	4.0	0.0	1	4.5	4.565809726715088	X-name is in the cheap price range , does not allow children and is good for lunch .	
inform(name=X-name,area=X-area,address=X-address)	6.0	6.0	0.0	1	5.0	5.021003723144531		6.0	6.0	0.0	1	4.5	4.694657802581787	X-name is in the X-area area and the address is X-address .	
inform(name=X-name,address=X-address,phone=X-phone,postcode=X-postcode)	5.5	5.5	0.0	1	5.5	5.411068439483643		5.0	5.0	0.0	1	5.0	5.1814141273498535	X-name , is at X-address , phone number is X-phone , and the postcode is X-postcode .	
inform(name=X-name,near=X-near,price_range=inexpensive)	3.0	3.0	0.0	1	5.0	5.144949913024902		1.5	1.5	0.0	1	5.0	4.942230701446533	okay well the X-name , near the X-near in your price inexpensive range .	
inform(type=restaurant,count=X-count,good_for_meal=brunch)	6.0	6.0	0.0	1	5.5	5.55192232131958		6.0	6.0	0.0	1	5.0	5.213641166687012	there are X-count restaurants that are good for brunch .	
inform(name=X-name,accepts_credit_cards=yes,dogs_allowed=no,near=X-near)	4.0	4.0	0.3730569	0	5.0	5.156569957733154		4.0	4.0	0.0	1	5.0	4.8689446449279785	X-name is near X-near and accepts credit cards but does not allow dogs .	
inform(name=X-name,type=placetoeat,eattype=restaurant,area=X-area,near=X-near,food=Chinese)	6.0	6.0	0.0	1	5.0	5.083388328552246		6.0	6.0	0.0	1	5.0	4.858621120452881	X-name is a chinese restaurant in the riverside area near X-near .	
inform(name=X-name,area=X-area,dogs_allowed=yes)	4.0	4.0	0.037992	0	5.0	5.137418746948242		3.5	3.5	0.0	1	5.0	4.800662994384766	yes there is the X-name and in the X-area area that allows dogs .	
inform(name=X-name,food=Chinese,eattype=restaurant,area=X-area)	2.0	2.0	0.0	1	5.0	5.134032726287842		6.0	6.0	0.0	1	5.0	4.852687835693359	X-name is a chinese restaurant in the riverside area .	
inform(name=X-name,accepts_credit_cards=yes)	6.0	6.0	0.20962095	0	5.5	5.382697105407715		6.0	6.0	0.0	1	5.0	5.02621603012085	X-name accepts credit cards .	
inform(name=X-name,accepts_credit_cards=yes)	3.0	3.0	0.20962095	0	5.5	5.382697105407715		3.0	3.0	0.0	1	5.0	5.02621603012085	X-name accepts credit cards .	
inform(name=X-name,area=X-area,phone=X-phone)	3.0	3.0	0.03093195	0	5.5	5.302284240722656		6.0	6.0	0.0	1	5.0	4.867403507232666	X-name is in the area of X-area and the number is X-phone .	
inform(name=X-name,type=restaurant)	5.0	5.0	0.044201374	0	5.5	5.622269630432129		4.0	4.0	0.0	1	5.0	5.113467693328857	X-name is a nice restaurant .	
inform(name=X-name,near=X-near,kids_allowed=no,good_for_meal=dinner)	5.0	5.0	0.41459322	0	5.0	4.8082685470581055		4.0	4.0	0.0	1	4.5	4.465569972991943	X-name is near X-near and does not allow kids for dinner .	
inform(type=restaurant,count=X-count,food=basque,kids_allowed=no,price_range=moderate)	6.0	6.0	0.0	1	5.0	5.205641746520996		6.0	6.0	0.0	1	5.0	4.98863410949707	there are X-count basque restaurants that are moderately priced and do not allow kids .	
inform(name=X-name,food='ethnic food or russian')	6.0	6.0	0.40160465	0	5.5	5.559584617614746		5.0	5.0	0.0	1	5.5	5.259332656860352	X-name serves ethnic food or russian food .	
inform(name=X-name,area=X-area,address=X-address)	3.5	3.5	0.14866877	0	5.0	4.805551052093506		2.5	2.5	0.15568829	0	4.5	4.49980354309082	X-name , is in the X-area area and it is address is X-address .	
inform(name=X-name,type=placetoeat,eattype=restaurant,pricerange=expensive,area=X-area,near=X-near)	6.0	6.0	0.0063066483	0	5.0	5.171577453613281		6.0	6.0	0.0	1	5.0	4.853305816650391	X-name is an expensive restaurant , in the riverside area near X-near .	
inform(type=restaurant,count=X-count,good_for_meal=dinner,kids_allowed=yes)	6.0	6.0	0.0	1	5.5	5.339169025421143		5.0	5.0	0.0	1	5.0	5.049032688140869	there are X-count result for a place with a good dinner that allows kids .	
inform(name=X-name,kids_allowed=no)	6.0	6.0	0.4503622	0	5.5	5.398418426513672		6.0	6.0	0.0	1	5.0	5.228114128112793	X-name is a nice restaurant that does not allow children .	
inform(name=X-name,type=hotel)	6.0	6.0	0.2754898	0	5.5	5.445030212402344		5.0	5.0	0.0	1	5.0	4.971181392669678	the X-name is a nice hotel .	
inform_no_match(area=X-area)	6.0	6.0	0.19507551	0	5.5	5.37321662902832		6.0	6.0	0.021801949	0	5.0	4.89496374130249	i am sorry but there are no hotels in the area of X-area .	
inform(name=X-name,postcode=X-postcode)	6.0	6.0	0.0	1	5.5	5.606335639953613		5.0	5.0	0.0	1	5.5	5.283010959625244	the postcode of X-name is X-postcode .	
inform(name=X-name,type=placetoeat,eattype=restaurant,near=X-near,area=X-area)	3.5	3.5	0.0	1	5.0	4.966529369354248		2.0	2.0	0.0	1	4.5	4.633513450622559	X-name is a restaurant in the centre of town located near X-near .	
inform(type=restaurant,count=X-count,good_for_meal=dinner,near=X-near)	2.0	2.0	0.0	1	5.5	5.459909915924072		1.0	1.0	0.0	1	5.0	5.186698913574219	there are X-count restaurants a nice food near X-near which to good for dinner .	
inform(name=X-name,area=X-area)	6.0	6.0	0.12747812	0	5.0	5.178321838378906		6.0	6.0	0.0	1	5.0	4.886855125427246	X-name is a nice restaurant in the area of X-area .	
inform(name=X-name,phone=X-phone)	5.0	5.0	0.0	1	6.0	5.7756547927856445		5.5	5.5	0.0	1	5.5	5.292907238006592	the phone number for X-name is X-phone .	
inform(name=X-name,phone=X-phone)	5.0	5.0	0.0	1	6.0	5.7756547927856445		5.0	5.0	0.0	1	5.5	5.292907238006592	the phone number for X-name is X-phone .	
inform(name=X-name,has_internet=yes)	6.0	6.0	0.071932316	0	5.5	5.445601940155029		5.5	5.5	0.097858906	0	5.0	4.815144062042236	X-name has internet .	
inform(name=X-name,has_internet=yes)	5.0	5.0	0.071932316	0	5.5	5.445601940155029		1.0	1.0	0.097858906	0	5.0	4.815144062042236	X-name has internet .	
confirm(price_range=dont_care)	4.0	4.0	0.0	1	5.0	4.990603923797607		4.0	4.0	0.0	1	4.5	4.466036796569824	can i confirm that you do not care about the price range ?	
confirm(price_range=dont_care)	4.0	4.0	0.0	1	5.0	4.990603923797607		4.0	4.0	0.0	1	4.5	4.466036796569824	can i confirm that you do not care about the price range ?	
inform(name=X-name,type=restaurant)	6.0	6.0	0.104012966	0	5.5	5.562458038330078		6.0	6.0	0.0	1	5.0	5.191867351531982	the name of the restaurant is X-name .	
inform(name=X-name,food=vegetarian)	6.0	6.0	0.27199078	0	5.5	5.471100807189941		6.0	6.0	0.0	1	5.0	5.208299160003662	there is a vegetarian restaurant called X-name .	
inform(name=X-name,near=X-near)	4.0	4.0	1.0019965	0	5.0	4.822825908660889		3.5	3.5	0.51593924	0	4.5	4.405492782592773	he X-name is located near X-near .	
inform(type=hotel,count=X-count,accepts_credit_cards=yes,price_range=pricey,area=X-area)	5.0	5.0	0.0	1	5.0	4.988394737243652		5.0	5.0	0.0	1	4.5	4.544318675994873	there are X-count hotels in the area of X-area , they are priceyly priced and accepts credit cards .	
inform(name=X-name,type=placetoeat,eattype=restaurant,area=X-area,food=Indian,food='Indian takeaway')	5.0	5.0	0.0	1	5.0	5.118964195251465		2.0	2.0	0.0	1	5.0	4.781631946563721	X-name is an indian restaurant that provides indian takeaway riverside .	
inform(name=X-name,phone=X-phone)	6.0	6.0	0.0	1	6.0	5.7756547927856445		5.0	5.0	0.0	1	5.5	5.292907238006592	the phone number for X-name is X-phone .	
inform(name=X-name,price_range=moderate)	3.0	3.0	0.16597223	0	4.5	4.650421619415283		3.0	3.0	0.14528084	0	4.0	4.145063877105713	X-name , is moderate .	
inform(name=X-name,type=placetoeat,eattype=restaurant,area=X-area,area=X-area,food=Indian)	5.0	5.0	0.0	1	5.0	5.0489630699157715		5.0	5.0	0.0	1	4.5	4.650489330291748	X-name is an indian restaurant in X-area and X-area .	
inform_no_match(area=X-area)	5.0	5.0	0.19507551	0	5.5	5.37321662902832		6.0	6.0	0.021801949	0	5.0	4.89496374130249	i am sorry but there are no hotels in the area of X-area .	
inform(name=X-name,good_for_meal=dinner)	5.0	5.0	0.6539664	0	5.0	4.823489189147949		4.5	4.5	0.16506481	0	4.5	4.370324611663818	X-name , is good for dinner .	
inform(name=X-name,type=placetoeat,pricerange=expensive,near=X-near,near=X-near,area=X-area,eattype=restaurant)	3.0	3.0	0.0	1	5.5	5.263070106506348		3.0	3.0	0.0	1	5.0	4.971553325653076	X-name is an expensive restaurant in X-near near X-near and X-area .	
inform(name=X-name,kids_allowed=yes,food=pizza)	4.0	4.0	0.005935669	0	5.0	5.243317604064941		2.0	2.0	0.0	1	5.0	4.964206695556641	X-name allows kids , and serves pizza food .	
inform(type=restaurant,count=X-count,price_range=cheap,area=X-area)	5.0	5.0	0.0	1	5.5	5.29625940322876		5.0	5.0	0.0	1	5.0	4.909982204437256	there are X-count cheap restaurants in X-area .	
inform(name=X-name,area=X-area,address=X-address)	6.0	6.0	0.0	1	5.0	4.966634750366211		4.0	4.0	0.0111551285	0	4.5	4.644336700439453	X-name is in the X-area hill area and the address is X-address .	
inform(type=hotel,count=X-count,area=X-area)	6.0	6.0	0.0	1	5.5	5.337792873382568		5.0	5.0	0.0	1	5.0	4.967353343963623	there are X-count hotels in the X-area area .	
inform(name=X-name,phone=X-phone)	5.0	5.0	0.115225315	0	5.5	5.632020473480225		5.0	5.0	0.0	1	5.5	5.336857795715332	you may reach the X-name at X-phone .	
inform(name=X-name,address=X-address,phone=X-phone)	5.5	5.5	0.0	1	5.5	5.430093288421631		5.5	5.5	0.0	1	5.0	5.128546237945557	X-name 's address is X-address , and its phone number is X-phone .	
inform(name=X-name,postcode=X-postcode)	1.0	1.0	0.0	1	5.5	5.666234493255615		2.0	2.0	0.0	1	5.0	5.246365547180176	the postcode for X-name is X-postcode .	
inform(name=X-name,near=X-near)	6.0	6.0	1.0019965	0	5.0	4.822825908660889		2.0	2.0	0.51593924	0	4.5	4.405492782592773	he X-name is located near X-near .	
inform(name=X-name,food='raw food')	6.0	6.0	0.27168417	0	5.5	5.550302028656006		6.0	6.0	0.0	1	5.5	5.296138763427734	there is a raw food restaurant called X-name .	
inform(name=X-name,area=X-area)	6.0	6.0	0.1663537	0	5.0	5.139446258544922		6.0	6.0	0.0	1	5.0	4.864363193511963	the X-name is in the X-area area .	
inform(name=X-name,kids_allowed=yes,food=pizza)	4.0	4.0	0.0	1	5.5	5.267089366912842		4.0	4.0	0.0	1	5.0	4.993536949157715	X-name allows kids and serves pizza food .	
inform(name=X-name,type=placetoeat,eattype=restaurant,area=X-area,food=Italian,food='Takeaway pizza')	6.0	6.0	0.0	1	5.0	4.906484603881836		6.0	6.0	0.0031485558	0	4.5	4.551332473754883	X-name is an italian restaurant that provides takeaway pizza in the centre of town .	
inform(name=X-name,good_for_meal=dinner,area=X-area)	5.0	5.0	0.69451284	0	4.5	4.349367618560791		5.0	5.0	0.394547	0	4.0	4.0428595542907715	X-name , is good for dinner , and is in the X-area area .	
inform(name=X-name,food=pizza)	5.5	5.5	0.08334017	0	5.5	5.408481597900391		6.0	6.0	0.0	1	5.0	5.171859264373779	there is a pizza restaurant called X-name .	
inform(name=X-name,type=placetoeat,eattype=restaurant)	6.0	6.0	0.0	1	5.5	5.537872791290283		6.0	6.0	0.0	1	5.0	5.155794620513916	X-name is a restaurant .	
inform(name=X-name,type=placetoeat,eattype=restaurant)	6.0	6.0	0.0	1	5.5	5.537872791290283		6.0	6.0	0.0	1	5.0	5.155794620513916	X-name is a restaurant .	
inform(name=X-name,area=X-area)	3.5	3.5	0.28190804	0	5.0	5.023891925811768		3.5	3.5	0.0	1	4.5	4.72869873046875	there is a hotel called in X-name and in the area of X-area .	
inform(name=X-name,address=X-address,phone=X-phone)	5.0	5.0	0.0	1	5.5	5.408106803894043		1.0	1.0	0.0	1	5.0	5.016666889190674	X-name is located at X-address and the phone number is X-phone .	
inform_no_match(area=X-area)	5.0	5.0	0.16251087	0	5.5	5.405781269073486		4.0	4.0	0.0	1	5.0	4.950105667114258	i am sorry but there are no hotels in the X-area area .	
inform(name=X-name,food=lebanese)	5.5	5.5	0.38476992	0	5.5	5.462341785430908		5.0	5.0	0.0	1	5.5	5.256898880004883	there is a lebanese restaurant called X-name .	
inform_only_match(name=X-name,near=X-near)	4.0	4.0	0.4469905	0	5.0	5.222802639007568		3.5	3.5	0.0	1	5.0	4.807905197143555	X-name is the only hotel near X-near .	
inform(name=X-name,address=X-address,phone=X-phone)	4.0	4.0	0.0	1	5.5	5.5039963722229		4.0	4.0	0.0	1	5.0	5.0913238525390625	the address of X-name is X-address and the phone number is X-phone .	
inform_no_match(food=steak,price_range=cheap)	3.0	3.0	0.0	1	5.0	5.2421464920043945		3.0	3.0	0.0	1	5.0	4.9447221755981445	i am sorry , i can not find any restaurants that serve steak food and are cheap .	
inform(name=X-name,area=X-area,price_range=cheap)	6.0	6.0	0.0469265	0	4.5	4.684006214141846		6.0	6.0	0.0	1	4.5	4.31374454498291	X-name is in the area of X-area and it is in the cheap price range .	
inform(name=X-name,type=placetoeat,eattype=restaurant,near=X-near,food=Seafood)	6.0	6.0	0.0	1	5.0	5.2022175788879395		6.0	6.0	0.0	1	5.0	4.926871299743652	X-name is a seafood restaurant near X-near .	
inform(name=X-name,type=placetoeat,pricerange=expensive,area=X-area,near=X-near,near=X-near,eattype=restaurant)	5.0	5.0	0.0	1	5.5	5.29484748840332		6.0	6.0	0.0	1	5.0	5.003415584564209	X-name is an expensive restaurant in X-area near X-near and X-near .	
request(good_for_meal)	6.0	6.0	0.35125303	0	5.5	5.308380126953125		5.0	5.0	0.047484398	0	5.0	5.089527606964111	are you looking for breakfast , brunch , lunch or dinner ?	
inform(name=X-name,address=X-address,postcode=X-postcode)	2.0	2.0	0.0	1	5.5	5.36148738861084		3.0	3.0	0.0	1	5.0	5.106774806976318	X-name , is located at X-address , X-postcode .	
inform(name=X-name,price_range=pricey,dogs_allowed=yes)	6.0	6.0	0.0069408417	0	5.5	5.315051078796387		5.0	5.0	0.0	1	5.0	4.990502834320068	the X-name allows dogs and is in the pricey price range .	
inform(name=X-name,type=restaurant)	6.0	6.0	0.104012966	0	5.5	5.562458038330078		5.5	5.5	0.0	1	5.0	5.191867351531982	the name of the restaurant is X-name .	
inform(name=X-name,phone=X-phone)	5.5	5.5	0.115225315	0	5.5	5.632020473480225		5.5	5.5	0.0	1	5.5	5.336857795715332	you may reach the X-name at X-phone .	
inform(name=X-name,near=X-near)	5.5	5.5	0.709054	0	5.0	5.1157684326171875		4.5	4.5	0.17171574	0	4.5	4.749716281890869	X-name , is near the X-near .	
inform(name=X-name,type=placetoeat,pricerange=moderate,area=X-area,near=X-near,eattype=restaurant)	5.0	5.0	0.0	1	5.5	5.334377765655518		4.0	4.0	0.0	1	5.0	5.091985702514648	X-name is a restaurant in the moderate price range close to X-area in X-near .	
inform(type=restaurant,count=X-count,price_range=dont_care)	5.0	5.0	0.0	1	5.5	5.336731433868408		5.0	5.0	0.0	1	5.0	5.068358421325684	there are X-count restaurants in any price range .	
inform_no_match(area=X-area)	3.0	3.0	0.24897146	0	5.5	5.3193206787109375		4.0	4.0	0.0	1	5.0	4.967363357543945	there are no restaurants in the X-area area .	
inform(name=X-name,accepts_credit_cards=yes)	5.0	5.0	0.20962095	0	5.5	5.382697105407715		5.0	5.0	0.0	1	5.0	5.02621603012085	X-name accepts credit cards .	
inform(name=X-name,accepts_credit_cards=yes)	4.0	4.0	0.20962095	0	5.5	5.382697105407715		3.0	3.0	0.0	1	5.0	5.02621603012085	X-name accepts credit cards .	
inform(name=X-name,price_range=moderate)	3.0	3.0	0.0	1	5.0	5.117795944213867		3.5	3.5	0.0	1	5.0	4.852328300476074	the X-name is a moderate hotel .	
inform(name=X-name,type=placetoeat,eattype=restaurant,area=X-area,food=Indian,food='Indian takeaway')	6.0	6.0	0.0	1	5.0	5.177436351776123		6.0	6.0	0.0	1	5.0	4.855895519256592	X-name is an indian restaurant in the riverside area .	
inform(name=X-name,price_range='ultra high end',address=X-address)	4.0	4.0	0.0	1	5.5	5.322734355926514		5.0	5.0	0.0	1	5.0	5.034950256347656	X-name has a ultra high endly priced hotel located at X-address .	
inform(name=X-name,area=X-area)	4.0	4.0	0.1663537	0	5.0	5.139446258544922		4.0	4.0	0.0	1	5.0	4.864363193511963	the X-name is in the X-area area .	
inform(name=X-name,address=X-address)	6.0	6.0	0.0	1	5.5	5.4848222732543945		5.0	5.0	0.0	1	5.0	5.158531188964844	the address for X-name is X-address .	
inform(name=X-name,phone=X-phone,postcode=X-postcode)	3.0	3.0	0.029252052	0	5.5	5.452409744262695		3.0	3.0	0.0	1	5.0	5.225828647613525	X-name , phone number is X-phone , and the postcode is X-postcode .	
inform(name=X-name,price_range=cheap)	6.0	6.0	0.04100275	0	5.0	5.13154935836792		4.0	4.0	0.0	1	4.5	4.731118679046631	X-name is in the cheap price range .	
inform(type=restaurant,count=X-count,good_for_meal=dont_care,food=pizza,kids_allowed=yes)	5.0	5.0	0.0	1	5.5	5.296329975128174		2.0	2.0	0.0	1	5.0	5.031964302062988	there are X-count restaurants that allow kids pizza are allowed for any meal .	
inform(name=X-name,good_for_meal=dinner,near=X-near,price_range=moderate)	3.0	3.0	0.0	1	5.0	4.787359714508057		4.0	4.0	0.0	1	4.5	4.440120697021484	X-name is a good , moderate restaurant for dinner located near X-near .	
inform(name=X-name,food='peruvian or tapas')	4.0	4.0	0.4902358	0	5.5	5.470953464508057		4.0	4.0	0.08124447	0	5.0	5.131250858306885	X-name serves peruvian or tapas food .	
inform(name=X-name,kids_allowed=yes)	6.0	6.0	0.1959238	0	5.5	5.441201210021973		4.0	4.0	0.0	1	5.0	5.211282730102539	X-name is a nice restaurant that allows children .	
inform(name=X-name,price_range=moderate,address=X-address)	4.0	4.0	0.0	1	5.0	5.096388339996338		4.0	4.0	0.0	1	5.0	4.833493232727051	the X-name is moderate , and the address is X-address .	
inform(name=X-name,area=X-area)	2.5	2.5	0.35588884	0	5.0	4.949911117553711		4.5	4.5	0.057016373	0	4.5	4.656034469604492	there is a hotel called in the X-name and in the area of X-area .	
inform(name=X-name,price_range=cheap,near=X-near,kids_allowed=no)	5.0	5.0	0.5383239	0	5.0	4.826656818389893		4.0	4.0	0.16146612	0	4.5	4.528456211090088	X-name , is near X-near , does not allow kids , and is cheap .	
inform(name=X-name,good_for_meal=lunch)	4.0	4.0	0.30046034	0	5.0	5.152961730957031		4.5	4.5	0.0	1	5.0	4.751648902893066	X-name , is good for lunch .	
inform(name=X-name,type=placetoeat,eattype=restaurant,near=X-near,pricerange=expensive,area=X-area)	5.0	5.0	0.0	1	5.0	4.8209686279296875		5.0	5.0	0.0	1	4.5	4.524051189422607	X-name is an expensive restaurant near X-near and in the centre of town .	
inform(name=X-name,type=placetoeat,near=X-near,area=X-area,area=X-area,eattype=restaurant)	2.0	2.0	0.0	1	5.0	5.209527492523193		2.5	2.5	0.0	1	5.0	4.978598594665527	X-name is a restaurant in X-near on and to X-area .	
inform(name=X-name,price_range=moderate,near=X-near,good_for_meal=dinner)	4.0	4.0	1.1918547	0	4.0	3.9402806758880615		4.5	4.5	0.57336783	0	3.5	3.5429961681365967	X-name , is near X-near , the is good for dinner , and it is in the moderate price range .	
inform(name=X-name,area=X-area,address=X-address)	5.5	5.5	0.14866877	0	5.0	4.805551052093506		5.5	5.5	0.15568829	0	4.5	4.49980354309082	X-name , is in the X-area area and it is address is X-address .	
inform(name=X-name,area=X-area,accepts_credit_cards=yes)	4.5	4.5	0.048368454	0	5.0	5.131915092468262		4.0	4.0	0.0	1	5.0	4.767001152038574	repeats X-name , accepts credit cards , and in X-area .	
inform(name=X-name,area=X-area,address=X-address)	3.0	3.0	0.14866877	0	5.0	4.805551052093506		3.0	3.0	0.15568829	0	4.5	4.49980354309082	X-name , is in the X-area area and it is address is X-address .	
inform(name=X-name,type=restaurant)	4.5	4.5	0.104012966	0	5.5	5.562458038330078		5.5	5.5	0.0	1	5.0	5.191867351531982	the name of the restaurant is X-name .	
inform(name=X-name,area=X-area,price_range=expensive,food=japanese)	6.0	6.0	0.0	1	5.0	5.0625433921813965		6.0	6.0	0.0	1	5.0	4.757936954498291	X-name is a expensive japanese restaurant in the X-area area .	
inform_no_match(near=X-near,price_range=expensive)	5.0	5.0	0.0	1	5.5	5.311305999755859		5.0	5.0	0.0	1	4.5	4.6890435218811035	there are no expensively priced restaurants near X-near .	
inform(name=X-name,price_range=moderate)	5.0	5.0	0.0	1	5.0	5.135133743286133		5.0	5.0	0.0	1	5.0	4.8744893074035645	the X-name is in the moderate price range .	
inform(name=X-name,type=restaurant)	4.5	4.5	0.104012966	0	5.5	5.562458038330078		4.5	4.5	0.0	1	5.0	5.191867351531982	the name of the restaurant is X-name .	
inform(name=X-name,area=X-area,phone=X-phone)	3.0	3.0	0.029913902	0	5.5	5.30330228805542		3.0	3.0	0.0	1	5.0	4.90230655670166	X-name , is in the X-area call X-phone .	
inform(name=X-name,type=restaurant)	5.0	5.0	0.044201374	0	5.5	5.622269630432129		5.0	5.0	0.0	1	5.0	5.113467693328857	X-name is a nice restaurant .	
inform(name=X-name,type=restaurant)	6.0	6.0	0.044201374	0	5.5	5.622269630432129		6.0	6.0	0.0	1	5.0	5.113467693328857	X-name is a nice restaurant .	
inform(name=X-name,food='comfort food',good_for_meal=dinner)	3.0	3.0	0.40736628	0	5.0	4.881253242492676		3.0	3.0	0.0	1	4.5	4.497735023498535	X-name , is a good restaurant that serves comfort food food , especially for dinner .	
inform(name=X-name,price_range=pricey,phone=X-phone)	2.0	2.0	0.0	1	5.5	5.453319549560547		4.0	4.0	0.0	1	5.0	4.9894914627075195	the X-name is in the pricey price range and the phone number is X-phone .	
inform(name=X-name,near=X-near,has_internet=yes)	4.0	4.0	0.016885757	0	5.5	5.351241111755371		3.5	3.5	0.0	1	5.0	5.057209491729736	the X-name , near the X-near does offer internet .	
inform_no_match(area=X-area)	5.0	5.0	0.16251087	0	5.5	5.405781269073486		5.0	5.0	0.0	1	5.0	4.950105667114258	i am sorry but there are no hotels in the X-area area .	
inform(name=X-name,price_range=pricey,area=X-area)	4.0	4.0	0.16296577	0	5.0	4.76240873336792		4.0	4.0	0.0	1	4.5	4.2859930992126465	X-name is in the X-area area and it is pricey .	
inform(name=X-name,address=X-address,phone=X-phone)	5.5	5.5	0.0	1	5.5	5.386600017547607		5.5	5.5	0.0	1	5.0	5.014148235321045	X-name is located at X-address , and their phone number is X-phone .	
inform(name=X-name,type=restaurant)	5.0	5.0	0.104012966	0	5.5	5.562458038330078		5.0	5.0	0.0	1	5.0	5.191867351531982	the name of the restaurant is X-name .	
inform(name=X-name,near=X-near,has_internet=yes)	4.5	4.5	0.016885757	0	5.5	5.351241111755371		4.5	4.5	0.0	1	5.0	5.057209491729736	the X-name , near the X-near does offer internet .	
inform(name=X-name,postcode=X-postcode)	6.0	6.0	0.0	1	5.5	5.720614910125732		5.0	5.0	0.0	1	5.5	5.279270172119141	the postcode for the X-name is X-postcode .	
inform(name=X-name,type=placetoeat,eattype=restaurant,area=X-area,area=X-area)	4.0	4.0	0.0	1	5.0	4.921748638153076		4.5	4.5	0.0	1	4.5	4.577732086181641	X-name is a restaurant in X-area and X-area .	
inform(name=X-name,good_for_meal=breakfast,area=X-area,kids_allowed=no)	5.0	5.0	0.26523733	0	5.0	4.924620151519775		5.0	5.0	0.0	1	4.5	4.643416881561279	X-name , is a nice restaurant in the X-area area that allows children , and is good for breakfast .	
inform(name=X-name,phone=X-phone)	6.0	6.0	0.0	1	6.0	5.7756547927856445		6.0	6.0	0.0	1	5.5	5.292907238006592	the phone number for X-name is X-phone .	
inform(name=X-name,phone=X-phone)	6.0	6.0	0.0	1	6.0	5.7756547927856445		5.0	5.0	0.0	1	5.5	5.292907238006592	the phone number for X-name is X-phone .	
inform(name=X-name,area=X-area,dogs_allowed=none)	6.0	6.0	0.12798738	0	5.0	5.2216901779174805		6.0	6.0	0.09815788	0	5.0	4.777200698852539	X-name is located near X-area and do not allow dogs .	
inform(name=X-name,has_internet=yes,near=X-near)	5.0	5.0	0.39116192	0	5.0	5.172549247741699		5.0	5.0	0.0	1	5.0	4.856695175170898	X-name is near X-near and has internet .	
inform(name=X-name,type=placetoeat,eattype=restaurant,near=X-near,area=X-area)	3.0	3.0	0.0	1	5.0	4.890377521514893		5.0	5.0	0.0	1	4.5	4.598222732543945	X-name is a restaurant located in X-near in the X-area area near x and x .	
inform(type=restaurant,count=X-count,kids_allowed=dont_care,area=X-area)	3.0	3.0	0.0	1	5.0	5.0144944190979		2.0	2.0	0.0	1	4.5	4.68970251083374	there are X-count restaurants in the X-area area do not care whether the kids are allowed .	
inform(name=X-name,food=afghan)	5.0	5.0	0.15940046	0	5.5	5.531473159790039		4.0	4.0	0.0	1	5.0	4.957888603210449	X-name serves afghan food .	
